{
  "type": "Program",
  "start": 0,
  "end": 656,
  "loc": {
    "start": {
      "line": 1,
      "column": 0
    },
    "end": {
      "line": 37,
      "column": 28
    }
  },
  "sourceType": "module",
  "body": [
    {
      "type": "ImportDeclaration",
      "start": 0,
      "end": 65,
      "loc": {
        "start": {
          "line": 1,
          "column": 0
        },
        "end": {
          "line": 1,
          "column": 65
        }
      },
      "specifiers": [
        {
          "type": "ImportSpecifier",
          "start": 9,
          "end": 19,
          "loc": {
            "start": {
              "line": 1,
              "column": 9
            },
            "end": {
              "line": 1,
              "column": 19
            }
          },
          "imported": {
            "type": "Identifier",
            "start": 9,
            "end": 19,
            "loc": {
              "start": {
                "line": 1,
                "column": 9
              },
              "end": {
                "line": 1,
                "column": 19
              }
            },
            "name": "GET_FOLDER"
          },
          "local": {
            "type": "Identifier",
            "start": 9,
            "end": 19,
            "loc": {
              "start": {
                "line": 1,
                "column": 9
              },
              "end": {
                "line": 1,
                "column": 19
              }
            },
            "name": "GET_FOLDER"
          }
        },
        {
          "type": "ImportSpecifier",
          "start": 21,
          "end": 27,
          "loc": {
            "start": {
              "line": 1,
              "column": 21
            },
            "end": {
              "line": 1,
              "column": 27
            }
          },
          "imported": {
            "type": "Identifier",
            "start": 21,
            "end": 27,
            "loc": {
              "start": {
                "line": 1,
                "column": 21
              },
              "end": {
                "line": 1,
                "column": 27
              }
            },
            "name": "TOGGLE"
          },
          "local": {
            "type": "Identifier",
            "start": 21,
            "end": 27,
            "loc": {
              "start": {
                "line": 1,
                "column": 21
              },
              "end": {
                "line": 1,
                "column": 27
              }
            },
            "name": "TOGGLE"
          }
        }
      ],
      "importKind": "value",
      "source": {
        "type": "Literal",
        "start": 34,
        "end": 65,
        "loc": {
          "start": {
            "line": 1,
            "column": 34
          },
          "end": {
            "line": 1,
            "column": 65
          }
        },
        "value": "../constants/TreePaneConstant",
        "rawValue": "../constants/TreePaneConstant",
        "raw": "'../constants/TreePaneConstant'"
      }
    },
    {
      "type": "VariableDeclaration",
      "start": 67,
      "end": 151,
      "loc": {
        "start": {
          "line": 3,
          "column": 0
        },
        "end": {
          "line": 7,
          "column": 3
        }
      },
      "declarations": [
        {
          "type": "VariableDeclarator",
          "start": 71,
          "end": 150,
          "loc": {
            "start": {
              "line": 3,
              "column": 4
            },
            "end": {
              "line": 7,
              "column": 2
            }
          },
          "id": {
            "type": "Identifier",
            "start": 71,
            "end": 86,
            "loc": {
              "start": {
                "line": 3,
                "column": 4
              },
              "end": {
                "line": 3,
                "column": 19
              }
            },
            "name": "initilizeValues"
          },
          "init": {
            "type": "ArrayExpression",
            "start": 89,
            "end": 150,
            "loc": {
              "start": {
                "line": 3,
                "column": 22
              },
              "end": {
                "line": 7,
                "column": 2
              }
            },
            "elements": [
              {
                "type": "ObjectExpression",
                "start": 90,
                "end": 149,
                "loc": {
                  "start": {
                    "line": 3,
                    "column": 23
                  },
                  "end": {
                    "line": 7,
                    "column": 1
                  }
                },
                "properties": [
                  {
                    "type": "Property",
                    "start": 107,
                    "end": 116,
                    "loc": {
                      "start": {
                        "line": 5,
                        "column": 14
                      },
                      "end": {
                        "line": 5,
                        "column": 23
                      }
                    },
                    "method": false,
                    "shorthand": false,
                    "computed": false,
                    "key": {
                      "type": "Identifier",
                      "start": 107,
                      "end": 112,
                      "loc": {
                        "start": {
                          "line": 5,
                          "column": 14
                        },
                        "end": {
                          "line": 5,
                          "column": 19
                        }
                      },
                      "name": "items"
                    },
                    "value": {
                      "type": "Literal",
                      "start": 114,
                      "end": 116,
                      "loc": {
                        "start": {
                          "line": 5,
                          "column": 21
                        },
                        "end": {
                          "line": 5,
                          "column": 23
                        }
                      },
                      "value": "",
                      "rawValue": "",
                      "raw": "''"
                    },
                    "kind": "init"
                  },
                  {
                    "type": "Property",
                    "start": 133,
                    "end": 147,
                    "loc": {
                      "start": {
                        "line": 6,
                        "column": 15
                      },
                      "end": {
                        "line": 6,
                        "column": 29
                      }
                    },
                    "method": false,
                    "shorthand": false,
                    "computed": false,
                    "key": {
                      "type": "Identifier",
                      "start": 133,
                      "end": 141,
                      "loc": {
                        "start": {
                          "line": 6,
                          "column": 15
                        },
                        "end": {
                          "line": 6,
                          "column": 23
                        }
                      },
                      "name": "expanded"
                    },
                    "value": {
                      "type": "Literal",
                      "start": 143,
                      "end": 147,
                      "loc": {
                        "start": {
                          "line": 6,
                          "column": 25
                        },
                        "end": {
                          "line": 6,
                          "column": 29
                        }
                      },
                      "value": true,
                      "rawValue": true,
                      "raw": "true"
                    },
                    "kind": "init"
                  }
                ]
              }
            ]
          }
        }
      ],
      "kind": "let"
    },
    {
      "type": "Identifier",
      "start": 154,
      "end": 626,
      "loc": {
        "start": {
          "line": 10,
          "column": 0
        },
        "end": {
          "line": 35,
          "column": 3
        }
      },
      "declarations": [
        {
          "type": "VariableDeclarator",
          "start": 160,
          "end": 626,
          "loc": {
            "start": {
              "line": 10,
              "column": 6
            },
            "end": {
              "line": 35,
              "column": 3
            }
          },
          "id": {
            "type": "Identifier",
            "start": 160,
            "end": 170,
            "loc": {
              "start": {
                "line": 10,
                "column": 6
              },
              "end": {
                "line": 10,
                "column": 16
              }
            },
            "name": "folderTree"
          },
          "init": {
            "type": "ArrowFunctionExpression",
            "start": 173,
            "end": 626,
            "loc": {
              "start": {
                "line": 10,
                "column": 19
              },
              "end": {
                "line": 35,
                "column": 3
              }
            },
            "id": null,
            "generator": false,
            "expression": false,
            "async": false,
            "params": [
              {
                "type": "AssignmentPattern",
                "start": 174,
                "end": 197,
                "loc": {
                  "start": {
                    "line": 10,
                    "column": 20
                  },
                  "end": {
                    "line": 10,
                    "column": 43
                  }
                },
                "left": {
                  "type": "Identifier",
                  "start": 174,
                  "end": 179,
                  "loc": {
                    "start": {
                      "line": 10,
                      "column": 20
                    },
                    "end": {
                      "line": 10,
                      "column": 25
                    }
                  },
                  "name": "state"
                },
                "right": {
                  "type": "Identifier",
                  "start": 182,
                  "end": 197,
                  "loc": {
                    "start": {
                      "line": 10,
                      "column": 28
                    },
                    "end": {
                      "line": 10,
                      "column": 43
                    }
                  },
                  "name": "initilizeValues"
                }
              },
              {
                "type": "Identifier",
                "start": 199,
                "end": 205,
                "loc": {
                  "start": {
                    "line": 10,
                    "column": 45
                  },
                  "end": {
                    "line": 10,
                    "column": 51
                  }
                },
                "name": "action"
              }
            ],
            "body": {
              "type": "BlockStatement",
              "start": 208,
              "end": 626,
              "loc": {
                "start": {
                  "line": 10,
                  "column": 54
                },
                "end": {
                  "line": 35,
                  "column": 3
                }
              },
              "body": [
                {
                  "type": "SwitchStatement",
                  "start": 213,
                  "end": 622,
                  "loc": {
                    "start": {
                      "line": 12,
                      "column": 2
                    },
                    "end": {
                      "line": 34,
                      "column": 5
                    }
                  },
                  "discriminant": {
                    "type": "MemberExpression",
                    "start": 220,
                    "end": 231,
                    "loc": {
                      "start": {
                        "line": 12,
                        "column": 9
                      },
                      "end": {
                        "line": 12,
                        "column": 20
                      }
                    },
                    "object": {
                      "type": "Identifier",
                      "start": 220,
                      "end": 226,
                      "loc": {
                        "start": {
                          "line": 12,
                          "column": 9
                        },
                        "end": {
                          "line": 12,
                          "column": 15
                        }
                      },
                      "name": "action"
                    },
                    "property": {
                      "type": "Identifier",
                      "start": 227,
                      "end": 231,
                      "loc": {
                        "start": {
                          "line": 12,
                          "column": 16
                        },
                        "end": {
                          "line": 12,
                          "column": 20
                        }
                      },
                      "name": "type"
                    },
                    "computed": false
                  },
                  "cases": [
                    {
                      "type": "SwitchCase",
                      "start": 239,
                      "end": 413,
                      "loc": {
                        "start": {
                          "line": 13,
                          "column": 4
                        },
                        "end": {
                          "line": 21,
                          "column": 10
                        }
                      },
                      "consequent": [
                        {
                          "type": "ReturnStatement",
                          "start": 260,
                          "end": 402,
                          "loc": {
                            "start": {
                              "line": 14,
                              "column": 4
                            },
                            "end": {
                              "line": 20,
                              "column": 5
                            }
                          },
                          "argument": {
                            "type": "ArrayExpression",
                            "start": 268,
                            "end": 402,
                            "loc": {
                              "start": {
                                "line": 14,
                                "column": 12
                              },
                              "end": {
                                "line": 20,
                                "column": 5
                              }
                            },
                            "elements": [
                              {
                                "type": "SpreadElement",
                                "start": 284,
                                "end": 292,
                                "loc": {
                                  "start": {
                                    "line": 15,
                                    "column": 14
                                  },
                                  "end": {
                                    "line": 15,
                                    "column": 22
                                  }
                                },
                                "argument": {
                                  "type": "Identifier",
                                  "start": 287,
                                  "end": 292,
                                  "loc": {
                                    "start": {
                                      "line": 15,
                                      "column": 17
                                    },
                                    "end": {
                                      "line": 15,
                                      "column": 22
                                    }
                                  },
                                  "name": "state"
                                }
                              },
                              {
                                "type": "ObjectExpression",
                                "start": 308,
                                "end": 396,
                                "loc": {
                                  "start": {
                                    "line": 16,
                                    "column": 14
                                  },
                                  "end": {
                                    "line": 19,
                                    "column": 15
                                  }
                                },
                                "properties": [
                                  {
                                    "type": "Property",
                                    "start": 328,
                                    "end": 346,
                                    "loc": {
                                      "start": {
                                        "line": 17,
                                        "column": 18
                                      },
                                      "end": {
                                        "line": 17,
                                        "column": 36
                                      }
                                    },
                                    "method": false,
                                    "shorthand": false,
                                    "computed": false,
                                    "key": {
                                      "type": "Identifier",
                                      "start": 328,
                                      "end": 333,
                                      "loc": {
                                        "start": {
                                          "line": 17,
                                          "column": 18
                                        },
                                        "end": {
                                          "line": 17,
                                          "column": 23
                                        }
                                      },
                                      "name": "items"
                                    },
                                    "value": {
                                      "type": "MemberExpression",
                                      "start": 335,
                                      "end": 346,
                                      "loc": {
                                        "start": {
                                          "line": 17,
                                          "column": 25
                                        },
                                        "end": {
                                          "line": 17,
                                          "column": 36
                                        }
                                      },
                                      "object": {
                                        "type": "Identifier",
                                        "start": 335,
                                        "end": 341,
                                        "loc": {
                                          "start": {
                                            "line": 17,
                                            "column": 25
                                          },
                                          "end": {
                                            "line": 17,
                                            "column": 31
                                          }
                                        },
                                        "name": "action"
                                      },
                                      "property": {
                                        "type": "Identifier",
                                        "start": 342,
                                        "end": 346,
                                        "loc": {
                                          "start": {
                                            "line": 17,
                                            "column": 32
                                          },
                                          "end": {
                                            "line": 17,
                                            "column": 36
                                          }
                                        },
                                        "name": "data"
                                      },
                                      "computed": false
                                    },
                                    "kind": "init"
                                  },
                                  {
                                    "type": "Property",
                                    "start": 366,
                                    "end": 380,
                                    "loc": {
                                      "start": {
                                        "line": 18,
                                        "column": 18
                                      },
                                      "end": {
                                        "line": 18,
                                        "column": 32
                                      }
                                    },
                                    "method": false,
                                    "shorthand": false,
                                    "computed": false,
                                    "key": {
                                      "type": "Identifier",
                                      "start": 366,
                                      "end": 374,
                                      "loc": {
                                        "start": {
                                          "line": 18,
                                          "column": 18
                                        },
                                        "end": {
                                          "line": 18,
                                          "column": 26
                                        }
                                      },
                                      "name": "expanded"
                                    },
                                    "value": {
                                      "type": "Literal",
                                      "start": 376,
                                      "end": 380,
                                      "loc": {
                                        "start": {
                                          "line": 18,
                                          "column": 28
                                        },
                                        "end": {
                                          "line": 18,
                                          "column": 32
                                        }
                                      },
                                      "value": true,
                                      "rawValue": true,
                                      "raw": "true"
                                    },
                                    "kind": "init"
                                  }
                                ]
                              }
                            ]
                          }
                        },
                        {
                          "type": "BreakStatement",
                          "start": 407,
                          "end": 413,
                          "loc": {
                            "start": {
                              "line": 21,
                              "column": 4
                            },
                            "end": {
                              "line": 21,
                              "column": 10
                            }
                          },
                          "label": null
                        }
                      ],
                      "test": {
                        "type": "Identifier",
                        "start": 244,
                        "end": 254,
                        "loc": {
                          "start": {
                            "line": 13,
                            "column": 9
                          },
                          "end": {
                            "line": 13,
                            "column": 19
                          }
                        },
                        "name": "GET_FOLDER"
                      }
                    },
                    {
                      "type": "SwitchCase",
                      "start": 419,
                      "end": 585,
                      "loc": {
                        "start": {
                          "line": 23,
                          "column": 4
                        },
                        "end": {
                          "line": 30,
                          "column": 10
                        }
                      },
                      "consequent": [
                        {
                          "type": "ReturnStatement",
                          "start": 443,
                          "end": 585,
                          "loc": {
                            "start": {
                              "line": 24,
                              "column": 4
                            },
                            "end": {
                              "line": 30,
                              "column": 10
                            }
                          },
                          "argument": {
                            "type": "ArrayExpression",
                            "start": 449,
                            "end": 584,
                            "loc": {
                              "start": {
                                "line": 24,
                                "column": 10
                              },
                              "end": {
                                "line": 30,
                                "column": 9
                              }
                            },
                            "elements": [
                              {
                                "type": "SpreadElement",
                                "start": 463,
                                "end": 471,
                                "loc": {
                                  "start": {
                                    "line": 25,
                                    "column": 12
                                  },
                                  "end": {
                                    "line": 25,
                                    "column": 20
                                  }
                                },
                                "argument": {
                                  "type": "Identifier",
                                  "start": 466,
                                  "end": 471,
                                  "loc": {
                                    "start": {
                                      "line": 25,
                                      "column": 15
                                    },
                                    "end": {
                                      "line": 25,
                                      "column": 20
                                    }
                                  },
                                  "name": "state"
                                }
                              },
                              {
                                "type": "ObjectExpression",
                                "start": 485,
                                "end": 574,
                                "loc": {
                                  "start": {
                                    "line": 26,
                                    "column": 12
                                  },
                                  "end": {
                                    "line": 29,
                                    "column": 13
                                  }
                                },
                                "properties": [
                                  {
                                    "type": "Property",
                                    "start": 501,
                                    "end": 520,
                                    "loc": {
                                      "start": {
                                        "line": 27,
                                        "column": 14
                                      },
                                      "end": {
                                        "line": 27,
                                        "column": 33
                                      }
                                    },
                                    "method": false,
                                    "shorthand": false,
                                    "computed": false,
                                    "key": {
                                      "type": "Identifier",
                                      "start": 501,
                                      "end": 506,
                                      "loc": {
                                        "start": {
                                          "line": 27,
                                          "column": 14
                                        },
                                        "end": {
                                          "line": 27,
                                          "column": 19
                                        }
                                      },
                                      "name": "items"
                                    },
                                    "value": {
                                      "type": "MemberExpression",
                                      "start": 509,
                                      "end": 520,
                                      "loc": {
                                        "start": {
                                          "line": 27,
                                          "column": 22
                                        },
                                        "end": {
                                          "line": 27,
                                          "column": 33
                                        }
                                      },
                                      "object": {
                                        "type": "Identifier",
                                        "start": 509,
                                        "end": 515,
                                        "loc": {
                                          "start": {
                                            "line": 27,
                                            "column": 22
                                          },
                                          "end": {
                                            "line": 27,
                                            "column": 28
                                          }
                                        },
                                        "name": "action"
                                      },
                                      "property": {
                                        "type": "Identifier",
                                        "start": 516,
                                        "end": 520,
                                        "loc": {
                                          "start": {
                                            "line": 27,
                                            "column": 29
                                          },
                                          "end": {
                                            "line": 27,
                                            "column": 33
                                          }
                                        },
                                        "name": "data"
                                      },
                                      "computed": false
                                    },
                                    "kind": "init"
                                  },
                                  {
                                    "type": "Property",
                                    "start": 536,
                                    "end": 560,
                                    "loc": {
                                      "start": {
                                        "line": 28,
                                        "column": 14
                                      },
                                      "end": {
                                        "line": 28,
                                        "column": 38
                                      }
                                    },
                                    "method": false,
                                    "shorthand": false,
                                    "computed": false,
                                    "key": {
                                      "type": "Identifier",
                                      "start": 536,
                                      "end": 544,
                                      "loc": {
                                        "start": {
                                          "line": 28,
                                          "column": 14
                                        },
                                        "end": {
                                          "line": 28,
                                          "column": 22
                                        }
                                      },
                                      "name": "expanded"
                                    },
                                    "value": {
                                      "type": "MemberExpression",
                                      "start": 547,
                                      "end": 560,
                                      "loc": {
                                        "start": {
                                          "line": 28,
                                          "column": 25
                                        },
                                        "end": {
                                          "line": 28,
                                          "column": 38
                                        }
                                      },
                                      "object": {
                                        "type": "Identifier",
                                        "start": 547,
                                        "end": 553,
                                        "loc": {
                                          "start": {
                                            "line": 28,
                                            "column": 25
                                          },
                                          "end": {
                                            "line": 28,
                                            "column": 31
                                          }
                                        },
                                        "name": "action"
                                      },
                                      "property": {
                                        "type": "Identifier",
                                        "start": 554,
                                        "end": 560,
                                        "loc": {
                                          "start": {
                                            "line": 28,
                                            "column": 32
                                          },
                                          "end": {
                                            "line": 28,
                                            "column": 38
                                          }
                                        },
                                        "name": "toggle"
                                      },
                                      "computed": false
                                    },
                                    "kind": "init"
                                  }
                                ]
                              }
                            ]
                          }
                        }
                      ],
                      "test": {
                        "type": "Literal",
                        "start": 424,
                        "end": 437,
                        "loc": {
                          "start": {
                            "line": 23,
                            "column": 9
                          },
                          "end": {
                            "line": 23,
                            "column": 22
                          }
                        },
                        "value": "TOGGLE_TEST",
                        "rawValue": "TOGGLE_TEST",
                        "raw": "'TOGGLE_TEST'"
                      }
                    },
                    {
                      "type": "SwitchCase",
                      "start": 591,
                      "end": 616,
                      "loc": {
                        "start": {
                          "line": 32,
                          "column": 4
                        },
                        "end": {
                          "line": 33,
                          "column": 16
                        }
                      },
                      "consequent": [
                        {
                          "type": "ReturnStatement",
                          "start": 604,
                          "end": 616,
                          "loc": {
                            "start": {
                              "line": 33,
                              "column": 4
                            },
                            "end": {
                              "line": 33,
                              "column": 16
                            }
                          },
                          "argument": {
                            "type": "Identifier",
                            "start": 611,
                            "end": 616,
                            "loc": {
                              "start": {
                                "line": 33,
                                "column": 11
                              },
                              "end": {
                                "line": 33,
                                "column": 16
                              }
                            },
                            "name": "state"
                          }
                        }
                      ],
                      "test": null
                    }
                  ]
                }
              ]
            }
          }
        }
      ],
      "kind": "const",
      "name": "_",
      "leadingComments": [],
      "trailingComments": []
    },
    {
      "type": "Identifier",
      "start": 630,
      "end": 656,
      "loc": {
        "start": {
          "line": 37,
          "column": 2
        },
        "end": {
          "line": 37,
          "column": 28
        }
      },
      "declaration": {
        "type": "Identifier",
        "start": 645,
        "end": 655,
        "loc": {
          "start": {
            "line": 37,
            "column": 17
          },
          "end": {
            "line": 37,
            "column": 27
          }
        },
        "name": "folderTree"
      },
      "name": "_",
      "leadingComments": [],
      "trailingComments": []
    },
    {
      "type": "ExportDefaultDeclaration",
      "start": 630,
      "end": 656,
      "loc": {
        "start": {
          "line": 37,
          "column": 2
        },
        "end": {
          "line": 37,
          "column": 28
        }
      },
      "declaration": {
        "type": "VariableDeclaration",
        "start": 154,
        "end": 626,
        "loc": {
          "start": {
            "line": 10,
            "column": 0
          },
          "end": {
            "line": 35,
            "column": 3
          }
        },
        "declarations": [
          {
            "type": "VariableDeclarator",
            "start": 160,
            "end": 626,
            "loc": {
              "start": {
                "line": 10,
                "column": 6
              },
              "end": {
                "line": 35,
                "column": 3
              }
            },
            "id": {
              "type": "Identifier",
              "start": 160,
              "end": 170,
              "loc": {
                "start": {
                  "line": 10,
                  "column": 6
                },
                "end": {
                  "line": 10,
                  "column": 16
                }
              },
              "name": "folderTree"
            },
            "init": {
              "type": "ArrowFunctionExpression",
              "start": 173,
              "end": 626,
              "loc": {
                "start": {
                  "line": 10,
                  "column": 19
                },
                "end": {
                  "line": 35,
                  "column": 3
                }
              },
              "id": null,
              "generator": false,
              "expression": false,
              "async": false,
              "params": [
                {
                  "type": "AssignmentPattern",
                  "start": 174,
                  "end": 197,
                  "loc": {
                    "start": {
                      "line": 10,
                      "column": 20
                    },
                    "end": {
                      "line": 10,
                      "column": 43
                    }
                  },
                  "left": {
                    "type": "Identifier",
                    "start": 174,
                    "end": 179,
                    "loc": {
                      "start": {
                        "line": 10,
                        "column": 20
                      },
                      "end": {
                        "line": 10,
                        "column": 25
                      }
                    },
                    "name": "state"
                  },
                  "right": {
                    "type": "Identifier",
                    "start": 182,
                    "end": 197,
                    "loc": {
                      "start": {
                        "line": 10,
                        "column": 28
                      },
                      "end": {
                        "line": 10,
                        "column": 43
                      }
                    },
                    "name": "initilizeValues"
                  }
                },
                {
                  "type": "Identifier",
                  "start": 199,
                  "end": 205,
                  "loc": {
                    "start": {
                      "line": 10,
                      "column": 45
                    },
                    "end": {
                      "line": 10,
                      "column": 51
                    }
                  },
                  "name": "action"
                }
              ],
              "body": {
                "type": "BlockStatement",
                "start": 208,
                "end": 626,
                "loc": {
                  "start": {
                    "line": 10,
                    "column": 54
                  },
                  "end": {
                    "line": 35,
                    "column": 3
                  }
                },
                "body": [
                  {
                    "type": "SwitchStatement",
                    "start": 213,
                    "end": 622,
                    "loc": {
                      "start": {
                        "line": 12,
                        "column": 2
                      },
                      "end": {
                        "line": 34,
                        "column": 5
                      }
                    },
                    "discriminant": {
                      "type": "MemberExpression",
                      "start": 220,
                      "end": 231,
                      "loc": {
                        "start": {
                          "line": 12,
                          "column": 9
                        },
                        "end": {
                          "line": 12,
                          "column": 20
                        }
                      },
                      "object": {
                        "type": "Identifier",
                        "start": 220,
                        "end": 226,
                        "loc": {
                          "start": {
                            "line": 12,
                            "column": 9
                          },
                          "end": {
                            "line": 12,
                            "column": 15
                          }
                        },
                        "name": "action"
                      },
                      "property": {
                        "type": "Identifier",
                        "start": 227,
                        "end": 231,
                        "loc": {
                          "start": {
                            "line": 12,
                            "column": 16
                          },
                          "end": {
                            "line": 12,
                            "column": 20
                          }
                        },
                        "name": "type"
                      },
                      "computed": false
                    },
                    "cases": [
                      {
                        "type": "SwitchCase",
                        "start": 239,
                        "end": 413,
                        "loc": {
                          "start": {
                            "line": 13,
                            "column": 4
                          },
                          "end": {
                            "line": 21,
                            "column": 10
                          }
                        },
                        "consequent": [
                          {
                            "type": "ReturnStatement",
                            "start": 260,
                            "end": 402,
                            "loc": {
                              "start": {
                                "line": 14,
                                "column": 4
                              },
                              "end": {
                                "line": 20,
                                "column": 5
                              }
                            },
                            "argument": {
                              "type": "ArrayExpression",
                              "start": 268,
                              "end": 402,
                              "loc": {
                                "start": {
                                  "line": 14,
                                  "column": 12
                                },
                                "end": {
                                  "line": 20,
                                  "column": 5
                                }
                              },
                              "elements": [
                                {
                                  "type": "SpreadElement",
                                  "start": 284,
                                  "end": 292,
                                  "loc": {
                                    "start": {
                                      "line": 15,
                                      "column": 14
                                    },
                                    "end": {
                                      "line": 15,
                                      "column": 22
                                    }
                                  },
                                  "argument": {
                                    "type": "Identifier",
                                    "start": 287,
                                    "end": 292,
                                    "loc": {
                                      "start": {
                                        "line": 15,
                                        "column": 17
                                      },
                                      "end": {
                                        "line": 15,
                                        "column": 22
                                      }
                                    },
                                    "name": "state"
                                  }
                                },
                                {
                                  "type": "ObjectExpression",
                                  "start": 308,
                                  "end": 396,
                                  "loc": {
                                    "start": {
                                      "line": 16,
                                      "column": 14
                                    },
                                    "end": {
                                      "line": 19,
                                      "column": 15
                                    }
                                  },
                                  "properties": [
                                    {
                                      "type": "Property",
                                      "start": 328,
                                      "end": 346,
                                      "loc": {
                                        "start": {
                                          "line": 17,
                                          "column": 18
                                        },
                                        "end": {
                                          "line": 17,
                                          "column": 36
                                        }
                                      },
                                      "method": false,
                                      "shorthand": false,
                                      "computed": false,
                                      "key": {
                                        "type": "Identifier",
                                        "start": 328,
                                        "end": 333,
                                        "loc": {
                                          "start": {
                                            "line": 17,
                                            "column": 18
                                          },
                                          "end": {
                                            "line": 17,
                                            "column": 23
                                          }
                                        },
                                        "name": "items"
                                      },
                                      "value": {
                                        "type": "MemberExpression",
                                        "start": 335,
                                        "end": 346,
                                        "loc": {
                                          "start": {
                                            "line": 17,
                                            "column": 25
                                          },
                                          "end": {
                                            "line": 17,
                                            "column": 36
                                          }
                                        },
                                        "object": {
                                          "type": "Identifier",
                                          "start": 335,
                                          "end": 341,
                                          "loc": {
                                            "start": {
                                              "line": 17,
                                              "column": 25
                                            },
                                            "end": {
                                              "line": 17,
                                              "column": 31
                                            }
                                          },
                                          "name": "action"
                                        },
                                        "property": {
                                          "type": "Identifier",
                                          "start": 342,
                                          "end": 346,
                                          "loc": {
                                            "start": {
                                              "line": 17,
                                              "column": 32
                                            },
                                            "end": {
                                              "line": 17,
                                              "column": 36
                                            }
                                          },
                                          "name": "data"
                                        },
                                        "computed": false
                                      },
                                      "kind": "init"
                                    },
                                    {
                                      "type": "Property",
                                      "start": 366,
                                      "end": 380,
                                      "loc": {
                                        "start": {
                                          "line": 18,
                                          "column": 18
                                        },
                                        "end": {
                                          "line": 18,
                                          "column": 32
                                        }
                                      },
                                      "method": false,
                                      "shorthand": false,
                                      "computed": false,
                                      "key": {
                                        "type": "Identifier",
                                        "start": 366,
                                        "end": 374,
                                        "loc": {
                                          "start": {
                                            "line": 18,
                                            "column": 18
                                          },
                                          "end": {
                                            "line": 18,
                                            "column": 26
                                          }
                                        },
                                        "name": "expanded"
                                      },
                                      "value": {
                                        "type": "Literal",
                                        "start": 376,
                                        "end": 380,
                                        "loc": {
                                          "start": {
                                            "line": 18,
                                            "column": 28
                                          },
                                          "end": {
                                            "line": 18,
                                            "column": 32
                                          }
                                        },
                                        "value": true,
                                        "rawValue": true,
                                        "raw": "true"
                                      },
                                      "kind": "init"
                                    }
                                  ]
                                }
                              ]
                            }
                          },
                          {
                            "type": "BreakStatement",
                            "start": 407,
                            "end": 413,
                            "loc": {
                              "start": {
                                "line": 21,
                                "column": 4
                              },
                              "end": {
                                "line": 21,
                                "column": 10
                              }
                            },
                            "label": null
                          }
                        ],
                        "test": {
                          "type": "Identifier",
                          "start": 244,
                          "end": 254,
                          "loc": {
                            "start": {
                              "line": 13,
                              "column": 9
                            },
                            "end": {
                              "line": 13,
                              "column": 19
                            }
                          },
                          "name": "GET_FOLDER"
                        }
                      },
                      {
                        "type": "SwitchCase",
                        "start": 419,
                        "end": 585,
                        "loc": {
                          "start": {
                            "line": 23,
                            "column": 4
                          },
                          "end": {
                            "line": 30,
                            "column": 10
                          }
                        },
                        "consequent": [
                          {
                            "type": "ReturnStatement",
                            "start": 443,
                            "end": 585,
                            "loc": {
                              "start": {
                                "line": 24,
                                "column": 4
                              },
                              "end": {
                                "line": 30,
                                "column": 10
                              }
                            },
                            "argument": {
                              "type": "ArrayExpression",
                              "start": 449,
                              "end": 584,
                              "loc": {
                                "start": {
                                  "line": 24,
                                  "column": 10
                                },
                                "end": {
                                  "line": 30,
                                  "column": 9
                                }
                              },
                              "elements": [
                                {
                                  "type": "SpreadElement",
                                  "start": 463,
                                  "end": 471,
                                  "loc": {
                                    "start": {
                                      "line": 25,
                                      "column": 12
                                    },
                                    "end": {
                                      "line": 25,
                                      "column": 20
                                    }
                                  },
                                  "argument": {
                                    "type": "Identifier",
                                    "start": 466,
                                    "end": 471,
                                    "loc": {
                                      "start": {
                                        "line": 25,
                                        "column": 15
                                      },
                                      "end": {
                                        "line": 25,
                                        "column": 20
                                      }
                                    },
                                    "name": "state"
                                  }
                                },
                                {
                                  "type": "ObjectExpression",
                                  "start": 485,
                                  "end": 574,
                                  "loc": {
                                    "start": {
                                      "line": 26,
                                      "column": 12
                                    },
                                    "end": {
                                      "line": 29,
                                      "column": 13
                                    }
                                  },
                                  "properties": [
                                    {
                                      "type": "Property",
                                      "start": 501,
                                      "end": 520,
                                      "loc": {
                                        "start": {
                                          "line": 27,
                                          "column": 14
                                        },
                                        "end": {
                                          "line": 27,
                                          "column": 33
                                        }
                                      },
                                      "method": false,
                                      "shorthand": false,
                                      "computed": false,
                                      "key": {
                                        "type": "Identifier",
                                        "start": 501,
                                        "end": 506,
                                        "loc": {
                                          "start": {
                                            "line": 27,
                                            "column": 14
                                          },
                                          "end": {
                                            "line": 27,
                                            "column": 19
                                          }
                                        },
                                        "name": "items"
                                      },
                                      "value": {
                                        "type": "MemberExpression",
                                        "start": 509,
                                        "end": 520,
                                        "loc": {
                                          "start": {
                                            "line": 27,
                                            "column": 22
                                          },
                                          "end": {
                                            "line": 27,
                                            "column": 33
                                          }
                                        },
                                        "object": {
                                          "type": "Identifier",
                                          "start": 509,
                                          "end": 515,
                                          "loc": {
                                            "start": {
                                              "line": 27,
                                              "column": 22
                                            },
                                            "end": {
                                              "line": 27,
                                              "column": 28
                                            }
                                          },
                                          "name": "action"
                                        },
                                        "property": {
                                          "type": "Identifier",
                                          "start": 516,
                                          "end": 520,
                                          "loc": {
                                            "start": {
                                              "line": 27,
                                              "column": 29
                                            },
                                            "end": {
                                              "line": 27,
                                              "column": 33
                                            }
                                          },
                                          "name": "data"
                                        },
                                        "computed": false
                                      },
                                      "kind": "init"
                                    },
                                    {
                                      "type": "Property",
                                      "start": 536,
                                      "end": 560,
                                      "loc": {
                                        "start": {
                                          "line": 28,
                                          "column": 14
                                        },
                                        "end": {
                                          "line": 28,
                                          "column": 38
                                        }
                                      },
                                      "method": false,
                                      "shorthand": false,
                                      "computed": false,
                                      "key": {
                                        "type": "Identifier",
                                        "start": 536,
                                        "end": 544,
                                        "loc": {
                                          "start": {
                                            "line": 28,
                                            "column": 14
                                          },
                                          "end": {
                                            "line": 28,
                                            "column": 22
                                          }
                                        },
                                        "name": "expanded"
                                      },
                                      "value": {
                                        "type": "MemberExpression",
                                        "start": 547,
                                        "end": 560,
                                        "loc": {
                                          "start": {
                                            "line": 28,
                                            "column": 25
                                          },
                                          "end": {
                                            "line": 28,
                                            "column": 38
                                          }
                                        },
                                        "object": {
                                          "type": "Identifier",
                                          "start": 547,
                                          "end": 553,
                                          "loc": {
                                            "start": {
                                              "line": 28,
                                              "column": 25
                                            },
                                            "end": {
                                              "line": 28,
                                              "column": 31
                                            }
                                          },
                                          "name": "action"
                                        },
                                        "property": {
                                          "type": "Identifier",
                                          "start": 554,
                                          "end": 560,
                                          "loc": {
                                            "start": {
                                              "line": 28,
                                              "column": 32
                                            },
                                            "end": {
                                              "line": 28,
                                              "column": 38
                                            }
                                          },
                                          "name": "toggle"
                                        },
                                        "computed": false
                                      },
                                      "kind": "init"
                                    }
                                  ]
                                }
                              ]
                            }
                          }
                        ],
                        "test": {
                          "type": "Literal",
                          "start": 424,
                          "end": 437,
                          "loc": {
                            "start": {
                              "line": 23,
                              "column": 9
                            },
                            "end": {
                              "line": 23,
                              "column": 22
                            }
                          },
                          "value": "TOGGLE_TEST",
                          "rawValue": "TOGGLE_TEST",
                          "raw": "'TOGGLE_TEST'"
                        }
                      },
                      {
                        "type": "SwitchCase",
                        "start": 591,
                        "end": 616,
                        "loc": {
                          "start": {
                            "line": 32,
                            "column": 4
                          },
                          "end": {
                            "line": 33,
                            "column": 16
                          }
                        },
                        "consequent": [
                          {
                            "type": "ReturnStatement",
                            "start": 604,
                            "end": 616,
                            "loc": {
                              "start": {
                                "line": 33,
                                "column": 4
                              },
                              "end": {
                                "line": 33,
                                "column": 16
                              }
                            },
                            "argument": {
                              "type": "Identifier",
                              "start": 611,
                              "end": 616,
                              "loc": {
                                "start": {
                                  "line": 33,
                                  "column": 11
                                },
                                "end": {
                                  "line": 33,
                                  "column": 16
                                }
                              },
                              "name": "state"
                            }
                          }
                        ],
                        "test": null
                      }
                    ]
                  }
                ]
              }
            }
          }
        ],
        "kind": "const",
        "leadingComments": [],
        "trailingComments": []
      }
    }
  ]
}