{
  "type": "Program",
  "start": 0,
  "end": 734,
  "loc": {
    "start": {
      "line": 1,
      "column": 0
    },
    "end": {
      "line": 32,
      "column": 1
    }
  },
  "sourceType": "module",
  "body": [
    {
      "type": "VariableDeclaration",
      "start": 0,
      "end": 38,
      "loc": {
        "start": {
          "line": 1,
          "column": 0
        },
        "end": {
          "line": 1,
          "column": 38
        }
      },
      "declarations": [
        {
          "type": "VariableDeclarator",
          "start": 6,
          "end": 37,
          "loc": {
            "start": {
              "line": 1,
              "column": 6
            },
            "end": {
              "line": 1,
              "column": 37
            }
          },
          "id": {
            "type": "Identifier",
            "start": 6,
            "end": 13,
            "loc": {
              "start": {
                "line": 1,
                "column": 6
              },
              "end": {
                "line": 1,
                "column": 13
              }
            },
            "name": "request"
          },
          "init": {
            "type": "CallExpression",
            "start": 16,
            "end": 37,
            "loc": {
              "start": {
                "line": 1,
                "column": 16
              },
              "end": {
                "line": 1,
                "column": 37
              }
            },
            "callee": {
              "type": "Identifier",
              "start": 16,
              "end": 23,
              "loc": {
                "start": {
                  "line": 1,
                  "column": 16
                },
                "end": {
                  "line": 1,
                  "column": 23
                }
              },
              "name": "require"
            },
            "arguments": [
              {
                "type": "Literal",
                "start": 24,
                "end": 36,
                "loc": {
                  "start": {
                    "line": 1,
                    "column": 24
                  },
                  "end": {
                    "line": 1,
                    "column": 36
                  }
                },
                "value": "superagent",
                "rawValue": "superagent",
                "raw": "'superagent'"
              }
            ]
          }
        }
      ],
      "kind": "const"
    },
    {
      "type": "VariableDeclaration",
      "start": 39,
      "end": 76,
      "loc": {
        "start": {
          "line": 2,
          "column": 0
        },
        "end": {
          "line": 2,
          "column": 37
        }
      },
      "declarations": [
        {
          "type": "VariableDeclarator",
          "start": 46,
          "end": 75,
          "loc": {
            "start": {
              "line": 2,
              "column": 7
            },
            "end": {
              "line": 2,
              "column": 36
            }
          },
          "id": {
            "type": "Identifier",
            "start": 46,
            "end": 53,
            "loc": {
              "start": {
                "line": 2,
                "column": 7
              },
              "end": {
                "line": 2,
                "column": 14
              }
            },
            "name": "Promise"
          },
          "init": {
            "type": "CallExpression",
            "start": 56,
            "end": 75,
            "loc": {
              "start": {
                "line": 2,
                "column": 17
              },
              "end": {
                "line": 2,
                "column": 36
              }
            },
            "callee": {
              "type": "Identifier",
              "start": 56,
              "end": 63,
              "loc": {
                "start": {
                  "line": 2,
                  "column": 17
                },
                "end": {
                  "line": 2,
                  "column": 24
                }
              },
              "name": "require"
            },
            "arguments": [
              {
                "type": "Literal",
                "start": 64,
                "end": 74,
                "loc": {
                  "start": {
                    "line": 2,
                    "column": 25
                  },
                  "end": {
                    "line": 2,
                    "column": 35
                  }
                },
                "value": "bluebird",
                "rawValue": "bluebird",
                "raw": "'bluebird'"
              }
            ]
          }
        }
      ],
      "kind": "const"
    },
    {
      "type": "ImportDeclaration",
      "start": 77,
      "end": 124,
      "loc": {
        "start": {
          "line": 3,
          "column": 0
        },
        "end": {
          "line": 3,
          "column": 47
        }
      },
      "specifiers": [
        {
          "type": "ImportDefaultSpecifier",
          "start": 84,
          "end": 95,
          "loc": {
            "start": {
              "line": 3,
              "column": 7
            },
            "end": {
              "line": 3,
              "column": 18
            }
          },
          "local": {
            "type": "Identifier",
            "start": 84,
            "end": 95,
            "loc": {
              "start": {
                "line": 3,
                "column": 7
              },
              "end": {
                "line": 3,
                "column": 18
              }
            },
            "name": "serviceUrls"
          }
        }
      ],
      "importKind": "value",
      "source": {
        "type": "Literal",
        "start": 101,
        "end": 123,
        "loc": {
          "start": {
            "line": 3,
            "column": 24
          },
          "end": {
            "line": 3,
            "column": 46
          }
        },
        "value": "../constants/service",
        "rawValue": "../constants/service",
        "raw": "'../constants/service'"
      }
    },
    {
      "type": "ExportDefaultDeclaration",
      "start": 126,
      "end": 734,
      "loc": {
        "start": {
          "line": 5,
          "column": 0
        },
        "end": {
          "line": 32,
          "column": 1
        }
      },
      "declaration": {
        "type": "ObjectExpression",
        "start": 141,
        "end": 734,
        "loc": {
          "start": {
            "line": 5,
            "column": 15
          },
          "end": {
            "line": 32,
            "column": 1
          }
        },
        "properties": [
          {
            "type": "Property",
            "start": 144,
            "end": 346,
            "loc": {
              "start": {
                "line": 7,
                "column": 0
              },
              "end": {
                "line": 15,
                "column": 3
              }
            },
            "method": true,
            "shorthand": false,
            "computed": false,
            "key": {
              "type": "Identifier",
              "start": 144,
              "end": 159,
              "loc": {
                "start": {
                  "line": 7,
                  "column": 0
                },
                "end": {
                  "line": 7,
                  "column": 15
                }
              },
              "name": "getRootChildren"
            },
            "kind": "init",
            "value": {
              "type": "FunctionExpression",
              "start": 159,
              "end": 346,
              "loc": {
                "start": {
                  "line": 7,
                  "column": 15
                },
                "end": {
                  "line": 15,
                  "column": 3
                }
              },
              "id": null,
              "generator": false,
              "expression": false,
              "async": false,
              "params": [],
              "body": {
                "type": "BlockStatement",
                "start": 162,
                "end": 346,
                "loc": {
                  "start": {
                    "line": 7,
                    "column": 18
                  },
                  "end": {
                    "line": 15,
                    "column": 3
                  }
                },
                "body": [
                  {
                    "type": "VariableDeclaration",
                    "start": 168,
                    "end": 201,
                    "loc": {
                      "start": {
                        "line": 8,
                        "column": 4
                      },
                      "end": {
                        "line": 8,
                        "column": 37
                      }
                    },
                    "declarations": [
                      {
                        "type": "VariableDeclarator",
                        "start": 172,
                        "end": 200,
                        "loc": {
                          "start": {
                            "line": 8,
                            "column": 8
                          },
                          "end": {
                            "line": 8,
                            "column": 36
                          }
                        },
                        "id": {
                          "type": "Identifier",
                          "start": 172,
                          "end": 175,
                          "loc": {
                            "start": {
                              "line": 8,
                              "column": 8
                            },
                            "end": {
                              "line": 8,
                              "column": 11
                            }
                          },
                          "name": "url"
                        },
                        "init": {
                          "type": "MemberExpression",
                          "start": 178,
                          "end": 200,
                          "loc": {
                            "start": {
                              "line": 8,
                              "column": 14
                            },
                            "end": {
                              "line": 8,
                              "column": 36
                            }
                          },
                          "object": {
                            "type": "Identifier",
                            "start": 178,
                            "end": 189,
                            "loc": {
                              "start": {
                                "line": 8,
                                "column": 14
                              },
                              "end": {
                                "line": 8,
                                "column": 25
                              }
                            },
                            "name": "serviceUrls"
                          },
                          "property": {
                            "type": "Identifier",
                            "start": 190,
                            "end": 200,
                            "loc": {
                              "start": {
                                "line": 8,
                                "column": 26
                              },
                              "end": {
                                "line": 8,
                                "column": 36
                              }
                            },
                            "name": "folderData"
                          },
                          "computed": false
                        }
                      }
                    ],
                    "kind": "let"
                  },
                  {
                    "type": "ExpressionStatement",
                    "start": 206,
                    "end": 223,
                    "loc": {
                      "start": {
                        "line": 9,
                        "column": 4
                      },
                      "end": {
                        "line": 9,
                        "column": 21
                      }
                    },
                    "expression": {
                      "type": "CallExpression",
                      "start": 206,
                      "end": 222,
                      "loc": {
                        "start": {
                          "line": 9,
                          "column": 4
                        },
                        "end": {
                          "line": 9,
                          "column": 20
                        }
                      },
                      "callee": {
                        "type": "MemberExpression",
                        "start": 206,
                        "end": 217,
                        "loc": {
                          "start": {
                            "line": 9,
                            "column": 4
                          },
                          "end": {
                            "line": 9,
                            "column": 15
                          }
                        },
                        "object": {
                          "type": "Identifier",
                          "start": 206,
                          "end": 213,
                          "loc": {
                            "start": {
                              "line": 9,
                              "column": 4
                            },
                            "end": {
                              "line": 9,
                              "column": 11
                            }
                          },
                          "name": "console"
                        },
                        "property": {
                          "type": "Identifier",
                          "start": 214,
                          "end": 217,
                          "loc": {
                            "start": {
                              "line": 9,
                              "column": 12
                            },
                            "end": {
                              "line": 9,
                              "column": 15
                            }
                          },
                          "name": "log"
                        },
                        "computed": false
                      },
                      "arguments": [
                        {
                          "type": "Identifier",
                          "start": 218,
                          "end": 221,
                          "loc": {
                            "start": {
                              "line": 9,
                              "column": 16
                            },
                            "end": {
                              "line": 9,
                              "column": 19
                            }
                          },
                          "name": "url"
                        }
                      ]
                    }
                  },
                  {
                    "type": "ReturnStatement",
                    "start": 228,
                    "end": 342,
                    "loc": {
                      "start": {
                        "line": 10,
                        "column": 4
                      },
                      "end": {
                        "line": 14,
                        "column": 9
                      }
                    },
                    "argument": {
                      "type": "CallExpression",
                      "start": 235,
                      "end": 342,
                      "loc": {
                        "start": {
                          "line": 10,
                          "column": 11
                        },
                        "end": {
                          "line": 14,
                          "column": 9
                        }
                      },
                      "callee": {
                        "type": "MemberExpression",
                        "start": 235,
                        "end": 255,
                        "loc": {
                          "start": {
                            "line": 10,
                            "column": 11
                          },
                          "end": {
                            "line": 10,
                            "column": 31
                          }
                        },
                        "object": {
                          "type": "Identifier",
                          "start": 235,
                          "end": 242,
                          "loc": {
                            "start": {
                              "line": 10,
                              "column": 11
                            },
                            "end": {
                              "line": 10,
                              "column": 18
                            }
                          },
                          "name": "Promise"
                        },
                        "property": {
                          "type": "Identifier",
                          "start": 243,
                          "end": 255,
                          "loc": {
                            "start": {
                              "line": 10,
                              "column": 19
                            },
                            "end": {
                              "line": 10,
                              "column": 31
                            }
                          },
                          "name": "promisifyAll"
                        },
                        "computed": false
                      },
                      "arguments": [
                        {
                          "type": "CallExpression",
                          "start": 267,
                          "end": 332,
                          "loc": {
                            "start": {
                              "line": 11,
                              "column": 10
                            },
                            "end": {
                              "line": 13,
                              "column": 35
                            }
                          },
                          "callee": {
                            "type": "MemberExpression",
                            "start": 267,
                            "end": 314,
                            "loc": {
                              "start": {
                                "line": 11,
                                "column": 10
                              },
                              "end": {
                                "line": 13,
                                "column": 17
                              }
                            },
                            "object": {
                              "type": "CallExpression",
                              "start": 267,
                              "end": 296,
                              "loc": {
                                "start": {
                                  "line": 11,
                                  "column": 10
                                },
                                "end": {
                                  "line": 12,
                                  "column": 21
                                }
                              },
                              "callee": {
                                "type": "MemberExpression",
                                "start": 267,
                                "end": 291,
                                "loc": {
                                  "start": {
                                    "line": 11,
                                    "column": 10
                                  },
                                  "end": {
                                    "line": 12,
                                    "column": 16
                                  }
                                },
                                "object": {
                                  "type": "Identifier",
                                  "start": 267,
                                  "end": 274,
                                  "loc": {
                                    "start": {
                                      "line": 11,
                                      "column": 10
                                    },
                                    "end": {
                                      "line": 11,
                                      "column": 17
                                    }
                                  },
                                  "name": "request"
                                },
                                "property": {
                                  "type": "Identifier",
                                  "start": 288,
                                  "end": 291,
                                  "loc": {
                                    "start": {
                                      "line": 12,
                                      "column": 13
                                    },
                                    "end": {
                                      "line": 12,
                                      "column": 16
                                    }
                                  },
                                  "name": "get"
                                },
                                "computed": false
                              },
                              "arguments": [
                                {
                                  "type": "Identifier",
                                  "start": 292,
                                  "end": 295,
                                  "loc": {
                                    "start": {
                                      "line": 12,
                                      "column": 17
                                    },
                                    "end": {
                                      "line": 12,
                                      "column": 20
                                    }
                                  },
                                  "name": "url"
                                }
                              ]
                            },
                            "property": {
                              "type": "Identifier",
                              "start": 310,
                              "end": 314,
                              "loc": {
                                "start": {
                                  "line": 13,
                                  "column": 13
                                },
                                "end": {
                                  "line": 13,
                                  "column": 17
                                }
                              },
                              "name": "auth"
                            },
                            "computed": false
                          },
                          "arguments": [
                            {
                              "type": "Literal",
                              "start": 315,
                              "end": 322,
                              "loc": {
                                "start": {
                                  "line": 13,
                                  "column": 18
                                },
                                "end": {
                                  "line": 13,
                                  "column": 25
                                }
                              },
                              "value": "admin",
                              "rawValue": "admin",
                              "raw": "'admin'"
                            },
                            {
                              "type": "Literal",
                              "start": 324,
                              "end": 331,
                              "loc": {
                                "start": {
                                  "line": 13,
                                  "column": 27
                                },
                                "end": {
                                  "line": 13,
                                  "column": 34
                                }
                              },
                              "value": "admin",
                              "rawValue": "admin",
                              "raw": "'admin'"
                            }
                          ]
                        }
                      ]
                    }
                  }
                ]
              }
            }
          },
          {
            "type": "Property",
            "start": 352,
            "end": 732,
            "loc": {
              "start": {
                "line": 17,
                "column": 3
              },
              "end": {
                "line": 31,
                "column": 3
              }
            },
            "method": true,
            "shorthand": false,
            "computed": false,
            "key": {
              "type": "Identifier",
              "start": 352,
              "end": 369,
              "loc": {
                "start": {
                  "line": 17,
                  "column": 3
                },
                "end": {
                  "line": 17,
                  "column": 20
                }
              },
              "name": "getFoldersService"
            },
            "kind": "init",
            "value": {
              "type": "FunctionExpression",
              "start": 369,
              "end": 732,
              "loc": {
                "start": {
                  "line": 17,
                  "column": 20
                },
                "end": {
                  "line": 31,
                  "column": 3
                }
              },
              "id": null,
              "generator": false,
              "expression": false,
              "async": false,
              "params": [
                {
                  "type": "Identifier",
                  "start": 370,
                  "end": 380,
                  "loc": {
                    "start": {
                      "line": 17,
                      "column": 21
                    },
                    "end": {
                      "line": 17,
                      "column": 31
                    }
                  },
                  "name": "folderName"
                }
              ],
              "body": {
                "type": "BlockStatement",
                "start": 382,
                "end": 732,
                "loc": {
                  "start": {
                    "line": 17,
                    "column": 33
                  },
                  "end": {
                    "line": 31,
                    "column": 3
                  }
                },
                "body": [
                  {
                    "type": "ExpressionStatement",
                    "start": 388,
                    "end": 427,
                    "loc": {
                      "start": {
                        "line": 18,
                        "column": 4
                      },
                      "end": {
                        "line": 18,
                        "column": 43
                      }
                    },
                    "expression": {
                      "type": "CallExpression",
                      "start": 388,
                      "end": 426,
                      "loc": {
                        "start": {
                          "line": 18,
                          "column": 4
                        },
                        "end": {
                          "line": 18,
                          "column": 42
                        }
                      },
                      "callee": {
                        "type": "MemberExpression",
                        "start": 388,
                        "end": 399,
                        "loc": {
                          "start": {
                            "line": 18,
                            "column": 4
                          },
                          "end": {
                            "line": 18,
                            "column": 15
                          }
                        },
                        "object": {
                          "type": "Identifier",
                          "start": 388,
                          "end": 395,
                          "loc": {
                            "start": {
                              "line": 18,
                              "column": 4
                            },
                            "end": {
                              "line": 18,
                              "column": 11
                            }
                          },
                          "name": "console"
                        },
                        "property": {
                          "type": "Identifier",
                          "start": 396,
                          "end": 399,
                          "loc": {
                            "start": {
                              "line": 18,
                              "column": 12
                            },
                            "end": {
                              "line": 18,
                              "column": 15
                            }
                          },
                          "name": "log"
                        },
                        "computed": false
                      },
                      "arguments": [
                        {
                          "type": "BinaryExpression",
                          "start": 400,
                          "end": 425,
                          "loc": {
                            "start": {
                              "line": 18,
                              "column": 16
                            },
                            "end": {
                              "line": 18,
                              "column": 41
                            }
                          },
                          "left": {
                            "type": "Literal",
                            "start": 400,
                            "end": 414,
                            "loc": {
                              "start": {
                                "line": 18,
                                "column": 16
                              },
                              "end": {
                                "line": 18,
                                "column": 30
                              }
                            },
                            "value": "File Name : ",
                            "rawValue": "File Name : ",
                            "raw": "\"File Name : \""
                          },
                          "operator": "+",
                          "right": {
                            "type": "Identifier",
                            "start": 415,
                            "end": 425,
                            "loc": {
                              "start": {
                                "line": 18,
                                "column": 31
                              },
                              "end": {
                                "line": 18,
                                "column": 41
                              }
                            },
                            "name": "folderName"
                          }
                        }
                      ]
                    }
                  },
                  {
                    "type": "VariableDeclaration",
                    "start": 432,
                    "end": 465,
                    "loc": {
                      "start": {
                        "line": 19,
                        "column": 4
                      },
                      "end": {
                        "line": 19,
                        "column": 37
                      }
                    },
                    "declarations": [
                      {
                        "type": "VariableDeclarator",
                        "start": 436,
                        "end": 464,
                        "loc": {
                          "start": {
                            "line": 19,
                            "column": 8
                          },
                          "end": {
                            "line": 19,
                            "column": 36
                          }
                        },
                        "id": {
                          "type": "Identifier",
                          "start": 436,
                          "end": 439,
                          "loc": {
                            "start": {
                              "line": 19,
                              "column": 8
                            },
                            "end": {
                              "line": 19,
                              "column": 11
                            }
                          },
                          "name": "url"
                        },
                        "init": {
                          "type": "MemberExpression",
                          "start": 442,
                          "end": 464,
                          "loc": {
                            "start": {
                              "line": 19,
                              "column": 14
                            },
                            "end": {
                              "line": 19,
                              "column": 36
                            }
                          },
                          "object": {
                            "type": "Identifier",
                            "start": 442,
                            "end": 453,
                            "loc": {
                              "start": {
                                "line": 19,
                                "column": 14
                              },
                              "end": {
                                "line": 19,
                                "column": 25
                              }
                            },
                            "name": "serviceUrls"
                          },
                          "property": {
                            "type": "Identifier",
                            "start": 454,
                            "end": 464,
                            "loc": {
                              "start": {
                                "line": 19,
                                "column": 26
                              },
                              "end": {
                                "line": 19,
                                "column": 36
                              }
                            },
                            "name": "folderData"
                          },
                          "computed": false
                        }
                      }
                    ],
                    "kind": "let"
                  },
                  {
                    "type": "IfStatement",
                    "start": 471,
                    "end": 586,
                    "loc": {
                      "start": {
                        "line": 21,
                        "column": 4
                      },
                      "end": {
                        "line": 23,
                        "column": 5
                      }
                    },
                    "test": {
                      "type": "LogicalExpression",
                      "start": 474,
                      "end": 528,
                      "loc": {
                        "start": {
                          "line": 21,
                          "column": 7
                        },
                        "end": {
                          "line": 21,
                          "column": 61
                        }
                      },
                      "left": {
                        "type": "BinaryExpression",
                        "start": 474,
                        "end": 498,
                        "loc": {
                          "start": {
                            "line": 21,
                            "column": 7
                          },
                          "end": {
                            "line": 21,
                            "column": 31
                          }
                        },
                        "left": {
                          "type": "Identifier",
                          "start": 474,
                          "end": 484,
                          "loc": {
                            "start": {
                              "line": 21,
                              "column": 7
                            },
                            "end": {
                              "line": 21,
                              "column": 17
                            }
                          },
                          "name": "folderName"
                        },
                        "operator": "!=",
                        "right": {
                          "type": "Literal",
                          "start": 488,
                          "end": 498,
                          "loc": {
                            "start": {
                              "line": 21,
                              "column": 21
                            },
                            "end": {
                              "line": 21,
                              "column": 31
                            }
                          },
                          "value": "My Files",
                          "rawValue": "My Files",
                          "raw": "'My Files'"
                        }
                      },
                      "operator": "&&",
                      "right": {
                        "type": "BinaryExpression",
                        "start": 502,
                        "end": 528,
                        "loc": {
                          "start": {
                            "line": 21,
                            "column": 35
                          },
                          "end": {
                            "line": 21,
                            "column": 61
                          }
                        },
                        "left": {
                          "type": "Identifier",
                          "start": 502,
                          "end": 512,
                          "loc": {
                            "start": {
                              "line": 21,
                              "column": 35
                            },
                            "end": {
                              "line": 21,
                              "column": 45
                            }
                          },
                          "name": "folderName"
                        },
                        "operator": "===",
                        "right": {
                          "type": "Literal",
                          "start": 517,
                          "end": 528,
                          "loc": {
                            "start": {
                              "line": 21,
                              "column": 50
                            },
                            "end": {
                              "line": 21,
                              "column": 61
                            }
                          },
                          "value": "undefined",
                          "rawValue": "undefined",
                          "raw": "'undefined'"
                        }
                      }
                    },
                    "consequent": {
                      "type": "BlockStatement",
                      "start": 529,
                      "end": 586,
                      "loc": {
                        "start": {
                          "line": 21,
                          "column": 62
                        },
                        "end": {
                          "line": 23,
                          "column": 5
                        }
                      },
                      "body": [
                        {
                          "type": "ExpressionStatement",
                          "start": 536,
                          "end": 580,
                          "loc": {
                            "start": {
                              "line": 22,
                              "column": 5
                            },
                            "end": {
                              "line": 22,
                              "column": 49
                            }
                          },
                          "expression": {
                            "type": "AssignmentExpression",
                            "start": 536,
                            "end": 579,
                            "loc": {
                              "start": {
                                "line": 22,
                                "column": 5
                              },
                              "end": {
                                "line": 22,
                                "column": 48
                              }
                            },
                            "operator": "=",
                            "left": {
                              "type": "Identifier",
                              "start": 536,
                              "end": 539,
                              "loc": {
                                "start": {
                                  "line": 22,
                                  "column": 5
                                },
                                "end": {
                                  "line": 22,
                                  "column": 8
                                }
                              },
                              "name": "url"
                            },
                            "right": {
                              "type": "BinaryExpression",
                              "start": 542,
                              "end": 579,
                              "loc": {
                                "start": {
                                  "line": 22,
                                  "column": 11
                                },
                                "end": {
                                  "line": 22,
                                  "column": 48
                                }
                              },
                              "left": {
                                "type": "BinaryExpression",
                                "start": 542,
                                "end": 568,
                                "loc": {
                                  "start": {
                                    "line": 22,
                                    "column": 11
                                  },
                                  "end": {
                                    "line": 22,
                                    "column": 37
                                  }
                                },
                                "left": {
                                  "type": "MemberExpression",
                                  "start": 542,
                                  "end": 564,
                                  "loc": {
                                    "start": {
                                      "line": 22,
                                      "column": 11
                                    },
                                    "end": {
                                      "line": 22,
                                      "column": 33
                                    }
                                  },
                                  "object": {
                                    "type": "Identifier",
                                    "start": 542,
                                    "end": 553,
                                    "loc": {
                                      "start": {
                                        "line": 22,
                                        "column": 11
                                      },
                                      "end": {
                                        "line": 22,
                                        "column": 22
                                      }
                                    },
                                    "name": "serviceUrls"
                                  },
                                  "property": {
                                    "type": "Identifier",
                                    "start": 554,
                                    "end": 564,
                                    "loc": {
                                      "start": {
                                        "line": 22,
                                        "column": 23
                                      },
                                      "end": {
                                        "line": 22,
                                        "column": 33
                                      }
                                    },
                                    "name": "folderData"
                                  },
                                  "computed": false
                                },
                                "operator": "+",
                                "right": {
                                  "type": "Literal",
                                  "start": 565,
                                  "end": 568,
                                  "loc": {
                                    "start": {
                                      "line": 22,
                                      "column": 34
                                    },
                                    "end": {
                                      "line": 22,
                                      "column": 37
                                    }
                                  },
                                  "value": "/",
                                  "rawValue": "/",
                                  "raw": "\"/\""
                                }
                              },
                              "operator": "+",
                              "right": {
                                "type": "Identifier",
                                "start": 569,
                                "end": 579,
                                "loc": {
                                  "start": {
                                    "line": 22,
                                    "column": 38
                                  },
                                  "end": {
                                    "line": 22,
                                    "column": 48
                                  }
                                },
                                "name": "folderName"
                              }
                            }
                          }
                        }
                      ]
                    },
                    "alternate": null
                  },
                  {
                    "type": "ExpressionStatement",
                    "start": 592,
                    "end": 609,
                    "loc": {
                      "start": {
                        "line": 25,
                        "column": 4
                      },
                      "end": {
                        "line": 25,
                        "column": 21
                      }
                    },
                    "expression": {
                      "type": "CallExpression",
                      "start": 592,
                      "end": 608,
                      "loc": {
                        "start": {
                          "line": 25,
                          "column": 4
                        },
                        "end": {
                          "line": 25,
                          "column": 20
                        }
                      },
                      "callee": {
                        "type": "MemberExpression",
                        "start": 592,
                        "end": 603,
                        "loc": {
                          "start": {
                            "line": 25,
                            "column": 4
                          },
                          "end": {
                            "line": 25,
                            "column": 15
                          }
                        },
                        "object": {
                          "type": "Identifier",
                          "start": 592,
                          "end": 599,
                          "loc": {
                            "start": {
                              "line": 25,
                              "column": 4
                            },
                            "end": {
                              "line": 25,
                              "column": 11
                            }
                          },
                          "name": "console"
                        },
                        "property": {
                          "type": "Identifier",
                          "start": 600,
                          "end": 603,
                          "loc": {
                            "start": {
                              "line": 25,
                              "column": 12
                            },
                            "end": {
                              "line": 25,
                              "column": 15
                            }
                          },
                          "name": "log"
                        },
                        "computed": false
                      },
                      "arguments": [
                        {
                          "type": "Identifier",
                          "start": 604,
                          "end": 607,
                          "loc": {
                            "start": {
                              "line": 25,
                              "column": 16
                            },
                            "end": {
                              "line": 25,
                              "column": 19
                            }
                          },
                          "name": "url"
                        }
                      ]
                    }
                  },
                  {
                    "type": "ReturnStatement",
                    "start": 614,
                    "end": 728,
                    "loc": {
                      "start": {
                        "line": 26,
                        "column": 4
                      },
                      "end": {
                        "line": 30,
                        "column": 9
                      }
                    },
                    "argument": {
                      "type": "CallExpression",
                      "start": 621,
                      "end": 728,
                      "loc": {
                        "start": {
                          "line": 26,
                          "column": 11
                        },
                        "end": {
                          "line": 30,
                          "column": 9
                        }
                      },
                      "callee": {
                        "type": "MemberExpression",
                        "start": 621,
                        "end": 641,
                        "loc": {
                          "start": {
                            "line": 26,
                            "column": 11
                          },
                          "end": {
                            "line": 26,
                            "column": 31
                          }
                        },
                        "object": {
                          "type": "Identifier",
                          "start": 621,
                          "end": 628,
                          "loc": {
                            "start": {
                              "line": 26,
                              "column": 11
                            },
                            "end": {
                              "line": 26,
                              "column": 18
                            }
                          },
                          "name": "Promise"
                        },
                        "property": {
                          "type": "Identifier",
                          "start": 629,
                          "end": 641,
                          "loc": {
                            "start": {
                              "line": 26,
                              "column": 19
                            },
                            "end": {
                              "line": 26,
                              "column": 31
                            }
                          },
                          "name": "promisifyAll"
                        },
                        "computed": false
                      },
                      "arguments": [
                        {
                          "type": "CallExpression",
                          "start": 653,
                          "end": 718,
                          "loc": {
                            "start": {
                              "line": 27,
                              "column": 10
                            },
                            "end": {
                              "line": 29,
                              "column": 35
                            }
                          },
                          "callee": {
                            "type": "MemberExpression",
                            "start": 653,
                            "end": 700,
                            "loc": {
                              "start": {
                                "line": 27,
                                "column": 10
                              },
                              "end": {
                                "line": 29,
                                "column": 17
                              }
                            },
                            "object": {
                              "type": "CallExpression",
                              "start": 653,
                              "end": 682,
                              "loc": {
                                "start": {
                                  "line": 27,
                                  "column": 10
                                },
                                "end": {
                                  "line": 28,
                                  "column": 21
                                }
                              },
                              "callee": {
                                "type": "MemberExpression",
                                "start": 653,
                                "end": 677,
                                "loc": {
                                  "start": {
                                    "line": 27,
                                    "column": 10
                                  },
                                  "end": {
                                    "line": 28,
                                    "column": 16
                                  }
                                },
                                "object": {
                                  "type": "Identifier",
                                  "start": 653,
                                  "end": 660,
                                  "loc": {
                                    "start": {
                                      "line": 27,
                                      "column": 10
                                    },
                                    "end": {
                                      "line": 27,
                                      "column": 17
                                    }
                                  },
                                  "name": "request"
                                },
                                "property": {
                                  "type": "Identifier",
                                  "start": 674,
                                  "end": 677,
                                  "loc": {
                                    "start": {
                                      "line": 28,
                                      "column": 13
                                    },
                                    "end": {
                                      "line": 28,
                                      "column": 16
                                    }
                                  },
                                  "name": "get"
                                },
                                "computed": false
                              },
                              "arguments": [
                                {
                                  "type": "Identifier",
                                  "start": 678,
                                  "end": 681,
                                  "loc": {
                                    "start": {
                                      "line": 28,
                                      "column": 17
                                    },
                                    "end": {
                                      "line": 28,
                                      "column": 20
                                    }
                                  },
                                  "name": "url"
                                }
                              ]
                            },
                            "property": {
                              "type": "Identifier",
                              "start": 696,
                              "end": 700,
                              "loc": {
                                "start": {
                                  "line": 29,
                                  "column": 13
                                },
                                "end": {
                                  "line": 29,
                                  "column": 17
                                }
                              },
                              "name": "auth"
                            },
                            "computed": false
                          },
                          "arguments": [
                            {
                              "type": "Literal",
                              "start": 701,
                              "end": 708,
                              "loc": {
                                "start": {
                                  "line": 29,
                                  "column": 18
                                },
                                "end": {
                                  "line": 29,
                                  "column": 25
                                }
                              },
                              "value": "admin",
                              "rawValue": "admin",
                              "raw": "'admin'"
                            },
                            {
                              "type": "Literal",
                              "start": 710,
                              "end": 717,
                              "loc": {
                                "start": {
                                  "line": 29,
                                  "column": 27
                                },
                                "end": {
                                  "line": 29,
                                  "column": 34
                                }
                              },
                              "value": "admin",
                              "rawValue": "admin",
                              "raw": "'admin'"
                            }
                          ]
                        }
                      ]
                    }
                  }
                ]
              }
            }
          }
        ],
        "leadingComments": [],
        "trailingComments": []
      }
    }
  ]
}