{
  "type": "Program",
  "start": 0,
  "end": 74,
  "loc": {
    "start": {
      "line": 1,
      "column": 0
    },
    "end": {
      "line": 5,
      "column": 0
    }
  },
  "sourceType": "module",
  "body": [
    {
      "type": "ExpressionStatement",
      "start": 0,
      "end": 72,
      "loc": {
        "start": {
          "line": 1,
          "column": 0
        },
        "end": {
          "line": 3,
          "column": 2
        }
      },
      "expression": {
        "type": "AssignmentExpression",
        "start": 0,
        "end": 71,
        "loc": {
          "start": {
            "line": 1,
            "column": 0
          },
          "end": {
            "line": 3,
            "column": 1
          }
        },
        "operator": "=",
        "left": {
          "type": "MemberExpression",
          "start": 0,
          "end": 14,
          "loc": {
            "start": {
              "line": 1,
              "column": 0
            },
            "end": {
              "line": 1,
              "column": 14
            }
          },
          "object": {
            "type": "Identifier",
            "start": 0,
            "end": 6,
            "loc": {
              "start": {
                "line": 1,
                "column": 0
              },
              "end": {
                "line": 1,
                "column": 6
              }
            },
            "name": "module"
          },
          "property": {
            "type": "Identifier",
            "start": 7,
            "end": 14,
            "loc": {
              "start": {
                "line": 1,
                "column": 7
              },
              "end": {
                "line": 1,
                "column": 14
              }
            },
            "name": "exports"
          },
          "computed": false
        },
        "right": {
          "type": "ObjectExpression",
          "start": 17,
          "end": 71,
          "loc": {
            "start": {
              "line": 1,
              "column": 17
            },
            "end": {
              "line": 3,
              "column": 1
            }
          },
          "properties": [
            {
              "type": "Property",
              "start": 21,
              "end": 68,
              "loc": {
                "start": {
                  "line": 2,
                  "column": 2
                },
                "end": {
                  "line": 2,
                  "column": 49
                }
              },
              "method": false,
              "shorthand": false,
              "computed": false,
              "key": {
                "type": "Identifier",
                "start": 21,
                "end": 33,
                "loc": {
                  "start": {
                    "line": 2,
                    "column": 2
                  },
                  "end": {
                    "line": 2,
                    "column": 14
                  }
                },
                "name": "autoComplete"
              },
              "value": {
                "type": "Literal",
                "start": 35,
                "end": 68,
                "loc": {
                  "start": {
                    "line": 2,
                    "column": 16
                  },
                  "end": {
                    "line": 2,
                    "column": 49
                  }
                },
                "value": "http://localhost:3000/languages",
                "rawValue": "http://localhost:3000/languages",
                "raw": "'http://localhost:3000/languages'"
              },
              "kind": "init"
            }
          ]
        }
      }
    }
  ]
}