{
  "type": "Program",
  "start": 0,
  "end": 882,
  "loc": {
    "start": {
      "line": 1,
      "column": 0
    },
    "end": {
      "line": 38,
      "column": 0
    }
  },
  "sourceType": "module",
  "body": [
    {
      "type": "ImportDeclaration",
      "start": 0,
      "end": 26,
      "loc": {
        "start": {
          "line": 1,
          "column": 0
        },
        "end": {
          "line": 1,
          "column": 26
        }
      },
      "specifiers": [
        {
          "type": "ImportDefaultSpecifier",
          "start": 7,
          "end": 12,
          "loc": {
            "start": {
              "line": 1,
              "column": 7
            },
            "end": {
              "line": 1,
              "column": 12
            }
          },
          "local": {
            "type": "Identifier",
            "start": 7,
            "end": 12,
            "loc": {
              "start": {
                "line": 1,
                "column": 7
              },
              "end": {
                "line": 1,
                "column": 12
              }
            },
            "name": "React"
          }
        }
      ],
      "importKind": "value",
      "source": {
        "type": "Literal",
        "start": 18,
        "end": 25,
        "loc": {
          "start": {
            "line": 1,
            "column": 18
          },
          "end": {
            "line": 1,
            "column": 25
          }
        },
        "value": "react",
        "rawValue": "react",
        "raw": "'react'"
      }
    },
    {
      "type": "ClassDeclaration",
      "start": 29,
      "end": 844,
      "loc": {
        "start": {
          "line": 4,
          "column": 0
        },
        "end": {
          "line": 35,
          "column": 1
        }
      },
      "id": {
        "type": "Identifier",
        "start": 35,
        "end": 51,
        "loc": {
          "start": {
            "line": 4,
            "column": 6
          },
          "end": {
            "line": 4,
            "column": 22
          }
        },
        "name": "AccordionSection"
      },
      "superClass": {
        "type": "MemberExpression",
        "start": 60,
        "end": 75,
        "loc": {
          "start": {
            "line": 4,
            "column": 31
          },
          "end": {
            "line": 4,
            "column": 46
          }
        },
        "object": {
          "type": "Identifier",
          "start": 60,
          "end": 65,
          "loc": {
            "start": {
              "line": 4,
              "column": 31
            },
            "end": {
              "line": 4,
              "column": 36
            }
          },
          "name": "React"
        },
        "property": {
          "type": "Identifier",
          "start": 66,
          "end": 75,
          "loc": {
            "start": {
              "line": 4,
              "column": 37
            },
            "end": {
              "line": 4,
              "column": 46
            }
          },
          "name": "Component"
        },
        "computed": false
      },
      "body": {
        "type": "ClassBody",
        "start": 75,
        "end": 844,
        "loc": {
          "start": {
            "line": 4,
            "column": 46
          },
          "end": {
            "line": 35,
            "column": 1
          }
        },
        "body": [
          {
            "type": "MethodDefinition",
            "start": 82,
            "end": 217,
            "loc": {
              "start": {
                "line": 6,
                "column": 4
              },
              "end": {
                "line": 11,
                "column": 2
              }
            },
            "computed": false,
            "key": {
              "type": "Identifier",
              "start": 82,
              "end": 93,
              "loc": {
                "start": {
                  "line": 6,
                  "column": 4
                },
                "end": {
                  "line": 6,
                  "column": 15
                }
              },
              "name": "constructor"
            },
            "static": false,
            "kind": "constructor",
            "value": {
              "type": "FunctionExpression",
              "start": 93,
              "end": 217,
              "loc": {
                "start": {
                  "line": 6,
                  "column": 15
                },
                "end": {
                  "line": 11,
                  "column": 2
                }
              },
              "id": null,
              "generator": false,
              "expression": false,
              "async": false,
              "params": [
                {
                  "type": "Identifier",
                  "start": 94,
                  "end": 99,
                  "loc": {
                    "start": {
                      "line": 6,
                      "column": 16
                    },
                    "end": {
                      "line": 6,
                      "column": 21
                    }
                  },
                  "name": "props"
                }
              ],
              "body": {
                "type": "BlockStatement",
                "start": 101,
                "end": 217,
                "loc": {
                  "start": {
                    "line": 6,
                    "column": 23
                  },
                  "end": {
                    "line": 11,
                    "column": 2
                  }
                },
                "body": [
                  {
                    "type": "ExpressionStatement",
                    "start": 107,
                    "end": 120,
                    "loc": {
                      "start": {
                        "line": 7,
                        "column": 4
                      },
                      "end": {
                        "line": 7,
                        "column": 17
                      }
                    },
                    "expression": {
                      "type": "CallExpression",
                      "start": 107,
                      "end": 119,
                      "loc": {
                        "start": {
                          "line": 7,
                          "column": 4
                        },
                        "end": {
                          "line": 7,
                          "column": 16
                        }
                      },
                      "callee": {
                        "type": "Super",
                        "start": 107,
                        "end": 112,
                        "loc": {
                          "start": {
                            "line": 7,
                            "column": 4
                          },
                          "end": {
                            "line": 7,
                            "column": 9
                          }
                        }
                      },
                      "arguments": [
                        {
                          "type": "Identifier",
                          "start": 113,
                          "end": 118,
                          "loc": {
                            "start": {
                              "line": 7,
                              "column": 10
                            },
                            "end": {
                              "line": 7,
                              "column": 15
                            }
                          },
                          "name": "props"
                        }
                      ]
                    }
                  },
                  {
                    "type": "ExpressionStatement",
                    "start": 125,
                    "end": 163,
                    "loc": {
                      "start": {
                        "line": 8,
                        "column": 4
                      },
                      "end": {
                        "line": 8,
                        "column": 42
                      }
                    },
                    "expression": {
                      "type": "AssignmentExpression",
                      "start": 125,
                      "end": 162,
                      "loc": {
                        "start": {
                          "line": 8,
                          "column": 4
                        },
                        "end": {
                          "line": 8,
                          "column": 41
                        }
                      },
                      "operator": "=",
                      "left": {
                        "type": "MemberExpression",
                        "start": 125,
                        "end": 141,
                        "loc": {
                          "start": {
                            "line": 8,
                            "column": 4
                          },
                          "end": {
                            "line": 8,
                            "column": 20
                          }
                        },
                        "object": {
                          "type": "ThisExpression",
                          "start": 125,
                          "end": 129,
                          "loc": {
                            "start": {
                              "line": 8,
                              "column": 4
                            },
                            "end": {
                              "line": 8,
                              "column": 8
                            }
                          }
                        },
                        "property": {
                          "type": "Identifier",
                          "start": 130,
                          "end": 141,
                          "loc": {
                            "start": {
                              "line": 8,
                              "column": 9
                            },
                            "end": {
                              "line": 8,
                              "column": 20
                            }
                          },
                          "name": "displayName"
                        },
                        "computed": false
                      },
                      "right": {
                        "type": "Literal",
                        "start": 144,
                        "end": 162,
                        "loc": {
                          "start": {
                            "line": 8,
                            "column": 23
                          },
                          "end": {
                            "line": 8,
                            "column": 41
                          }
                        },
                        "value": "AccordionSection",
                        "rawValue": "AccordionSection",
                        "raw": "'AccordionSection'"
                      }
                    }
                  },
                  {
                    "type": "ExpressionStatement",
                    "start": 168,
                    "end": 209,
                    "loc": {
                      "start": {
                        "line": 9,
                        "column": 4
                      },
                      "end": {
                        "line": 9,
                        "column": 45
                      }
                    },
                    "expression": {
                      "type": "AssignmentExpression",
                      "start": 168,
                      "end": 208,
                      "loc": {
                        "start": {
                          "line": 9,
                          "column": 4
                        },
                        "end": {
                          "line": 9,
                          "column": 44
                        }
                      },
                      "operator": "=",
                      "left": {
                        "type": "MemberExpression",
                        "start": 168,
                        "end": 181,
                        "loc": {
                          "start": {
                            "line": 9,
                            "column": 4
                          },
                          "end": {
                            "line": 9,
                            "column": 17
                          }
                        },
                        "object": {
                          "type": "ThisExpression",
                          "start": 168,
                          "end": 172,
                          "loc": {
                            "start": {
                              "line": 9,
                              "column": 4
                            },
                            "end": {
                              "line": 9,
                              "column": 8
                            }
                          }
                        },
                        "property": {
                          "type": "Identifier",
                          "start": 173,
                          "end": 181,
                          "loc": {
                            "start": {
                              "line": 9,
                              "column": 9
                            },
                            "end": {
                              "line": 9,
                              "column": 17
                            }
                          },
                          "name": "onSelect"
                        },
                        "computed": false
                      },
                      "right": {
                        "type": "CallExpression",
                        "start": 184,
                        "end": 208,
                        "loc": {
                          "start": {
                            "line": 9,
                            "column": 20
                          },
                          "end": {
                            "line": 9,
                            "column": 44
                          }
                        },
                        "callee": {
                          "type": "MemberExpression",
                          "start": 184,
                          "end": 202,
                          "loc": {
                            "start": {
                              "line": 9,
                              "column": 20
                            },
                            "end": {
                              "line": 9,
                              "column": 38
                            }
                          },
                          "object": {
                            "type": "MemberExpression",
                            "start": 184,
                            "end": 197,
                            "loc": {
                              "start": {
                                "line": 9,
                                "column": 20
                              },
                              "end": {
                                "line": 9,
                                "column": 33
                              }
                            },
                            "object": {
                              "type": "ThisExpression",
                              "start": 184,
                              "end": 188,
                              "loc": {
                                "start": {
                                  "line": 9,
                                  "column": 20
                                },
                                "end": {
                                  "line": 9,
                                  "column": 24
                                }
                              }
                            },
                            "property": {
                              "type": "Identifier",
                              "start": 189,
                              "end": 197,
                              "loc": {
                                "start": {
                                  "line": 9,
                                  "column": 25
                                },
                                "end": {
                                  "line": 9,
                                  "column": 33
                                }
                              },
                              "name": "onSelect"
                            },
                            "computed": false
                          },
                          "property": {
                            "type": "Identifier",
                            "start": 198,
                            "end": 202,
                            "loc": {
                              "start": {
                                "line": 9,
                                "column": 34
                              },
                              "end": {
                                "line": 9,
                                "column": 38
                              }
                            },
                            "name": "bind"
                          },
                          "computed": false
                        },
                        "arguments": [
                          {
                            "type": "ThisExpression",
                            "start": 203,
                            "end": 207,
                            "loc": {
                              "start": {
                                "line": 9,
                                "column": 39
                              },
                              "end": {
                                "line": 9,
                                "column": 43
                              }
                            }
                          }
                        ]
                      }
                    }
                  }
                ]
              }
            }
          },
          {
            "type": "MethodDefinition",
            "start": 219,
            "end": 363,
            "loc": {
              "start": {
                "line": 12,
                "column": 1
              },
              "end": {
                "line": 15,
                "column": 5
              }
            },
            "computed": false,
            "key": {
              "type": "Identifier",
              "start": 219,
              "end": 227,
              "loc": {
                "start": {
                  "line": 12,
                  "column": 1
                },
                "end": {
                  "line": 12,
                  "column": 9
                }
              },
              "name": "onSelect"
            },
            "static": false,
            "kind": "method",
            "value": {
              "type": "FunctionExpression",
              "start": 227,
              "end": 363,
              "loc": {
                "start": {
                  "line": 12,
                  "column": 9
                },
                "end": {
                  "line": 15,
                  "column": 5
                }
              },
              "id": null,
              "generator": false,
              "expression": false,
              "async": false,
              "params": [],
              "body": {
                "type": "BlockStatement",
                "start": 230,
                "end": 363,
                "loc": {
                  "start": {
                    "line": 12,
                    "column": 12
                  },
                  "end": {
                    "line": 15,
                    "column": 5
                  }
                },
                "body": [
                  {
                    "type": "ExpressionStatement",
                    "start": 318,
                    "end": 354,
                    "loc": {
                      "start": {
                        "line": 14,
                        "column": 8
                      },
                      "end": {
                        "line": 14,
                        "column": 44
                      }
                    },
                    "expression": {
                      "type": "CallExpression",
                      "start": 318,
                      "end": 353,
                      "loc": {
                        "start": {
                          "line": 14,
                          "column": 8
                        },
                        "end": {
                          "line": 14,
                          "column": 43
                        }
                      },
                      "callee": {
                        "type": "MemberExpression",
                        "start": 318,
                        "end": 338,
                        "loc": {
                          "start": {
                            "line": 14,
                            "column": 8
                          },
                          "end": {
                            "line": 14,
                            "column": 28
                          }
                        },
                        "object": {
                          "type": "MemberExpression",
                          "start": 318,
                          "end": 328,
                          "loc": {
                            "start": {
                              "line": 14,
                              "column": 8
                            },
                            "end": {
                              "line": 14,
                              "column": 18
                            }
                          },
                          "object": {
                            "type": "ThisExpression",
                            "start": 318,
                            "end": 322,
                            "loc": {
                              "start": {
                                "line": 14,
                                "column": 8
                              },
                              "end": {
                                "line": 14,
                                "column": 12
                              }
                            },
                            "leadingComments": null
                          },
                          "property": {
                            "type": "Identifier",
                            "start": 323,
                            "end": 328,
                            "loc": {
                              "start": {
                                "line": 14,
                                "column": 13
                              },
                              "end": {
                                "line": 14,
                                "column": 18
                              }
                            },
                            "name": "props"
                          },
                          "computed": false,
                          "leadingComments": null
                        },
                        "property": {
                          "type": "Identifier",
                          "start": 329,
                          "end": 338,
                          "loc": {
                            "start": {
                              "line": 14,
                              "column": 19
                            },
                            "end": {
                              "line": 14,
                              "column": 28
                            }
                          },
                          "name": "_onSelect"
                        },
                        "computed": false,
                        "leadingComments": null
                      },
                      "arguments": [
                        {
                          "type": "MemberExpression",
                          "start": 339,
                          "end": 352,
                          "loc": {
                            "start": {
                              "line": 14,
                              "column": 29
                            },
                            "end": {
                              "line": 14,
                              "column": 42
                            }
                          },
                          "object": {
                            "type": "MemberExpression",
                            "start": 339,
                            "end": 349,
                            "loc": {
                              "start": {
                                "line": 14,
                                "column": 29
                              },
                              "end": {
                                "line": 14,
                                "column": 39
                              }
                            },
                            "object": {
                              "type": "ThisExpression",
                              "start": 339,
                              "end": 343,
                              "loc": {
                                "start": {
                                  "line": 14,
                                  "column": 29
                                },
                                "end": {
                                  "line": 14,
                                  "column": 33
                                }
                              }
                            },
                            "property": {
                              "type": "Identifier",
                              "start": 344,
                              "end": 349,
                              "loc": {
                                "start": {
                                  "line": 14,
                                  "column": 34
                                },
                                "end": {
                                  "line": 14,
                                  "column": 39
                                }
                              },
                              "name": "props"
                            },
                            "computed": false
                          },
                          "property": {
                            "type": "Identifier",
                            "start": 350,
                            "end": 352,
                            "loc": {
                              "start": {
                                "line": 14,
                                "column": 40
                              },
                              "end": {
                                "line": 14,
                                "column": 42
                              }
                            },
                            "name": "id"
                          },
                          "computed": false
                        }
                      ],
                      "leadingComments": null
                    },
                    "leadingComments": [
                      {
                        "type": "CommentLine",
                        "value": " tell the parent Accordion component that this section was selected",
                        "start": 240,
                        "end": 309,
                        "loc": {
                          "start": {
                            "line": 13,
                            "column": 8
                          },
                          "end": {
                            "line": 13,
                            "column": 77
                          }
                        },
                        "range": [
                          240,
                          309
                        ]
                      }
                    ]
                  }
                ]
              }
            }
          },
          {
            "type": "MethodDefinition",
            "start": 374,
            "end": 841,
            "loc": {
              "start": {
                "line": 18,
                "column": 4
              },
              "end": {
                "line": 33,
                "column": 5
              }
            },
            "computed": false,
            "key": {
              "type": "Identifier",
              "start": 374,
              "end": 380,
              "loc": {
                "start": {
                  "line": 18,
                  "column": 4
                },
                "end": {
                  "line": 18,
                  "column": 10
                }
              },
              "name": "render"
            },
            "static": false,
            "kind": "method",
            "value": {
              "type": "FunctionExpression",
              "start": 380,
              "end": 841,
              "loc": {
                "start": {
                  "line": 18,
                  "column": 10
                },
                "end": {
                  "line": 33,
                  "column": 5
                }
              },
              "id": null,
              "generator": false,
              "expression": false,
              "async": false,
              "params": [],
              "body": {
                "type": "BlockStatement",
                "start": 383,
                "end": 841,
                "loc": {
                  "start": {
                    "line": 18,
                    "column": 13
                  },
                  "end": {
                    "line": 33,
                    "column": 5
                  }
                },
                "body": [
                  {
                    "type": "VariableDeclaration",
                    "start": 393,
                    "end": 473,
                    "loc": {
                      "start": {
                        "line": 19,
                        "column": 8
                      },
                      "end": {
                        "line": 19,
                        "column": 88
                      }
                    },
                    "declarations": [
                      {
                        "type": "VariableDeclarator",
                        "start": 397,
                        "end": 472,
                        "loc": {
                          "start": {
                            "line": 19,
                            "column": 12
                          },
                          "end": {
                            "line": 19,
                            "column": 87
                          }
                        },
                        "id": {
                          "type": "Identifier",
                          "start": 397,
                          "end": 406,
                          "loc": {
                            "start": {
                              "line": 19,
                              "column": 12
                            },
                            "end": {
                              "line": 19,
                              "column": 21
                            }
                          },
                          "name": "className"
                        },
                        "init": {
                          "type": "BinaryExpression",
                          "start": 409,
                          "end": 472,
                          "loc": {
                            "start": {
                              "line": 19,
                              "column": 24
                            },
                            "end": {
                              "line": 19,
                              "column": 87
                            }
                          },
                          "left": {
                            "type": "Literal",
                            "start": 409,
                            "end": 428,
                            "loc": {
                              "start": {
                                "line": 19,
                                "column": 24
                              },
                              "end": {
                                "line": 19,
                                "column": 43
                              }
                            },
                            "value": "accordion-section",
                            "rawValue": "accordion-section",
                            "raw": "'accordion-section'"
                          },
                          "operator": "+",
                          "right": {
                            "type": "ConditionalExpression",
                            "start": 432,
                            "end": 471,
                            "loc": {
                              "start": {
                                "line": 19,
                                "column": 47
                              },
                              "end": {
                                "line": 19,
                                "column": 86
                              }
                            },
                            "test": {
                              "type": "MemberExpression",
                              "start": 432,
                              "end": 452,
                              "loc": {
                                "start": {
                                  "line": 19,
                                  "column": 47
                                },
                                "end": {
                                  "line": 19,
                                  "column": 67
                                }
                              },
                              "object": {
                                "type": "MemberExpression",
                                "start": 432,
                                "end": 442,
                                "loc": {
                                  "start": {
                                    "line": 19,
                                    "column": 47
                                  },
                                  "end": {
                                    "line": 19,
                                    "column": 57
                                  }
                                },
                                "object": {
                                  "type": "ThisExpression",
                                  "start": 432,
                                  "end": 436,
                                  "loc": {
                                    "start": {
                                      "line": 19,
                                      "column": 47
                                    },
                                    "end": {
                                      "line": 19,
                                      "column": 51
                                    }
                                  }
                                },
                                "property": {
                                  "type": "Identifier",
                                  "start": 437,
                                  "end": 442,
                                  "loc": {
                                    "start": {
                                      "line": 19,
                                      "column": 52
                                    },
                                    "end": {
                                      "line": 19,
                                      "column": 57
                                    }
                                  },
                                  "name": "props"
                                },
                                "computed": false
                              },
                              "property": {
                                "type": "Identifier",
                                "start": 443,
                                "end": 452,
                                "loc": {
                                  "start": {
                                    "line": 19,
                                    "column": 58
                                  },
                                  "end": {
                                    "line": 19,
                                    "column": 67
                                  }
                                },
                                "name": "_selected"
                              },
                              "computed": false
                            },
                            "consequent": {
                              "type": "Literal",
                              "start": 455,
                              "end": 466,
                              "loc": {
                                "start": {
                                  "line": 19,
                                  "column": 70
                                },
                                "end": {
                                  "line": 19,
                                  "column": 81
                                }
                              },
                              "value": " selected",
                              "rawValue": " selected",
                              "raw": "' selected'"
                            },
                            "alternate": {
                              "type": "Literal",
                              "start": 469,
                              "end": 471,
                              "loc": {
                                "start": {
                                  "line": 19,
                                  "column": 84
                                },
                                "end": {
                                  "line": 19,
                                  "column": 86
                                }
                              },
                              "value": "",
                              "rawValue": "",
                              "raw": "''"
                            },
                            "parenthesizedExpression": true
                          }
                        }
                      }
                    ],
                    "kind": "var"
                  },
                  {
                    "type": "ReturnStatement",
                    "start": 487,
                    "end": 835,
                    "loc": {
                      "start": {
                        "line": 21,
                        "column": 8
                      },
                      "end": {
                        "line": 32,
                        "column": 10
                      }
                    },
                    "argument": {
                      "type": "JSXElement",
                      "start": 508,
                      "end": 824,
                      "loc": {
                        "start": {
                          "line": 22,
                          "column": 12
                        },
                        "end": {
                          "line": 31,
                          "column": 18
                        }
                      },
                      "openingElement": {
                        "type": "JSXOpeningElement",
                        "start": 508,
                        "end": 535,
                        "loc": {
                          "start": {
                            "line": 22,
                            "column": 12
                          },
                          "end": {
                            "line": 22,
                            "column": 39
                          }
                        },
                        "attributes": [
                          {
                            "type": "JSXAttribute",
                            "start": 513,
                            "end": 534,
                            "loc": {
                              "start": {
                                "line": 22,
                                "column": 17
                              },
                              "end": {
                                "line": 22,
                                "column": 38
                              }
                            },
                            "name": {
                              "type": "JSXIdentifier",
                              "start": 513,
                              "end": 522,
                              "loc": {
                                "start": {
                                  "line": 22,
                                  "column": 17
                                },
                                "end": {
                                  "line": 22,
                                  "column": 26
                                }
                              },
                              "name": "className"
                            },
                            "value": {
                              "type": "JSXExpressionContainer",
                              "start": 523,
                              "end": 534,
                              "loc": {
                                "start": {
                                  "line": 22,
                                  "column": 27
                                },
                                "end": {
                                  "line": 22,
                                  "column": 38
                                }
                              },
                              "expression": {
                                "type": "Identifier",
                                "start": 524,
                                "end": 533,
                                "loc": {
                                  "start": {
                                    "line": 22,
                                    "column": 28
                                  },
                                  "end": {
                                    "line": 22,
                                    "column": 37
                                  }
                                },
                                "name": "className"
                              }
                            }
                          }
                        ],
                        "name": {
                          "type": "JSXIdentifier",
                          "start": 509,
                          "end": 512,
                          "loc": {
                            "start": {
                              "line": 22,
                              "column": 13
                            },
                            "end": {
                              "line": 22,
                              "column": 16
                            }
                          },
                          "name": "div"
                        },
                        "selfClosing": false
                      },
                      "closingElement": {
                        "type": "JSXClosingElement",
                        "start": 818,
                        "end": 824,
                        "loc": {
                          "start": {
                            "line": 31,
                            "column": 12
                          },
                          "end": {
                            "line": 31,
                            "column": 18
                          }
                        },
                        "name": {
                          "type": "JSXIdentifier",
                          "start": 820,
                          "end": 823,
                          "loc": {
                            "start": {
                              "line": 31,
                              "column": 14
                            },
                            "end": {
                              "line": 31,
                              "column": 17
                            }
                          },
                          "name": "div"
                        }
                      },
                      "children": [
                        {
                          "type": "Literal",
                          "start": 535,
                          "end": 548,
                          "loc": {
                            "start": {
                              "line": 22,
                              "column": 39
                            },
                            "end": {
                              "line": 23,
                              "column": 12
                            }
                          },
                          "value": "\n            ",
                          "rawValue": null,
                          "raw": "\n            "
                        },
                        {
                          "type": "JSXElement",
                          "start": 548,
                          "end": 701,
                          "loc": {
                            "start": {
                              "line": 23,
                              "column": 12
                            },
                            "end": {
                              "line": 27,
                              "column": 18
                            }
                          },
                          "openingElement": {
                            "type": "JSXOpeningElement",
                            "start": 548,
                            "end": 569,
                            "loc": {
                              "start": {
                                "line": 23,
                                "column": 12
                              },
                              "end": {
                                "line": 23,
                                "column": 33
                              }
                            },
                            "attributes": [
                              {
                                "type": "JSXAttribute",
                                "start": 553,
                                "end": 568,
                                "loc": {
                                  "start": {
                                    "line": 23,
                                    "column": 17
                                  },
                                  "end": {
                                    "line": 23,
                                    "column": 32
                                  }
                                },
                                "name": {
                                  "type": "JSXIdentifier",
                                  "start": 553,
                                  "end": 562,
                                  "loc": {
                                    "start": {
                                      "line": 23,
                                      "column": 17
                                    },
                                    "end": {
                                      "line": 23,
                                      "column": 26
                                    }
                                  },
                                  "name": "className"
                                },
                                "value": {
                                  "type": "Literal",
                                  "start": 563,
                                  "end": 568,
                                  "loc": {
                                    "start": {
                                      "line": 23,
                                      "column": 27
                                    },
                                    "end": {
                                      "line": 23,
                                      "column": 32
                                    }
                                  },
                                  "value": "sec",
                                  "rawValue": null,
                                  "raw": "\"sec\""
                                }
                              }
                            ],
                            "name": {
                              "type": "JSXIdentifier",
                              "start": 549,
                              "end": 552,
                              "loc": {
                                "start": {
                                  "line": 23,
                                  "column": 13
                                },
                                "end": {
                                  "line": 23,
                                  "column": 16
                                }
                              },
                              "name": "div"
                            },
                            "selfClosing": false
                          },
                          "closingElement": {
                            "type": "JSXClosingElement",
                            "start": 695,
                            "end": 701,
                            "loc": {
                              "start": {
                                "line": 27,
                                "column": 12
                              },
                              "end": {
                                "line": 27,
                                "column": 18
                              }
                            },
                            "name": {
                              "type": "JSXIdentifier",
                              "start": 697,
                              "end": 700,
                              "loc": {
                                "start": {
                                  "line": 27,
                                  "column": 14
                                },
                                "end": {
                                  "line": 27,
                                  "column": 17
                                }
                              },
                              "name": "div"
                            }
                          },
                          "children": [
                            {
                              "type": "Literal",
                              "start": 569,
                              "end": 586,
                              "loc": {
                                "start": {
                                  "line": 23,
                                  "column": 33
                                },
                                "end": {
                                  "line": 24,
                                  "column": 16
                                }
                              },
                              "value": "\n                ",
                              "rawValue": null,
                              "raw": "\n                "
                            },
                            {
                              "type": "JSXElement",
                              "start": 586,
                              "end": 682,
                              "loc": {
                                "start": {
                                  "line": 24,
                                  "column": 16
                                },
                                "end": {
                                  "line": 26,
                                  "column": 20
                                }
                              },
                              "openingElement": {
                                "type": "JSXOpeningElement",
                                "start": 586,
                                "end": 622,
                                "loc": {
                                  "start": {
                                    "line": 24,
                                    "column": 16
                                  },
                                  "end": {
                                    "line": 24,
                                    "column": 52
                                  }
                                },
                                "attributes": [
                                  {
                                    "type": "JSXAttribute",
                                    "start": 589,
                                    "end": 597,
                                    "loc": {
                                      "start": {
                                        "line": 24,
                                        "column": 19
                                      },
                                      "end": {
                                        "line": 24,
                                        "column": 27
                                      }
                                    },
                                    "name": {
                                      "type": "JSXIdentifier",
                                      "start": 589,
                                      "end": 593,
                                      "loc": {
                                        "start": {
                                          "line": 24,
                                          "column": 19
                                        },
                                        "end": {
                                          "line": 24,
                                          "column": 23
                                        }
                                      },
                                      "name": "href"
                                    },
                                    "value": {
                                      "type": "Literal",
                                      "start": 594,
                                      "end": 597,
                                      "loc": {
                                        "start": {
                                          "line": 24,
                                          "column": 24
                                        },
                                        "end": {
                                          "line": 24,
                                          "column": 27
                                        }
                                      },
                                      "value": "#",
                                      "rawValue": null,
                                      "raw": "\"#\""
                                    }
                                  },
                                  {
                                    "type": "JSXAttribute",
                                    "start": 598,
                                    "end": 621,
                                    "loc": {
                                      "start": {
                                        "line": 24,
                                        "column": 28
                                      },
                                      "end": {
                                        "line": 24,
                                        "column": 51
                                      }
                                    },
                                    "name": {
                                      "type": "JSXIdentifier",
                                      "start": 598,
                                      "end": 605,
                                      "loc": {
                                        "start": {
                                          "line": 24,
                                          "column": 28
                                        },
                                        "end": {
                                          "line": 24,
                                          "column": 35
                                        }
                                      },
                                      "name": "onClick"
                                    },
                                    "value": {
                                      "type": "JSXExpressionContainer",
                                      "start": 606,
                                      "end": 621,
                                      "loc": {
                                        "start": {
                                          "line": 24,
                                          "column": 36
                                        },
                                        "end": {
                                          "line": 24,
                                          "column": 51
                                        }
                                      },
                                      "expression": {
                                        "type": "MemberExpression",
                                        "start": 607,
                                        "end": 620,
                                        "loc": {
                                          "start": {
                                            "line": 24,
                                            "column": 37
                                          },
                                          "end": {
                                            "line": 24,
                                            "column": 50
                                          }
                                        },
                                        "object": {
                                          "type": "ThisExpression",
                                          "start": 607,
                                          "end": 611,
                                          "loc": {
                                            "start": {
                                              "line": 24,
                                              "column": 37
                                            },
                                            "end": {
                                              "line": 24,
                                              "column": 41
                                            }
                                          }
                                        },
                                        "property": {
                                          "type": "Identifier",
                                          "start": 612,
                                          "end": 620,
                                          "loc": {
                                            "start": {
                                              "line": 24,
                                              "column": 42
                                            },
                                            "end": {
                                              "line": 24,
                                              "column": 50
                                            }
                                          },
                                          "name": "onSelect"
                                        },
                                        "computed": false
                                      }
                                    }
                                  }
                                ],
                                "name": {
                                  "type": "JSXIdentifier",
                                  "start": 587,
                                  "end": 588,
                                  "loc": {
                                    "start": {
                                      "line": 24,
                                      "column": 17
                                    },
                                    "end": {
                                      "line": 24,
                                      "column": 18
                                    }
                                  },
                                  "name": "a"
                                },
                                "selfClosing": false
                              },
                              "closingElement": {
                                "type": "JSXClosingElement",
                                "start": 678,
                                "end": 682,
                                "loc": {
                                  "start": {
                                    "line": 26,
                                    "column": 16
                                  },
                                  "end": {
                                    "line": 26,
                                    "column": 20
                                  }
                                },
                                "name": {
                                  "type": "JSXIdentifier",
                                  "start": 680,
                                  "end": 681,
                                  "loc": {
                                    "start": {
                                      "line": 26,
                                      "column": 18
                                    },
                                    "end": {
                                      "line": 26,
                                      "column": 19
                                    }
                                  },
                                  "name": "a"
                                }
                              },
                              "children": [
                                {
                                  "type": "Literal",
                                  "start": 622,
                                  "end": 643,
                                  "loc": {
                                    "start": {
                                      "line": 24,
                                      "column": 52
                                    },
                                    "end": {
                                      "line": 25,
                                      "column": 20
                                    }
                                  },
                                  "value": "\n                    ",
                                  "rawValue": null,
                                  "raw": "\n                    "
                                },
                                {
                                  "type": "JSXExpressionContainer",
                                  "start": 643,
                                  "end": 661,
                                  "loc": {
                                    "start": {
                                      "line": 25,
                                      "column": 20
                                    },
                                    "end": {
                                      "line": 25,
                                      "column": 38
                                    }
                                  },
                                  "expression": {
                                    "type": "MemberExpression",
                                    "start": 644,
                                    "end": 660,
                                    "loc": {
                                      "start": {
                                        "line": 25,
                                        "column": 21
                                      },
                                      "end": {
                                        "line": 25,
                                        "column": 37
                                      }
                                    },
                                    "object": {
                                      "type": "MemberExpression",
                                      "start": 644,
                                      "end": 654,
                                      "loc": {
                                        "start": {
                                          "line": 25,
                                          "column": 21
                                        },
                                        "end": {
                                          "line": 25,
                                          "column": 31
                                        }
                                      },
                                      "object": {
                                        "type": "ThisExpression",
                                        "start": 644,
                                        "end": 648,
                                        "loc": {
                                          "start": {
                                            "line": 25,
                                            "column": 21
                                          },
                                          "end": {
                                            "line": 25,
                                            "column": 25
                                          }
                                        }
                                      },
                                      "property": {
                                        "type": "Identifier",
                                        "start": 649,
                                        "end": 654,
                                        "loc": {
                                          "start": {
                                            "line": 25,
                                            "column": 26
                                          },
                                          "end": {
                                            "line": 25,
                                            "column": 31
                                          }
                                        },
                                        "name": "props"
                                      },
                                      "computed": false
                                    },
                                    "property": {
                                      "type": "Identifier",
                                      "start": 655,
                                      "end": 660,
                                      "loc": {
                                        "start": {
                                          "line": 25,
                                          "column": 32
                                        },
                                        "end": {
                                          "line": 25,
                                          "column": 37
                                        }
                                      },
                                      "name": "title"
                                    },
                                    "computed": false
                                  }
                                },
                                {
                                  "type": "Literal",
                                  "start": 661,
                                  "end": 678,
                                  "loc": {
                                    "start": {
                                      "line": 25,
                                      "column": 38
                                    },
                                    "end": {
                                      "line": 26,
                                      "column": 16
                                    }
                                  },
                                  "value": "\n                ",
                                  "rawValue": null,
                                  "raw": "\n                "
                                }
                              ]
                            },
                            {
                              "type": "Literal",
                              "start": 682,
                              "end": 695,
                              "loc": {
                                "start": {
                                  "line": 26,
                                  "column": 20
                                },
                                "end": {
                                  "line": 27,
                                  "column": 12
                                }
                              },
                              "value": "\n            ",
                              "rawValue": null,
                              "raw": "\n            "
                            }
                          ]
                        },
                        {
                          "type": "Literal",
                          "start": 701,
                          "end": 718,
                          "loc": {
                            "start": {
                              "line": 27,
                              "column": 18
                            },
                            "end": {
                              "line": 28,
                              "column": 16
                            }
                          },
                          "value": "\n                ",
                          "rawValue": null,
                          "raw": "\n                "
                        },
                        {
                          "type": "JSXElement",
                          "start": 718,
                          "end": 805,
                          "loc": {
                            "start": {
                              "line": 28,
                              "column": 16
                            },
                            "end": {
                              "line": 30,
                              "column": 22
                            }
                          },
                          "openingElement": {
                            "type": "JSXOpeningElement",
                            "start": 718,
                            "end": 740,
                            "loc": {
                              "start": {
                                "line": 28,
                                "column": 16
                              },
                              "end": {
                                "line": 28,
                                "column": 38
                              }
                            },
                            "attributes": [
                              {
                                "type": "JSXAttribute",
                                "start": 723,
                                "end": 739,
                                "loc": {
                                  "start": {
                                    "line": 28,
                                    "column": 21
                                  },
                                  "end": {
                                    "line": 28,
                                    "column": 37
                                  }
                                },
                                "name": {
                                  "type": "JSXIdentifier",
                                  "start": 723,
                                  "end": 732,
                                  "loc": {
                                    "start": {
                                      "line": 28,
                                      "column": 21
                                    },
                                    "end": {
                                      "line": 28,
                                      "column": 30
                                    }
                                  },
                                  "name": "className"
                                },
                                "value": {
                                  "type": "Literal",
                                  "start": 733,
                                  "end": 739,
                                  "loc": {
                                    "start": {
                                      "line": 28,
                                      "column": 31
                                    },
                                    "end": {
                                      "line": 28,
                                      "column": 37
                                    }
                                  },
                                  "value": "body",
                                  "rawValue": null,
                                  "raw": "\"body\""
                                }
                              }
                            ],
                            "name": {
                              "type": "JSXIdentifier",
                              "start": 719,
                              "end": 722,
                              "loc": {
                                "start": {
                                  "line": 28,
                                  "column": 17
                                },
                                "end": {
                                  "line": 28,
                                  "column": 20
                                }
                              },
                              "name": "div"
                            },
                            "selfClosing": false
                          },
                          "closingElement": {
                            "type": "JSXClosingElement",
                            "start": 799,
                            "end": 805,
                            "loc": {
                              "start": {
                                "line": 30,
                                "column": 16
                              },
                              "end": {
                                "line": 30,
                                "column": 22
                              }
                            },
                            "name": {
                              "type": "JSXIdentifier",
                              "start": 801,
                              "end": 804,
                              "loc": {
                                "start": {
                                  "line": 30,
                                  "column": 18
                                },
                                "end": {
                                  "line": 30,
                                  "column": 21
                                }
                              },
                              "name": "div"
                            }
                          },
                          "children": [
                            {
                              "type": "Literal",
                              "start": 740,
                              "end": 761,
                              "loc": {
                                "start": {
                                  "line": 28,
                                  "column": 38
                                },
                                "end": {
                                  "line": 29,
                                  "column": 20
                                }
                              },
                              "value": "\n                    ",
                              "rawValue": null,
                              "raw": "\n                    "
                            },
                            {
                              "type": "JSXExpressionContainer",
                              "start": 761,
                              "end": 782,
                              "loc": {
                                "start": {
                                  "line": 29,
                                  "column": 20
                                },
                                "end": {
                                  "line": 29,
                                  "column": 41
                                }
                              },
                              "expression": {
                                "type": "MemberExpression",
                                "start": 762,
                                "end": 781,
                                "loc": {
                                  "start": {
                                    "line": 29,
                                    "column": 21
                                  },
                                  "end": {
                                    "line": 29,
                                    "column": 40
                                  }
                                },
                                "object": {
                                  "type": "MemberExpression",
                                  "start": 762,
                                  "end": 772,
                                  "loc": {
                                    "start": {
                                      "line": 29,
                                      "column": 21
                                    },
                                    "end": {
                                      "line": 29,
                                      "column": 31
                                    }
                                  },
                                  "object": {
                                    "type": "ThisExpression",
                                    "start": 762,
                                    "end": 766,
                                    "loc": {
                                      "start": {
                                        "line": 29,
                                        "column": 21
                                      },
                                      "end": {
                                        "line": 29,
                                        "column": 25
                                      }
                                    }
                                  },
                                  "property": {
                                    "type": "Identifier",
                                    "start": 767,
                                    "end": 772,
                                    "loc": {
                                      "start": {
                                        "line": 29,
                                        "column": 26
                                      },
                                      "end": {
                                        "line": 29,
                                        "column": 31
                                      }
                                    },
                                    "name": "props"
                                  },
                                  "computed": false
                                },
                                "property": {
                                  "type": "Identifier",
                                  "start": 773,
                                  "end": 781,
                                  "loc": {
                                    "start": {
                                      "line": 29,
                                      "column": 32
                                    },
                                    "end": {
                                      "line": 29,
                                      "column": 40
                                    }
                                  },
                                  "name": "children"
                                },
                                "computed": false
                              }
                            },
                            {
                              "type": "Literal",
                              "start": 782,
                              "end": 799,
                              "loc": {
                                "start": {
                                  "line": 29,
                                  "column": 41
                                },
                                "end": {
                                  "line": 30,
                                  "column": 16
                                }
                              },
                              "value": "\n                ",
                              "rawValue": null,
                              "raw": "\n                "
                            }
                          ]
                        },
                        {
                          "type": "Literal",
                          "start": 805,
                          "end": 818,
                          "loc": {
                            "start": {
                              "line": 30,
                              "column": 22
                            },
                            "end": {
                              "line": 31,
                              "column": 12
                            }
                          },
                          "value": "\n            ",
                          "rawValue": null,
                          "raw": "\n            "
                        }
                      ],
                      "parenthesizedExpression": true
                    }
                  }
                ]
              }
            }
          }
        ]
      }
    },
    {
      "type": "EmptyStatement",
      "start": 844,
      "end": 845,
      "loc": {
        "start": {
          "line": 35,
          "column": 1
        },
        "end": {
          "line": 35,
          "column": 2
        }
      }
    },
    {
      "type": "ExpressionStatement",
      "start": 847,
      "end": 881,
      "loc": {
        "start": {
          "line": 37,
          "column": 0
        },
        "end": {
          "line": 37,
          "column": 34
        }
      },
      "expression": {
        "type": "AssignmentExpression",
        "start": 847,
        "end": 880,
        "loc": {
          "start": {
            "line": 37,
            "column": 0
          },
          "end": {
            "line": 37,
            "column": 33
          }
        },
        "operator": "=",
        "left": {
          "type": "MemberExpression",
          "start": 847,
          "end": 861,
          "loc": {
            "start": {
              "line": 37,
              "column": 0
            },
            "end": {
              "line": 37,
              "column": 14
            }
          },
          "object": {
            "type": "Identifier",
            "start": 847,
            "end": 853,
            "loc": {
              "start": {
                "line": 37,
                "column": 0
              },
              "end": {
                "line": 37,
                "column": 6
              }
            },
            "name": "module"
          },
          "property": {
            "type": "Identifier",
            "start": 854,
            "end": 861,
            "loc": {
              "start": {
                "line": 37,
                "column": 7
              },
              "end": {
                "line": 37,
                "column": 14
              }
            },
            "name": "exports"
          },
          "computed": false
        },
        "right": {
          "type": "Identifier",
          "start": 864,
          "end": 880,
          "loc": {
            "start": {
              "line": 37,
              "column": 17
            },
            "end": {
              "line": 37,
              "column": 33
            }
          },
          "name": "AccordionSection"
        }
      }
    }
  ]
}