{
  "type": "Program",
  "start": 0,
  "end": 246,
  "loc": {
    "start": {
      "line": 1,
      "column": 0
    },
    "end": {
      "line": 15,
      "column": 0
    }
  },
  "sourceType": "module",
  "body": [
    {
      "type": "ImportDeclaration",
      "start": 0,
      "end": 26,
      "loc": {
        "start": {
          "line": 1,
          "column": 0
        },
        "end": {
          "line": 1,
          "column": 26
        }
      },
      "specifiers": [
        {
          "type": "ImportDefaultSpecifier",
          "start": 7,
          "end": 12,
          "loc": {
            "start": {
              "line": 1,
              "column": 7
            },
            "end": {
              "line": 1,
              "column": 12
            }
          },
          "local": {
            "type": "Identifier",
            "start": 7,
            "end": 12,
            "loc": {
              "start": {
                "line": 1,
                "column": 7
              },
              "end": {
                "line": 1,
                "column": 12
              }
            },
            "name": "React"
          }
        }
      ],
      "importKind": "value",
      "source": {
        "type": "Literal",
        "start": 18,
        "end": 25,
        "loc": {
          "start": {
            "line": 1,
            "column": 18
          },
          "end": {
            "line": 1,
            "column": 25
          }
        },
        "value": "react",
        "rawValue": "react",
        "raw": "'react'"
      }
    },
    {
      "type": "ImportDeclaration",
      "start": 27,
      "end": 79,
      "loc": {
        "start": {
          "line": 2,
          "column": 0
        },
        "end": {
          "line": 2,
          "column": 52
        }
      },
      "specifiers": [
        {
          "type": "ImportSpecifier",
          "start": 36,
          "end": 40,
          "loc": {
            "start": {
              "line": 2,
              "column": 9
            },
            "end": {
              "line": 2,
              "column": 13
            }
          },
          "imported": {
            "type": "Identifier",
            "start": 36,
            "end": 40,
            "loc": {
              "start": {
                "line": 2,
                "column": 9
              },
              "end": {
                "line": 2,
                "column": 13
              }
            },
            "name": "Link"
          },
          "local": {
            "type": "Identifier",
            "start": 36,
            "end": 40,
            "loc": {
              "start": {
                "line": 2,
                "column": 9
              },
              "end": {
                "line": 2,
                "column": 13
              }
            },
            "name": "Link"
          }
        },
        {
          "type": "ImportSpecifier",
          "start": 42,
          "end": 56,
          "loc": {
            "start": {
              "line": 2,
              "column": 15
            },
            "end": {
              "line": 2,
              "column": 29
            }
          },
          "imported": {
            "type": "Identifier",
            "start": 42,
            "end": 56,
            "loc": {
              "start": {
                "line": 2,
                "column": 15
              },
              "end": {
                "line": 2,
                "column": 29
              }
            },
            "name": "browserHistory"
          },
          "local": {
            "type": "Identifier",
            "start": 42,
            "end": 56,
            "loc": {
              "start": {
                "line": 2,
                "column": 15
              },
              "end": {
                "line": 2,
                "column": 29
              }
            },
            "name": "browserHistory"
          }
        }
      ],
      "importKind": "value",
      "source": {
        "type": "Literal",
        "start": 64,
        "end": 78,
        "loc": {
          "start": {
            "line": 2,
            "column": 37
          },
          "end": {
            "line": 2,
            "column": 51
          }
        },
        "value": "react-router",
        "rawValue": "react-router",
        "raw": "'react-router'"
      }
    },
    {
      "type": "ImportDeclaration",
      "start": 80,
      "end": 117,
      "loc": {
        "start": {
          "line": 3,
          "column": 0
        },
        "end": {
          "line": 3,
          "column": 37
        }
      },
      "specifiers": [
        {
          "type": "ImportDefaultSpecifier",
          "start": 87,
          "end": 97,
          "loc": {
            "start": {
              "line": 3,
              "column": 7
            },
            "end": {
              "line": 3,
              "column": 17
            }
          },
          "local": {
            "type": "Identifier",
            "start": 87,
            "end": 97,
            "loc": {
              "start": {
                "line": 3,
                "column": 7
              },
              "end": {
                "line": 3,
                "column": 17
              }
            },
            "name": "AddAnAsset"
          }
        }
      ],
      "importKind": "value",
      "source": {
        "type": "Literal",
        "start": 103,
        "end": 117,
        "loc": {
          "start": {
            "line": 3,
            "column": 23
          },
          "end": {
            "line": 3,
            "column": 37
          }
        },
        "value": "./AddAnAsset",
        "rawValue": "./AddAnAsset",
        "raw": "'./AddAnAsset'"
      }
    },
    {
      "type": "ExportDefaultDeclaration",
      "start": 119,
      "end": 242,
      "loc": {
        "start": {
          "line": 5,
          "column": 0
        },
        "end": {
          "line": 11,
          "column": 1
        }
      },
      "declaration": {
        "type": "FunctionDeclaration",
        "start": 134,
        "end": 242,
        "loc": {
          "start": {
            "line": 5,
            "column": 15
          },
          "end": {
            "line": 11,
            "column": 1
          }
        },
        "id": {
          "type": "Identifier",
          "start": 143,
          "end": 156,
          "loc": {
            "start": {
              "line": 5,
              "column": 24
            },
            "end": {
              "line": 5,
              "column": 37
            }
          },
          "name": "SearchLibrary"
        },
        "generator": false,
        "expression": false,
        "async": false,
        "params": [
          {
            "type": "ObjectPattern",
            "start": 157,
            "end": 169,
            "loc": {
              "start": {
                "line": 5,
                "column": 38
              },
              "end": {
                "line": 5,
                "column": 50
              }
            },
            "properties": [
              {
                "type": "Property",
                "start": 159,
                "end": 167,
                "loc": {
                  "start": {
                    "line": 5,
                    "column": 40
                  },
                  "end": {
                    "line": 5,
                    "column": 48
                  }
                },
                "method": false,
                "shorthand": true,
                "computed": false,
                "key": {
                  "type": "Identifier",
                  "start": 159,
                  "end": 167,
                  "loc": {
                    "start": {
                      "line": 5,
                      "column": 40
                    },
                    "end": {
                      "line": 5,
                      "column": 48
                    }
                  },
                  "name": "children"
                },
                "kind": "init",
                "value": {
                  "type": "Identifier",
                  "start": 159,
                  "end": 167,
                  "loc": {
                    "start": {
                      "line": 5,
                      "column": 40
                    },
                    "end": {
                      "line": 5,
                      "column": 48
                    }
                  },
                  "name": "children"
                }
              }
            ]
          }
        ],
        "body": {
          "type": "BlockStatement",
          "start": 171,
          "end": 242,
          "loc": {
            "start": {
              "line": 5,
              "column": 52
            },
            "end": {
              "line": 11,
              "column": 1
            }
          },
          "body": [
            {
              "type": "ReturnStatement",
              "start": 175,
              "end": 240,
              "loc": {
                "start": {
                  "line": 6,
                  "column": 2
                },
                "end": {
                  "line": 10,
                  "column": 3
                }
              },
              "argument": {
                "type": "JSXElement",
                "start": 188,
                "end": 236,
                "loc": {
                  "start": {
                    "line": 7,
                    "column": 4
                  },
                  "end": {
                    "line": 9,
                    "column": 10
                  }
                },
                "openingElement": {
                  "type": "JSXOpeningElement",
                  "start": 188,
                  "end": 193,
                  "loc": {
                    "start": {
                      "line": 7,
                      "column": 4
                    },
                    "end": {
                      "line": 7,
                      "column": 9
                    }
                  },
                  "attributes": [],
                  "name": {
                    "type": "JSXIdentifier",
                    "start": 189,
                    "end": 192,
                    "loc": {
                      "start": {
                        "line": 7,
                        "column": 5
                      },
                      "end": {
                        "line": 7,
                        "column": 8
                      }
                    },
                    "name": "div"
                  },
                  "selfClosing": false
                },
                "closingElement": {
                  "type": "JSXClosingElement",
                  "start": 230,
                  "end": 236,
                  "loc": {
                    "start": {
                      "line": 9,
                      "column": 4
                    },
                    "end": {
                      "line": 9,
                      "column": 10
                    }
                  },
                  "name": {
                    "type": "JSXIdentifier",
                    "start": 232,
                    "end": 235,
                    "loc": {
                      "start": {
                        "line": 9,
                        "column": 6
                      },
                      "end": {
                        "line": 9,
                        "column": 9
                      }
                    },
                    "name": "div"
                  }
                },
                "children": [
                  {
                    "type": "Literal",
                    "start": 193,
                    "end": 230,
                    "loc": {
                      "start": {
                        "line": 7,
                        "column": 9
                      },
                      "end": {
                        "line": 9,
                        "column": 4
                      }
                    },
                    "value": "\n        SearchLibrary swerwerqe\n    ",
                    "rawValue": null,
                    "raw": "\n        SearchLibrary swerwerqe\n    "
                  }
                ],
                "parenthesizedExpression": true
              }
            }
          ]
        },
        "leadingComments": [],
        "trailingComments": []
      }
    }
  ]
}