{
  "type": "Program",
  "start": 0,
  "end": 949,
  "loc": {
    "start": {
      "line": 1,
      "column": 0
    },
    "end": {
      "line": 37,
      "column": 39
    }
  },
  "sourceType": "module",
  "body": [
    {
      "type": "ImportDeclaration",
      "start": 0,
      "end": 26,
      "loc": {
        "start": {
          "line": 1,
          "column": 0
        },
        "end": {
          "line": 1,
          "column": 26
        }
      },
      "specifiers": [
        {
          "type": "ImportDefaultSpecifier",
          "start": 7,
          "end": 12,
          "loc": {
            "start": {
              "line": 1,
              "column": 7
            },
            "end": {
              "line": 1,
              "column": 12
            }
          },
          "local": {
            "type": "Identifier",
            "start": 7,
            "end": 12,
            "loc": {
              "start": {
                "line": 1,
                "column": 7
              },
              "end": {
                "line": 1,
                "column": 12
              }
            },
            "name": "React"
          }
        }
      ],
      "importKind": "value",
      "source": {
        "type": "Literal",
        "start": 18,
        "end": 25,
        "loc": {
          "start": {
            "line": 1,
            "column": 18
          },
          "end": {
            "line": 1,
            "column": 25
          }
        },
        "value": "react",
        "rawValue": "react",
        "raw": "'react'"
      }
    },
    {
      "type": "ImportDeclaration",
      "start": 27,
      "end": 64,
      "loc": {
        "start": {
          "line": 2,
          "column": 0
        },
        "end": {
          "line": 2,
          "column": 37
        }
      },
      "specifiers": [
        {
          "type": "ImportSpecifier",
          "start": 36,
          "end": 43,
          "loc": {
            "start": {
              "line": 2,
              "column": 9
            },
            "end": {
              "line": 2,
              "column": 16
            }
          },
          "imported": {
            "type": "Identifier",
            "start": 36,
            "end": 43,
            "loc": {
              "start": {
                "line": 2,
                "column": 9
              },
              "end": {
                "line": 2,
                "column": 16
              }
            },
            "name": "connect"
          },
          "local": {
            "type": "Identifier",
            "start": 36,
            "end": 43,
            "loc": {
              "start": {
                "line": 2,
                "column": 9
              },
              "end": {
                "line": 2,
                "column": 16
              }
            },
            "name": "connect"
          }
        }
      ],
      "importKind": "value",
      "source": {
        "type": "Literal",
        "start": 51,
        "end": 64,
        "loc": {
          "start": {
            "line": 2,
            "column": 24
          },
          "end": {
            "line": 2,
            "column": 37
          }
        },
        "value": "react-redux",
        "rawValue": "react-redux",
        "raw": "'react-redux'"
      }
    },
    {
      "type": "ImportDeclaration",
      "start": 65,
      "end": 108,
      "loc": {
        "start": {
          "line": 3,
          "column": 0
        },
        "end": {
          "line": 3,
          "column": 43
        }
      },
      "specifiers": [
        {
          "type": "ImportSpecifier",
          "start": 74,
          "end": 92,
          "loc": {
            "start": {
              "line": 3,
              "column": 9
            },
            "end": {
              "line": 3,
              "column": 27
            }
          },
          "imported": {
            "type": "Identifier",
            "start": 74,
            "end": 92,
            "loc": {
              "start": {
                "line": 3,
                "column": 9
              },
              "end": {
                "line": 3,
                "column": 27
              }
            },
            "name": "bindActionCreators"
          },
          "local": {
            "type": "Identifier",
            "start": 74,
            "end": 92,
            "loc": {
              "start": {
                "line": 3,
                "column": 9
              },
              "end": {
                "line": 3,
                "column": 27
              }
            },
            "name": "bindActionCreators"
          }
        }
      ],
      "importKind": "value",
      "source": {
        "type": "Literal",
        "start": 100,
        "end": 107,
        "loc": {
          "start": {
            "line": 3,
            "column": 35
          },
          "end": {
            "line": 3,
            "column": 42
          }
        },
        "value": "redux",
        "rawValue": "redux",
        "raw": "'redux'"
      }
    },
    {
      "type": "ImportDeclaration",
      "start": 109,
      "end": 187,
      "loc": {
        "start": {
          "line": 4,
          "column": 0
        },
        "end": {
          "line": 4,
          "column": 78
        }
      },
      "specifiers": [
        {
          "type": "ImportDefaultSpecifier",
          "start": 116,
          "end": 130,
          "loc": {
            "start": {
              "line": 4,
              "column": 7
            },
            "end": {
              "line": 4,
              "column": 21
            }
          },
          "local": {
            "type": "Identifier",
            "start": 116,
            "end": 130,
            "loc": {
              "start": {
                "line": 4,
                "column": 7
              },
              "end": {
                "line": 4,
                "column": 21
              }
            },
            "name": "CheckJobStatus"
          }
        }
      ],
      "importKind": "value",
      "source": {
        "type": "Literal",
        "start": 136,
        "end": 186,
        "loc": {
          "start": {
            "line": 4,
            "column": 27
          },
          "end": {
            "line": 4,
            "column": 77
          }
        },
        "value": "../components/checkJobStatus/checkJobStatusPopup",
        "rawValue": "../components/checkJobStatus/checkJobStatusPopup",
        "raw": "'../components/checkJobStatus/checkJobStatusPopup'"
      }
    },
    {
      "type": "ImportDeclaration",
      "start": 188,
      "end": 255,
      "loc": {
        "start": {
          "line": 5,
          "column": 0
        },
        "end": {
          "line": 5,
          "column": 67
        }
      },
      "specifiers": [
        {
          "type": "ImportNamespaceSpecifier",
          "start": 195,
          "end": 216,
          "loc": {
            "start": {
              "line": 5,
              "column": 7
            },
            "end": {
              "line": 5,
              "column": 28
            }
          },
          "local": {
            "type": "Identifier",
            "start": 200,
            "end": 216,
            "loc": {
              "start": {
                "line": 5,
                "column": 12
              },
              "end": {
                "line": 5,
                "column": 28
              }
            },
            "name": "JobStatusActions"
          }
        }
      ],
      "importKind": "value",
      "source": {
        "type": "Literal",
        "start": 222,
        "end": 254,
        "loc": {
          "start": {
            "line": 5,
            "column": 34
          },
          "end": {
            "line": 5,
            "column": 66
          }
        },
        "value": "../action/CheckJobStatusAction",
        "rawValue": "../action/CheckJobStatusAction",
        "raw": "'../action/CheckJobStatusAction'"
      }
    },
    {
      "type": "ImportDeclaration",
      "start": 256,
      "end": 316,
      "loc": {
        "start": {
          "line": 6,
          "column": 0
        },
        "end": {
          "line": 6,
          "column": 60
        }
      },
      "specifiers": [
        {
          "type": "ImportSpecifier",
          "start": 264,
          "end": 276,
          "loc": {
            "start": {
              "line": 6,
              "column": 8
            },
            "end": {
              "line": 6,
              "column": 20
            }
          },
          "imported": {
            "type": "Identifier",
            "start": 264,
            "end": 276,
            "loc": {
              "start": {
                "line": 6,
                "column": 8
              },
              "end": {
                "line": 6,
                "column": 20
              }
            },
            "name": "getJobStatus"
          },
          "local": {
            "type": "Identifier",
            "start": 264,
            "end": 276,
            "loc": {
              "start": {
                "line": 6,
                "column": 8
              },
              "end": {
                "line": 6,
                "column": 20
              }
            },
            "name": "getJobStatus"
          }
        }
      ],
      "importKind": "value",
      "source": {
        "type": "Literal",
        "start": 283,
        "end": 315,
        "loc": {
          "start": {
            "line": 6,
            "column": 27
          },
          "end": {
            "line": 6,
            "column": 59
          }
        },
        "value": "../action/CheckJobStatusAction",
        "rawValue": "../action/CheckJobStatusAction",
        "raw": "'../action/CheckJobStatusAction'"
      }
    },
    {
      "type": "VariableDeclaration",
      "start": 318,
      "end": 451,
      "loc": {
        "start": {
          "line": 8,
          "column": 0
        },
        "end": {
          "line": 13,
          "column": 1
        }
      },
      "declarations": [
        {
          "type": "VariableDeclarator",
          "start": 324,
          "end": 451,
          "loc": {
            "start": {
              "line": 8,
              "column": 6
            },
            "end": {
              "line": 13,
              "column": 1
            }
          },
          "id": {
            "type": "Identifier",
            "start": 324,
            "end": 341,
            "loc": {
              "start": {
                "line": 8,
                "column": 6
              },
              "end": {
                "line": 8,
                "column": 23
              }
            },
            "name": "getSelectedValues"
          },
          "init": {
            "type": "ArrowFunctionExpression",
            "start": 344,
            "end": 451,
            "loc": {
              "start": {
                "line": 8,
                "column": 26
              },
              "end": {
                "line": 13,
                "column": 1
              }
            },
            "id": null,
            "generator": false,
            "expression": false,
            "async": false,
            "params": [
              {
                "type": "Identifier",
                "start": 345,
                "end": 354,
                "loc": {
                  "start": {
                    "line": 8,
                    "column": 27
                  },
                  "end": {
                    "line": 8,
                    "column": 36
                  }
                },
                "name": "dataArray"
              }
            ],
            "body": {
              "type": "BlockStatement",
              "start": 359,
              "end": 451,
              "loc": {
                "start": {
                  "line": 8,
                  "column": 41
                },
                "end": {
                  "line": 13,
                  "column": 1
                }
              },
              "body": [
                {
                  "type": "IfStatement",
                  "start": 363,
                  "end": 436,
                  "loc": {
                    "start": {
                      "line": 9,
                      "column": 2
                    },
                    "end": {
                      "line": 11,
                      "column": 3
                    }
                  },
                  "test": {
                    "type": "BinaryExpression",
                    "start": 367,
                    "end": 387,
                    "loc": {
                      "start": {
                        "line": 9,
                        "column": 6
                      },
                      "end": {
                        "line": 9,
                        "column": 26
                      }
                    },
                    "left": {
                      "type": "MemberExpression",
                      "start": 367,
                      "end": 383,
                      "loc": {
                        "start": {
                          "line": 9,
                          "column": 6
                        },
                        "end": {
                          "line": 9,
                          "column": 22
                        }
                      },
                      "object": {
                        "type": "Identifier",
                        "start": 367,
                        "end": 376,
                        "loc": {
                          "start": {
                            "line": 9,
                            "column": 6
                          },
                          "end": {
                            "line": 9,
                            "column": 15
                          }
                        },
                        "name": "dataArray"
                      },
                      "property": {
                        "type": "Identifier",
                        "start": 377,
                        "end": 383,
                        "loc": {
                          "start": {
                            "line": 9,
                            "column": 16
                          },
                          "end": {
                            "line": 9,
                            "column": 22
                          }
                        },
                        "name": "length"
                      },
                      "computed": false
                    },
                    "operator": ">",
                    "right": {
                      "type": "Literal",
                      "start": 386,
                      "end": 387,
                      "loc": {
                        "start": {
                          "line": 9,
                          "column": 25
                        },
                        "end": {
                          "line": 9,
                          "column": 26
                        }
                      },
                      "value": 0,
                      "rawValue": 0,
                      "raw": "0"
                    }
                  },
                  "consequent": {
                    "type": "BlockStatement",
                    "start": 389,
                    "end": 436,
                    "loc": {
                      "start": {
                        "line": 9,
                        "column": 28
                      },
                      "end": {
                        "line": 11,
                        "column": 3
                      }
                    },
                    "body": [
                      {
                        "type": "ReturnStatement",
                        "start": 395,
                        "end": 432,
                        "loc": {
                          "start": {
                            "line": 10,
                            "column": 4
                          },
                          "end": {
                            "line": 10,
                            "column": 41
                          }
                        },
                        "argument": {
                          "type": "MemberExpression",
                          "start": 402,
                          "end": 431,
                          "loc": {
                            "start": {
                              "line": 10,
                              "column": 11
                            },
                            "end": {
                              "line": 10,
                              "column": 40
                            }
                          },
                          "object": {
                            "type": "Identifier",
                            "start": 402,
                            "end": 411,
                            "loc": {
                              "start": {
                                "line": 10,
                                "column": 11
                              },
                              "end": {
                                "line": 10,
                                "column": 20
                              }
                            },
                            "name": "dataArray"
                          },
                          "property": {
                            "type": "BinaryExpression",
                            "start": 412,
                            "end": 430,
                            "loc": {
                              "start": {
                                "line": 10,
                                "column": 21
                              },
                              "end": {
                                "line": 10,
                                "column": 39
                              }
                            },
                            "left": {
                              "type": "MemberExpression",
                              "start": 412,
                              "end": 428,
                              "loc": {
                                "start": {
                                  "line": 10,
                                  "column": 21
                                },
                                "end": {
                                  "line": 10,
                                  "column": 37
                                }
                              },
                              "object": {
                                "type": "Identifier",
                                "start": 412,
                                "end": 421,
                                "loc": {
                                  "start": {
                                    "line": 10,
                                    "column": 21
                                  },
                                  "end": {
                                    "line": 10,
                                    "column": 30
                                  }
                                },
                                "name": "dataArray"
                              },
                              "property": {
                                "type": "Identifier",
                                "start": 422,
                                "end": 428,
                                "loc": {
                                  "start": {
                                    "line": 10,
                                    "column": 31
                                  },
                                  "end": {
                                    "line": 10,
                                    "column": 37
                                  }
                                },
                                "name": "length"
                              },
                              "computed": false
                            },
                            "operator": "-",
                            "right": {
                              "type": "Literal",
                              "start": 429,
                              "end": 430,
                              "loc": {
                                "start": {
                                  "line": 10,
                                  "column": 38
                                },
                                "end": {
                                  "line": 10,
                                  "column": 39
                                }
                              },
                              "value": 1,
                              "rawValue": 1,
                              "raw": "1"
                            }
                          },
                          "computed": true
                        }
                      }
                    ]
                  },
                  "alternate": null
                },
                {
                  "type": "ReturnStatement",
                  "start": 439,
                  "end": 449,
                  "loc": {
                    "start": {
                      "line": 12,
                      "column": 2
                    },
                    "end": {
                      "line": 12,
                      "column": 12
                    }
                  },
                  "argument": {
                    "type": "ArrayExpression",
                    "start": 446,
                    "end": 448,
                    "loc": {
                      "start": {
                        "line": 12,
                        "column": 9
                      },
                      "end": {
                        "line": 12,
                        "column": 11
                      }
                    },
                    "elements": []
                  }
                }
              ]
            }
          }
        }
      ],
      "kind": "const"
    },
    {
      "type": "VariableDeclaration",
      "start": 453,
      "end": 642,
      "loc": {
        "start": {
          "line": 15,
          "column": 0
        },
        "end": {
          "line": 22,
          "column": 1
        }
      },
      "declarations": [
        {
          "type": "VariableDeclarator",
          "start": 459,
          "end": 642,
          "loc": {
            "start": {
              "line": 15,
              "column": 6
            },
            "end": {
              "line": 22,
              "column": 1
            }
          },
          "id": {
            "type": "Identifier",
            "start": 459,
            "end": 474,
            "loc": {
              "start": {
                "line": 15,
                "column": 6
              },
              "end": {
                "line": 15,
                "column": 21
              }
            },
            "name": "mapStateToProps"
          },
          "init": {
            "type": "ArrowFunctionExpression",
            "start": 477,
            "end": 642,
            "loc": {
              "start": {
                "line": 15,
                "column": 24
              },
              "end": {
                "line": 22,
                "column": 1
              }
            },
            "id": null,
            "generator": false,
            "expression": false,
            "async": false,
            "params": [
              {
                "type": "Identifier",
                "start": 478,
                "end": 483,
                "loc": {
                  "start": {
                    "line": 15,
                    "column": 25
                  },
                  "end": {
                    "line": 15,
                    "column": 30
                  }
                },
                "name": "state"
              }
            ],
            "body": {
              "type": "BlockStatement",
              "start": 488,
              "end": 642,
              "loc": {
                "start": {
                  "line": 15,
                  "column": 35
                },
                "end": {
                  "line": 22,
                  "column": 1
                }
              },
              "body": [
                {
                  "type": "VariableDeclaration",
                  "start": 492,
                  "end": 552,
                  "loc": {
                    "start": {
                      "line": 16,
                      "column": 2
                    },
                    "end": {
                      "line": 16,
                      "column": 62
                    }
                  },
                  "declarations": [
                    {
                      "type": "VariableDeclarator",
                      "start": 498,
                      "end": 552,
                      "loc": {
                        "start": {
                          "line": 16,
                          "column": 8
                        },
                        "end": {
                          "line": 16,
                          "column": 62
                        }
                      },
                      "id": {
                        "type": "Identifier",
                        "start": 498,
                        "end": 502,
                        "loc": {
                          "start": {
                            "line": 16,
                            "column": 8
                          },
                          "end": {
                            "line": 16,
                            "column": 12
                          }
                        },
                        "name": "data"
                      },
                      "init": {
                        "type": "CallExpression",
                        "start": 505,
                        "end": 552,
                        "loc": {
                          "start": {
                            "line": 16,
                            "column": 15
                          },
                          "end": {
                            "line": 16,
                            "column": 62
                          }
                        },
                        "callee": {
                          "type": "Identifier",
                          "start": 505,
                          "end": 522,
                          "loc": {
                            "start": {
                              "line": 16,
                              "column": 15
                            },
                            "end": {
                              "line": 16,
                              "column": 32
                            }
                          },
                          "name": "getSelectedValues"
                        },
                        "arguments": [
                          {
                            "type": "MemberExpression",
                            "start": 523,
                            "end": 551,
                            "loc": {
                              "start": {
                                "line": 16,
                                "column": 33
                              },
                              "end": {
                                "line": 16,
                                "column": 61
                              }
                            },
                            "object": {
                              "type": "Identifier",
                              "start": 523,
                              "end": 528,
                              "loc": {
                                "start": {
                                  "line": 16,
                                  "column": 33
                                },
                                "end": {
                                  "line": 16,
                                  "column": 38
                                }
                              },
                              "name": "state"
                            },
                            "property": {
                              "type": "Identifier",
                              "start": 529,
                              "end": 551,
                              "loc": {
                                "start": {
                                  "line": 16,
                                  "column": 39
                                },
                                "end": {
                                  "line": 16,
                                  "column": 61
                                }
                              },
                              "name": "CheckJobStatusReducers"
                            },
                            "computed": false
                          }
                        ]
                      }
                    }
                  ],
                  "kind": "const"
                },
                {
                  "type": "ReturnStatement",
                  "start": 555,
                  "end": 640,
                  "loc": {
                    "start": {
                      "line": 17,
                      "column": 2
                    },
                    "end": {
                      "line": 21,
                      "column": 3
                    }
                  },
                  "argument": {
                    "type": "ObjectExpression",
                    "start": 562,
                    "end": 640,
                    "loc": {
                      "start": {
                        "line": 17,
                        "column": 9
                      },
                      "end": {
                        "line": 21,
                        "column": 3
                      }
                    },
                    "properties": [
                      {
                        "type": "Property",
                        "start": 567,
                        "end": 583,
                        "loc": {
                          "start": {
                            "line": 18,
                            "column": 3
                          },
                          "end": {
                            "line": 18,
                            "column": 19
                          }
                        },
                        "method": false,
                        "shorthand": false,
                        "computed": false,
                        "key": {
                          "type": "Identifier",
                          "start": 567,
                          "end": 571,
                          "loc": {
                            "start": {
                              "line": 18,
                              "column": 3
                            },
                            "end": {
                              "line": 18,
                              "column": 7
                            }
                          },
                          "name": "rows"
                        },
                        "value": {
                          "type": "MemberExpression",
                          "start": 574,
                          "end": 583,
                          "loc": {
                            "start": {
                              "line": 18,
                              "column": 10
                            },
                            "end": {
                              "line": 18,
                              "column": 19
                            }
                          },
                          "object": {
                            "type": "Identifier",
                            "start": 574,
                            "end": 578,
                            "loc": {
                              "start": {
                                "line": 18,
                                "column": 10
                              },
                              "end": {
                                "line": 18,
                                "column": 14
                              }
                            },
                            "name": "data"
                          },
                          "property": {
                            "type": "Identifier",
                            "start": 579,
                            "end": 583,
                            "loc": {
                              "start": {
                                "line": 18,
                                "column": 15
                              },
                              "end": {
                                "line": 18,
                                "column": 19
                              }
                            },
                            "name": "rows"
                          },
                          "computed": false
                        },
                        "kind": "init"
                      },
                      {
                        "type": "Property",
                        "start": 588,
                        "end": 610,
                        "loc": {
                          "start": {
                            "line": 19,
                            "column": 3
                          },
                          "end": {
                            "line": 19,
                            "column": 25
                          }
                        },
                        "method": false,
                        "shorthand": false,
                        "computed": false,
                        "key": {
                          "type": "Identifier",
                          "start": 588,
                          "end": 595,
                          "loc": {
                            "start": {
                              "line": 19,
                              "column": 3
                            },
                            "end": {
                              "line": 19,
                              "column": 10
                            }
                          },
                          "name": "columns"
                        },
                        "value": {
                          "type": "MemberExpression",
                          "start": 598,
                          "end": 610,
                          "loc": {
                            "start": {
                              "line": 19,
                              "column": 13
                            },
                            "end": {
                              "line": 19,
                              "column": 25
                            }
                          },
                          "object": {
                            "type": "Identifier",
                            "start": 598,
                            "end": 602,
                            "loc": {
                              "start": {
                                "line": 19,
                                "column": 13
                              },
                              "end": {
                                "line": 19,
                                "column": 17
                              }
                            },
                            "name": "data"
                          },
                          "property": {
                            "type": "Identifier",
                            "start": 603,
                            "end": 610,
                            "loc": {
                              "start": {
                                "line": 19,
                                "column": 18
                              },
                              "end": {
                                "line": 19,
                                "column": 25
                              }
                            },
                            "name": "columns"
                          },
                          "computed": false
                        },
                        "kind": "init"
                      },
                      {
                        "type": "Property",
                        "start": 616,
                        "end": 636,
                        "loc": {
                          "start": {
                            "line": 20,
                            "column": 4
                          },
                          "end": {
                            "line": 20,
                            "column": 24
                          }
                        },
                        "method": false,
                        "shorthand": false,
                        "computed": false,
                        "key": {
                          "type": "Identifier",
                          "start": 616,
                          "end": 622,
                          "loc": {
                            "start": {
                              "line": 20,
                              "column": 4
                            },
                            "end": {
                              "line": 20,
                              "column": 10
                            }
                          },
                          "name": "status"
                        },
                        "value": {
                          "type": "MemberExpression",
                          "start": 625,
                          "end": 636,
                          "loc": {
                            "start": {
                              "line": 20,
                              "column": 13
                            },
                            "end": {
                              "line": 20,
                              "column": 24
                            }
                          },
                          "object": {
                            "type": "Identifier",
                            "start": 625,
                            "end": 629,
                            "loc": {
                              "start": {
                                "line": 20,
                                "column": 13
                              },
                              "end": {
                                "line": 20,
                                "column": 17
                              }
                            },
                            "name": "data"
                          },
                          "property": {
                            "type": "Identifier",
                            "start": 630,
                            "end": 636,
                            "loc": {
                              "start": {
                                "line": 20,
                                "column": 18
                              },
                              "end": {
                                "line": 20,
                                "column": 24
                              }
                            },
                            "name": "status"
                          },
                          "computed": false
                        },
                        "kind": "init"
                      }
                    ]
                  }
                }
              ]
            }
          }
        }
      ],
      "kind": "const"
    },
    {
      "type": "VariableDeclaration",
      "start": 644,
      "end": 808,
      "loc": {
        "start": {
          "line": 24,
          "column": 0
        },
        "end": {
          "line": 30,
          "column": 1
        }
      },
      "declarations": [
        {
          "type": "VariableDeclarator",
          "start": 650,
          "end": 808,
          "loc": {
            "start": {
              "line": 24,
              "column": 6
            },
            "end": {
              "line": 30,
              "column": 1
            }
          },
          "id": {
            "type": "Identifier",
            "start": 650,
            "end": 668,
            "loc": {
              "start": {
                "line": 24,
                "column": 6
              },
              "end": {
                "line": 24,
                "column": 24
              }
            },
            "name": "mapDispatchToProps"
          },
          "init": {
            "type": "ArrowFunctionExpression",
            "start": 671,
            "end": 808,
            "loc": {
              "start": {
                "line": 24,
                "column": 27
              },
              "end": {
                "line": 30,
                "column": 1
              }
            },
            "id": null,
            "generator": false,
            "expression": false,
            "async": false,
            "params": [
              {
                "type": "Identifier",
                "start": 672,
                "end": 680,
                "loc": {
                  "start": {
                    "line": 24,
                    "column": 28
                  },
                  "end": {
                    "line": 24,
                    "column": 36
                  }
                },
                "name": "dispatch"
              }
            ],
            "body": {
              "type": "BlockStatement",
              "start": 685,
              "end": 808,
              "loc": {
                "start": {
                  "line": 24,
                  "column": 41
                },
                "end": {
                  "line": 30,
                  "column": 1
                }
              },
              "body": [
                {
                  "type": "ReturnStatement",
                  "start": 689,
                  "end": 806,
                  "loc": {
                    "start": {
                      "line": 25,
                      "column": 2
                    },
                    "end": {
                      "line": 29,
                      "column": 3
                    }
                  },
                  "argument": {
                    "type": "ObjectExpression",
                    "start": 696,
                    "end": 806,
                    "loc": {
                      "start": {
                        "line": 25,
                        "column": 9
                      },
                      "end": {
                        "line": 29,
                        "column": 3
                      }
                    },
                    "properties": [
                      {
                        "type": "Property",
                        "start": 702,
                        "end": 757,
                        "loc": {
                          "start": {
                            "line": 26,
                            "column": 4
                          },
                          "end": {
                            "line": 26,
                            "column": 59
                          }
                        },
                        "method": false,
                        "shorthand": false,
                        "computed": false,
                        "key": {
                          "type": "Identifier",
                          "start": 702,
                          "end": 709,
                          "loc": {
                            "start": {
                              "line": 26,
                              "column": 4
                            },
                            "end": {
                              "line": 26,
                              "column": 11
                            }
                          },
                          "name": "actions"
                        },
                        "value": {
                          "type": "CallExpression",
                          "start": 711,
                          "end": 757,
                          "loc": {
                            "start": {
                              "line": 26,
                              "column": 13
                            },
                            "end": {
                              "line": 26,
                              "column": 59
                            }
                          },
                          "callee": {
                            "type": "Identifier",
                            "start": 711,
                            "end": 729,
                            "loc": {
                              "start": {
                                "line": 26,
                                "column": 13
                              },
                              "end": {
                                "line": 26,
                                "column": 31
                              }
                            },
                            "name": "bindActionCreators"
                          },
                          "arguments": [
                            {
                              "type": "Identifier",
                              "start": 730,
                              "end": 746,
                              "loc": {
                                "start": {
                                  "line": 26,
                                  "column": 32
                                },
                                "end": {
                                  "line": 26,
                                  "column": 48
                                }
                              },
                              "name": "JobStatusActions"
                            },
                            {
                              "type": "Identifier",
                              "start": 748,
                              "end": 756,
                              "loc": {
                                "start": {
                                  "line": 26,
                                  "column": 50
                                },
                                "end": {
                                  "line": 26,
                                  "column": 58
                                }
                              },
                              "name": "dispatch"
                            }
                          ]
                        },
                        "kind": "init"
                      },
                      {
                        "type": "Property",
                        "start": 764,
                        "end": 802,
                        "loc": {
                          "start": {
                            "line": 27,
                            "column": 5
                          },
                          "end": {
                            "line": 28,
                            "column": 4
                          }
                        },
                        "method": false,
                        "shorthand": false,
                        "computed": false,
                        "key": {
                          "type": "Identifier",
                          "start": 764,
                          "end": 782,
                          "loc": {
                            "start": {
                              "line": 27,
                              "column": 5
                            },
                            "end": {
                              "line": 27,
                              "column": 23
                            }
                          },
                          "name": "componentWillMount"
                        },
                        "value": {
                          "type": "FunctionExpression",
                          "start": 784,
                          "end": 802,
                          "loc": {
                            "start": {
                              "line": 27,
                              "column": 25
                            },
                            "end": {
                              "line": 28,
                              "column": 4
                            }
                          },
                          "id": null,
                          "generator": false,
                          "expression": false,
                          "async": false,
                          "params": [],
                          "body": {
                            "type": "BlockStatement",
                            "start": 796,
                            "end": 802,
                            "loc": {
                              "start": {
                                "line": 27,
                                "column": 37
                              },
                              "end": {
                                "line": 28,
                                "column": 4
                              }
                            },
                            "body": []
                          }
                        },
                        "kind": "init"
                      }
                    ]
                  }
                }
              ]
            }
          }
        }
      ],
      "kind": "const"
    },
    {
      "type": "Identifier",
      "start": 810,
      "end": 908,
      "loc": {
        "start": {
          "line": 32,
          "column": 0
        },
        "end": {
          "line": 35,
          "column": 17
        }
      },
      "declarations": [
        {
          "type": "VariableDeclarator",
          "start": 816,
          "end": 908,
          "loc": {
            "start": {
              "line": 32,
              "column": 6
            },
            "end": {
              "line": 35,
              "column": 17
            }
          },
          "id": {
            "type": "Identifier",
            "start": 816,
            "end": 839,
            "loc": {
              "start": {
                "line": 32,
                "column": 6
              },
              "end": {
                "line": 32,
                "column": 29
              }
            },
            "name": "CheckJobStatusContainer"
          },
          "init": {
            "type": "CallExpression",
            "start": 842,
            "end": 908,
            "loc": {
              "start": {
                "line": 32,
                "column": 32
              },
              "end": {
                "line": 35,
                "column": 17
              }
            },
            "callee": {
              "type": "CallExpression",
              "start": 842,
              "end": 892,
              "loc": {
                "start": {
                  "line": 32,
                  "column": 32
                },
                "end": {
                  "line": 35,
                  "column": 1
                }
              },
              "callee": {
                "type": "Identifier",
                "start": 842,
                "end": 849,
                "loc": {
                  "start": {
                    "line": 32,
                    "column": 32
                  },
                  "end": {
                    "line": 32,
                    "column": 39
                  }
                },
                "name": "connect"
              },
              "arguments": [
                {
                  "type": "Identifier",
                  "start": 853,
                  "end": 868,
                  "loc": {
                    "start": {
                      "line": 33,
                      "column": 2
                    },
                    "end": {
                      "line": 33,
                      "column": 17
                    }
                  },
                  "name": "mapStateToProps"
                },
                {
                  "type": "Identifier",
                  "start": 872,
                  "end": 890,
                  "loc": {
                    "start": {
                      "line": 34,
                      "column": 2
                    },
                    "end": {
                      "line": 34,
                      "column": 20
                    }
                  },
                  "name": "mapDispatchToProps"
                }
              ]
            },
            "arguments": [
              {
                "type": "Identifier",
                "start": 893,
                "end": 907,
                "loc": {
                  "start": {
                    "line": 35,
                    "column": 2
                  },
                  "end": {
                    "line": 35,
                    "column": 16
                  }
                },
                "name": "CheckJobStatus"
              }
            ]
          }
        }
      ],
      "kind": "const",
      "name": "_",
      "leadingComments": [],
      "trailingComments": []
    },
    {
      "type": "Identifier",
      "start": 910,
      "end": 949,
      "loc": {
        "start": {
          "line": 37,
          "column": 0
        },
        "end": {
          "line": 37,
          "column": 39
        }
      },
      "declaration": {
        "type": "Identifier",
        "start": 925,
        "end": 948,
        "loc": {
          "start": {
            "line": 37,
            "column": 15
          },
          "end": {
            "line": 37,
            "column": 38
          }
        },
        "name": "CheckJobStatusContainer"
      },
      "name": "_",
      "leadingComments": [],
      "trailingComments": []
    },
    {
      "type": "ExportDefaultDeclaration",
      "start": 910,
      "end": 949,
      "loc": {
        "start": {
          "line": 37,
          "column": 0
        },
        "end": {
          "line": 37,
          "column": 39
        }
      },
      "declaration": {
        "type": "VariableDeclaration",
        "start": 810,
        "end": 908,
        "loc": {
          "start": {
            "line": 32,
            "column": 0
          },
          "end": {
            "line": 35,
            "column": 17
          }
        },
        "declarations": [
          {
            "type": "VariableDeclarator",
            "start": 816,
            "end": 908,
            "loc": {
              "start": {
                "line": 32,
                "column": 6
              },
              "end": {
                "line": 35,
                "column": 17
              }
            },
            "id": {
              "type": "Identifier",
              "start": 816,
              "end": 839,
              "loc": {
                "start": {
                  "line": 32,
                  "column": 6
                },
                "end": {
                  "line": 32,
                  "column": 29
                }
              },
              "name": "CheckJobStatusContainer"
            },
            "init": {
              "type": "CallExpression",
              "start": 842,
              "end": 908,
              "loc": {
                "start": {
                  "line": 32,
                  "column": 32
                },
                "end": {
                  "line": 35,
                  "column": 17
                }
              },
              "callee": {
                "type": "CallExpression",
                "start": 842,
                "end": 892,
                "loc": {
                  "start": {
                    "line": 32,
                    "column": 32
                  },
                  "end": {
                    "line": 35,
                    "column": 1
                  }
                },
                "callee": {
                  "type": "Identifier",
                  "start": 842,
                  "end": 849,
                  "loc": {
                    "start": {
                      "line": 32,
                      "column": 32
                    },
                    "end": {
                      "line": 32,
                      "column": 39
                    }
                  },
                  "name": "connect"
                },
                "arguments": [
                  {
                    "type": "Identifier",
                    "start": 853,
                    "end": 868,
                    "loc": {
                      "start": {
                        "line": 33,
                        "column": 2
                      },
                      "end": {
                        "line": 33,
                        "column": 17
                      }
                    },
                    "name": "mapStateToProps"
                  },
                  {
                    "type": "Identifier",
                    "start": 872,
                    "end": 890,
                    "loc": {
                      "start": {
                        "line": 34,
                        "column": 2
                      },
                      "end": {
                        "line": 34,
                        "column": 20
                      }
                    },
                    "name": "mapDispatchToProps"
                  }
                ]
              },
              "arguments": [
                {
                  "type": "Identifier",
                  "start": 893,
                  "end": 907,
                  "loc": {
                    "start": {
                      "line": 35,
                      "column": 2
                    },
                    "end": {
                      "line": 35,
                      "column": 16
                    }
                  },
                  "name": "CheckJobStatus"
                }
              ]
            }
          }
        ],
        "kind": "const",
        "leadingComments": [],
        "trailingComments": []
      }
    }
  ]
}