{
  "type": "Program",
  "start": 0,
  "end": 393,
  "loc": {
    "start": {
      "line": 1,
      "column": 0
    },
    "end": {
      "line": 18,
      "column": 0
    }
  },
  "sourceType": "module",
  "body": [
    {
      "type": "ImportDeclaration",
      "start": 0,
      "end": 26,
      "loc": {
        "start": {
          "line": 1,
          "column": 0
        },
        "end": {
          "line": 1,
          "column": 26
        }
      },
      "specifiers": [
        {
          "type": "ImportDefaultSpecifier",
          "start": 7,
          "end": 12,
          "loc": {
            "start": {
              "line": 1,
              "column": 7
            },
            "end": {
              "line": 1,
              "column": 12
            }
          },
          "local": {
            "type": "Identifier",
            "start": 7,
            "end": 12,
            "loc": {
              "start": {
                "line": 1,
                "column": 7
              },
              "end": {
                "line": 1,
                "column": 12
              }
            },
            "name": "React"
          }
        }
      ],
      "importKind": "value",
      "source": {
        "type": "Literal",
        "start": 18,
        "end": 25,
        "loc": {
          "start": {
            "line": 1,
            "column": 18
          },
          "end": {
            "line": 1,
            "column": 25
          }
        },
        "value": "react",
        "rawValue": "react",
        "raw": "'react'"
      }
    },
    {
      "type": "ImportDeclaration",
      "start": 27,
      "end": 79,
      "loc": {
        "start": {
          "line": 2,
          "column": 0
        },
        "end": {
          "line": 2,
          "column": 52
        }
      },
      "specifiers": [
        {
          "type": "ImportSpecifier",
          "start": 36,
          "end": 40,
          "loc": {
            "start": {
              "line": 2,
              "column": 9
            },
            "end": {
              "line": 2,
              "column": 13
            }
          },
          "imported": {
            "type": "Identifier",
            "start": 36,
            "end": 40,
            "loc": {
              "start": {
                "line": 2,
                "column": 9
              },
              "end": {
                "line": 2,
                "column": 13
              }
            },
            "name": "Link"
          },
          "local": {
            "type": "Identifier",
            "start": 36,
            "end": 40,
            "loc": {
              "start": {
                "line": 2,
                "column": 9
              },
              "end": {
                "line": 2,
                "column": 13
              }
            },
            "name": "Link"
          }
        },
        {
          "type": "ImportSpecifier",
          "start": 42,
          "end": 56,
          "loc": {
            "start": {
              "line": 2,
              "column": 15
            },
            "end": {
              "line": 2,
              "column": 29
            }
          },
          "imported": {
            "type": "Identifier",
            "start": 42,
            "end": 56,
            "loc": {
              "start": {
                "line": 2,
                "column": 15
              },
              "end": {
                "line": 2,
                "column": 29
              }
            },
            "name": "browserHistory"
          },
          "local": {
            "type": "Identifier",
            "start": 42,
            "end": 56,
            "loc": {
              "start": {
                "line": 2,
                "column": 15
              },
              "end": {
                "line": 2,
                "column": 29
              }
            },
            "name": "browserHistory"
          }
        }
      ],
      "importKind": "value",
      "source": {
        "type": "Literal",
        "start": 64,
        "end": 78,
        "loc": {
          "start": {
            "line": 2,
            "column": 37
          },
          "end": {
            "line": 2,
            "column": 51
          }
        },
        "value": "react-router",
        "rawValue": "react-router",
        "raw": "'react-router'"
      }
    },
    {
      "type": "ImportDeclaration",
      "start": 80,
      "end": 139,
      "loc": {
        "start": {
          "line": 3,
          "column": 0
        },
        "end": {
          "line": 3,
          "column": 59
        }
      },
      "specifiers": [
        {
          "type": "ImportDefaultSpecifier",
          "start": 87,
          "end": 102,
          "loc": {
            "start": {
              "line": 3,
              "column": 7
            },
            "end": {
              "line": 3,
              "column": 22
            }
          },
          "local": {
            "type": "Identifier",
            "start": 87,
            "end": 102,
            "loc": {
              "start": {
                "line": 3,
                "column": 7
              },
              "end": {
                "line": 3,
                "column": 22
              }
            },
            "name": "assetsContainer"
          }
        }
      ],
      "importKind": "value",
      "source": {
        "type": "Literal",
        "start": 108,
        "end": 138,
        "loc": {
          "start": {
            "line": 3,
            "column": 28
          },
          "end": {
            "line": 3,
            "column": 58
          }
        },
        "value": "../container/assetsContainer",
        "rawValue": "../container/assetsContainer",
        "raw": "'../container/assetsContainer'"
      }
    },
    {
      "type": "ImportDeclaration",
      "start": 140,
      "end": 177,
      "loc": {
        "start": {
          "line": 4,
          "column": 0
        },
        "end": {
          "line": 4,
          "column": 37
        }
      },
      "specifiers": [
        {
          "type": "ImportDefaultSpecifier",
          "start": 147,
          "end": 157,
          "loc": {
            "start": {
              "line": 4,
              "column": 7
            },
            "end": {
              "line": 4,
              "column": 17
            }
          },
          "local": {
            "type": "Identifier",
            "start": 147,
            "end": 157,
            "loc": {
              "start": {
                "line": 4,
                "column": 7
              },
              "end": {
                "line": 4,
                "column": 17
              }
            },
            "name": "AddAnAsset"
          }
        }
      ],
      "importKind": "value",
      "source": {
        "type": "Literal",
        "start": 163,
        "end": 177,
        "loc": {
          "start": {
            "line": 4,
            "column": 23
          },
          "end": {
            "line": 4,
            "column": 37
          }
        },
        "value": "./AddAnAsset",
        "rawValue": "./AddAnAsset",
        "raw": "'./AddAnAsset'"
      }
    },
    {
      "type": "ExportDefaultDeclaration",
      "start": 179,
      "end": 372,
      "loc": {
        "start": {
          "line": 6,
          "column": 0
        },
        "end": {
          "line": 15,
          "column": 1
        }
      },
      "declaration": {
        "type": "FunctionDeclaration",
        "start": 194,
        "end": 372,
        "loc": {
          "start": {
            "line": 6,
            "column": 15
          },
          "end": {
            "line": 15,
            "column": 1
          }
        },
        "id": {
          "type": "Identifier",
          "start": 203,
          "end": 206,
          "loc": {
            "start": {
              "line": 6,
              "column": 24
            },
            "end": {
              "line": 6,
              "column": 27
            }
          },
          "name": "App"
        },
        "generator": false,
        "expression": false,
        "async": false,
        "params": [
          {
            "type": "ObjectPattern",
            "start": 207,
            "end": 219,
            "loc": {
              "start": {
                "line": 6,
                "column": 28
              },
              "end": {
                "line": 6,
                "column": 40
              }
            },
            "properties": [
              {
                "type": "Property",
                "start": 209,
                "end": 217,
                "loc": {
                  "start": {
                    "line": 6,
                    "column": 30
                  },
                  "end": {
                    "line": 6,
                    "column": 38
                  }
                },
                "method": false,
                "shorthand": true,
                "computed": false,
                "key": {
                  "type": "Identifier",
                  "start": 209,
                  "end": 217,
                  "loc": {
                    "start": {
                      "line": 6,
                      "column": 30
                    },
                    "end": {
                      "line": 6,
                      "column": 38
                    }
                  },
                  "name": "children"
                },
                "kind": "init",
                "value": {
                  "type": "Identifier",
                  "start": 209,
                  "end": 217,
                  "loc": {
                    "start": {
                      "line": 6,
                      "column": 30
                    },
                    "end": {
                      "line": 6,
                      "column": 38
                    }
                  },
                  "name": "children"
                }
              }
            ]
          }
        ],
        "body": {
          "type": "BlockStatement",
          "start": 221,
          "end": 372,
          "loc": {
            "start": {
              "line": 6,
              "column": 42
            },
            "end": {
              "line": 15,
              "column": 1
            }
          },
          "body": [
            {
              "type": "VariableDeclaration",
              "start": 225,
              "end": 290,
              "loc": {
                "start": {
                  "line": 8,
                  "column": 1
                },
                "end": {
                  "line": 8,
                  "column": 66
                }
              },
              "declarations": [
                {
                  "type": "VariableDeclarator",
                  "start": 229,
                  "end": 289,
                  "loc": {
                    "start": {
                      "line": 8,
                      "column": 5
                    },
                    "end": {
                      "line": 8,
                      "column": 65
                    }
                  },
                  "id": {
                    "type": "Identifier",
                    "start": 229,
                    "end": 234,
                    "loc": {
                      "start": {
                        "line": 8,
                        "column": 5
                      },
                      "end": {
                        "line": 8,
                        "column": 10
                      }
                    },
                    "name": "child"
                  },
                  "init": {
                    "type": "JSXElement",
                    "start": 237,
                    "end": 289,
                    "loc": {
                      "start": {
                        "line": 8,
                        "column": 13
                      },
                      "end": {
                        "line": 8,
                        "column": 65
                      }
                    },
                    "openingElement": {
                      "type": "JSXOpeningElement",
                      "start": 237,
                      "end": 273,
                      "loc": {
                        "start": {
                          "line": 8,
                          "column": 13
                        },
                        "end": {
                          "line": 8,
                          "column": 49
                        }
                      },
                      "attributes": [
                        {
                          "type": "JSXAttribute",
                          "start": 242,
                          "end": 272,
                          "loc": {
                            "start": {
                              "line": 8,
                              "column": 18
                            },
                            "end": {
                              "line": 8,
                              "column": 48
                            }
                          },
                          "name": {
                            "type": "JSXIdentifier",
                            "start": 242,
                            "end": 247,
                            "loc": {
                              "start": {
                                "line": 8,
                                "column": 18
                              },
                              "end": {
                                "line": 8,
                                "column": 23
                              }
                            },
                            "name": "style"
                          },
                          "value": {
                            "type": "JSXExpressionContainer",
                            "start": 248,
                            "end": 272,
                            "loc": {
                              "start": {
                                "line": 8,
                                "column": 24
                              },
                              "end": {
                                "line": 8,
                                "column": 48
                              }
                            },
                            "expression": {
                              "type": "ObjectExpression",
                              "start": 249,
                              "end": 271,
                              "loc": {
                                "start": {
                                  "line": 8,
                                  "column": 25
                                },
                                "end": {
                                  "line": 8,
                                  "column": 47
                                }
                              },
                              "properties": [
                                {
                                  "type": "Property",
                                  "start": 251,
                                  "end": 269,
                                  "loc": {
                                    "start": {
                                      "line": 8,
                                      "column": 27
                                    },
                                    "end": {
                                      "line": 8,
                                      "column": 45
                                    }
                                  },
                                  "method": false,
                                  "shorthand": false,
                                  "computed": false,
                                  "key": {
                                    "type": "Identifier",
                                    "start": 251,
                                    "end": 260,
                                    "loc": {
                                      "start": {
                                        "line": 8,
                                        "column": 27
                                      },
                                      "end": {
                                        "line": 8,
                                        "column": 36
                                      }
                                    },
                                    "name": "marginTop"
                                  },
                                  "value": {
                                    "type": "Literal",
                                    "start": 262,
                                    "end": 269,
                                    "loc": {
                                      "start": {
                                        "line": 8,
                                        "column": 38
                                      },
                                      "end": {
                                        "line": 8,
                                        "column": 45
                                      }
                                    },
                                    "value": "1.5em",
                                    "rawValue": "1.5em",
                                    "raw": "'1.5em'"
                                  },
                                  "kind": "init"
                                }
                              ]
                            }
                          }
                        }
                      ],
                      "name": {
                        "type": "JSXIdentifier",
                        "start": 238,
                        "end": 241,
                        "loc": {
                          "start": {
                            "line": 8,
                            "column": 14
                          },
                          "end": {
                            "line": 8,
                            "column": 17
                          }
                        },
                        "name": "div"
                      },
                      "selfClosing": false
                    },
                    "closingElement": {
                      "type": "JSXClosingElement",
                      "start": 283,
                      "end": 289,
                      "loc": {
                        "start": {
                          "line": 8,
                          "column": 59
                        },
                        "end": {
                          "line": 8,
                          "column": 65
                        }
                      },
                      "name": {
                        "type": "JSXIdentifier",
                        "start": 285,
                        "end": 288,
                        "loc": {
                          "start": {
                            "line": 8,
                            "column": 61
                          },
                          "end": {
                            "line": 8,
                            "column": 64
                          }
                        },
                        "name": "div"
                      }
                    },
                    "children": [
                      {
                        "type": "JSXExpressionContainer",
                        "start": 273,
                        "end": 283,
                        "loc": {
                          "start": {
                            "line": 8,
                            "column": 49
                          },
                          "end": {
                            "line": 8,
                            "column": 59
                          }
                        },
                        "expression": {
                          "type": "Identifier",
                          "start": 274,
                          "end": 282,
                          "loc": {
                            "start": {
                              "line": 8,
                              "column": 50
                            },
                            "end": {
                              "line": 8,
                              "column": 58
                            }
                          },
                          "name": "children"
                        }
                      }
                    ]
                  }
                }
              ],
              "kind": "let"
            },
            {
              "type": "ReturnStatement",
              "start": 294,
              "end": 370,
              "loc": {
                "start": {
                  "line": 10,
                  "column": 2
                },
                "end": {
                  "line": 14,
                  "column": 3
                }
              },
              "argument": {
                "type": "JSXElement",
                "start": 307,
                "end": 366,
                "loc": {
                  "start": {
                    "line": 11,
                    "column": 4
                  },
                  "end": {
                    "line": 13,
                    "column": 10
                  }
                },
                "openingElement": {
                  "type": "JSXOpeningElement",
                  "start": 307,
                  "end": 312,
                  "loc": {
                    "start": {
                      "line": 11,
                      "column": 4
                    },
                    "end": {
                      "line": 11,
                      "column": 9
                    }
                  },
                  "attributes": [],
                  "name": {
                    "type": "JSXIdentifier",
                    "start": 308,
                    "end": 311,
                    "loc": {
                      "start": {
                        "line": 11,
                        "column": 5
                      },
                      "end": {
                        "line": 11,
                        "column": 8
                      }
                    },
                    "name": "div"
                  },
                  "selfClosing": false
                },
                "closingElement": {
                  "type": "JSXClosingElement",
                  "start": 360,
                  "end": 366,
                  "loc": {
                    "start": {
                      "line": 13,
                      "column": 4
                    },
                    "end": {
                      "line": 13,
                      "column": 10
                    }
                  },
                  "name": {
                    "type": "JSXIdentifier",
                    "start": 362,
                    "end": 365,
                    "loc": {
                      "start": {
                        "line": 13,
                        "column": 6
                      },
                      "end": {
                        "line": 13,
                        "column": 9
                      }
                    },
                    "name": "div"
                  }
                },
                "children": [
                  {
                    "type": "Literal",
                    "start": 312,
                    "end": 317,
                    "loc": {
                      "start": {
                        "line": 11,
                        "column": 9
                      },
                      "end": {
                        "line": 12,
                        "column": 4
                      }
                    },
                    "value": "\n    ",
                    "rawValue": null,
                    "raw": "\n    "
                  },
                  {
                    "type": "JSXElement",
                    "start": 317,
                    "end": 351,
                    "loc": {
                      "start": {
                        "line": 12,
                        "column": 4
                      },
                      "end": {
                        "line": 12,
                        "column": 38
                      }
                    },
                    "openingElement": {
                      "type": "JSXOpeningElement",
                      "start": 317,
                      "end": 351,
                      "loc": {
                        "start": {
                          "line": 12,
                          "column": 4
                        },
                        "end": {
                          "line": 12,
                          "column": 38
                        }
                      },
                      "attributes": [
                        {
                          "type": "JSXAttribute",
                          "start": 329,
                          "end": 348,
                          "loc": {
                            "start": {
                              "line": 12,
                              "column": 16
                            },
                            "end": {
                              "line": 12,
                              "column": 35
                            }
                          },
                          "name": {
                            "type": "JSXIdentifier",
                            "start": 329,
                            "end": 337,
                            "loc": {
                              "start": {
                                "line": 12,
                                "column": 16
                              },
                              "end": {
                                "line": 12,
                                "column": 24
                              }
                            },
                            "name": "children"
                          },
                          "value": {
                            "type": "JSXExpressionContainer",
                            "start": 338,
                            "end": 348,
                            "loc": {
                              "start": {
                                "line": 12,
                                "column": 25
                              },
                              "end": {
                                "line": 12,
                                "column": 35
                              }
                            },
                            "expression": {
                              "type": "Identifier",
                              "start": 339,
                              "end": 347,
                              "loc": {
                                "start": {
                                  "line": 12,
                                  "column": 26
                                },
                                "end": {
                                  "line": 12,
                                  "column": 34
                                }
                              },
                              "name": "children"
                            }
                          }
                        }
                      ],
                      "name": {
                        "type": "JSXIdentifier",
                        "start": 318,
                        "end": 328,
                        "loc": {
                          "start": {
                            "line": 12,
                            "column": 5
                          },
                          "end": {
                            "line": 12,
                            "column": 15
                          }
                        },
                        "name": "AddAnAsset"
                      },
                      "selfClosing": true
                    },
                    "closingElement": null,
                    "children": []
                  },
                  {
                    "type": "Literal",
                    "start": 351,
                    "end": 360,
                    "loc": {
                      "start": {
                        "line": 12,
                        "column": 38
                      },
                      "end": {
                        "line": 13,
                        "column": 4
                      }
                    },
                    "value": "    \n    ",
                    "rawValue": null,
                    "raw": "    \n    "
                  }
                ],
                "parenthesizedExpression": true
              }
            }
          ]
        },
        "leadingComments": [],
        "trailingComments": []
      }
    },
    {
      "type": "ExportDefaultDeclaration",
      "start": 374,
      "end": 392,
      "loc": {
        "start": {
          "line": 17,
          "column": 0
        },
        "end": {
          "line": 17,
          "column": 18
        }
      },
      "declaration": {
        "type": "Identifier",
        "start": 389,
        "end": 392,
        "loc": {
          "start": {
            "line": 17,
            "column": 15
          },
          "end": {
            "line": 17,
            "column": 18
          }
        },
        "name": "App",
        "leadingComments": [],
        "trailingComments": []
      }
    }
  ]
}