{
  "type": "Program",
  "start": 0,
  "end": 222,
  "loc": {
    "start": {
      "line": 1,
      "column": 0
    },
    "end": {
      "line": 21,
      "column": 29
    }
  },
  "sourceType": "module",
  "body": [
    {
      "type": "ImportDeclaration",
      "start": 0,
      "end": 26,
      "loc": {
        "start": {
          "line": 1,
          "column": 0
        },
        "end": {
          "line": 1,
          "column": 26
        }
      },
      "specifiers": [
        {
          "type": "ImportDefaultSpecifier",
          "start": 7,
          "end": 12,
          "loc": {
            "start": {
              "line": 1,
              "column": 7
            },
            "end": {
              "line": 1,
              "column": 12
            }
          },
          "local": {
            "type": "Identifier",
            "start": 7,
            "end": 12,
            "loc": {
              "start": {
                "line": 1,
                "column": 7
              },
              "end": {
                "line": 1,
                "column": 12
              }
            },
            "name": "React"
          }
        }
      ],
      "importKind": "value",
      "source": {
        "type": "Literal",
        "start": 18,
        "end": 25,
        "loc": {
          "start": {
            "line": 1,
            "column": 18
          },
          "end": {
            "line": 1,
            "column": 25
          }
        },
        "value": "react",
        "rawValue": "react",
        "raw": "'react'"
      }
    },
    {
      "type": "Identifier",
      "start": 28,
      "end": 191,
      "loc": {
        "start": {
          "line": 3,
          "column": 0
        },
        "end": {
          "line": 19,
          "column": 1
        }
      },
      "id": {
        "type": "Identifier",
        "start": 34,
        "end": 47,
        "loc": {
          "start": {
            "line": 3,
            "column": 6
          },
          "end": {
            "line": 3,
            "column": 19
          }
        },
        "name": "IconComponent"
      },
      "superClass": {
        "type": "MemberExpression",
        "start": 56,
        "end": 71,
        "loc": {
          "start": {
            "line": 3,
            "column": 28
          },
          "end": {
            "line": 3,
            "column": 43
          }
        },
        "object": {
          "type": "Identifier",
          "start": 56,
          "end": 61,
          "loc": {
            "start": {
              "line": 3,
              "column": 28
            },
            "end": {
              "line": 3,
              "column": 33
            }
          },
          "name": "React"
        },
        "property": {
          "type": "Identifier",
          "start": 62,
          "end": 71,
          "loc": {
            "start": {
              "line": 3,
              "column": 34
            },
            "end": {
              "line": 3,
              "column": 43
            }
          },
          "name": "Component"
        },
        "computed": false
      },
      "body": {
        "type": "ClassBody",
        "start": 71,
        "end": 191,
        "loc": {
          "start": {
            "line": 3,
            "column": 43
          },
          "end": {
            "line": 19,
            "column": 1
          }
        },
        "body": [
          {
            "type": "MethodDefinition",
            "start": 76,
            "end": 188,
            "loc": {
              "start": {
                "line": 7,
                "column": 0
              },
              "end": {
                "line": 17,
                "column": 1
              }
            },
            "computed": false,
            "key": {
              "type": "Identifier",
              "start": 76,
              "end": 82,
              "loc": {
                "start": {
                  "line": 7,
                  "column": 0
                },
                "end": {
                  "line": 7,
                  "column": 6
                }
              },
              "name": "render"
            },
            "static": false,
            "kind": "method",
            "value": {
              "type": "FunctionExpression",
              "start": 82,
              "end": 188,
              "loc": {
                "start": {
                  "line": 7,
                  "column": 6
                },
                "end": {
                  "line": 17,
                  "column": 1
                }
              },
              "id": null,
              "generator": false,
              "expression": false,
              "async": false,
              "params": [],
              "body": {
                "type": "BlockStatement",
                "start": 84,
                "end": 188,
                "loc": {
                  "start": {
                    "line": 7,
                    "column": 8
                  },
                  "end": {
                    "line": 17,
                    "column": 1
                  }
                },
                "body": [
                  {
                    "type": "VariableDeclaration",
                    "start": 88,
                    "end": 115,
                    "loc": {
                      "start": {
                        "line": 9,
                        "column": 1
                      },
                      "end": {
                        "line": 9,
                        "column": 28
                      }
                    },
                    "declarations": [
                      {
                        "type": "VariableDeclarator",
                        "start": 94,
                        "end": 114,
                        "loc": {
                          "start": {
                            "line": 9,
                            "column": 7
                          },
                          "end": {
                            "line": 9,
                            "column": 27
                          }
                        },
                        "id": {
                          "type": "Identifier",
                          "start": 94,
                          "end": 97,
                          "loc": {
                            "start": {
                              "line": 9,
                              "column": 7
                            },
                            "end": {
                              "line": 9,
                              "column": 10
                            }
                          },
                          "name": "img"
                        },
                        "init": {
                          "type": "MemberExpression",
                          "start": 100,
                          "end": 114,
                          "loc": {
                            "start": {
                              "line": 9,
                              "column": 13
                            },
                            "end": {
                              "line": 9,
                              "column": 27
                            }
                          },
                          "object": {
                            "type": "MemberExpression",
                            "start": 100,
                            "end": 110,
                            "loc": {
                              "start": {
                                "line": 9,
                                "column": 13
                              },
                              "end": {
                                "line": 9,
                                "column": 23
                              }
                            },
                            "object": {
                              "type": "ThisExpression",
                              "start": 100,
                              "end": 104,
                              "loc": {
                                "start": {
                                  "line": 9,
                                  "column": 13
                                },
                                "end": {
                                  "line": 9,
                                  "column": 17
                                }
                              }
                            },
                            "property": {
                              "type": "Identifier",
                              "start": 105,
                              "end": 110,
                              "loc": {
                                "start": {
                                  "line": 9,
                                  "column": 18
                                },
                                "end": {
                                  "line": 9,
                                  "column": 23
                                }
                              },
                              "name": "props"
                            },
                            "computed": false
                          },
                          "property": {
                            "type": "Identifier",
                            "start": 111,
                            "end": 114,
                            "loc": {
                              "start": {
                                "line": 9,
                                "column": 24
                              },
                              "end": {
                                "line": 9,
                                "column": 27
                              }
                            },
                            "name": "src"
                          },
                          "computed": false
                        }
                      }
                    ],
                    "kind": "const"
                  },
                  {
                    "type": "ReturnStatement",
                    "start": 118,
                    "end": 186,
                    "loc": {
                      "start": {
                        "line": 11,
                        "column": 1
                      },
                      "end": {
                        "line": 16,
                        "column": 4
                      }
                    },
                    "argument": {
                      "type": "JSXElement",
                      "start": 129,
                      "end": 180,
                      "loc": {
                        "start": {
                          "line": 12,
                          "column": 3
                        },
                        "end": {
                          "line": 14,
                          "column": 9
                        }
                      },
                      "openingElement": {
                        "type": "JSXOpeningElement",
                        "start": 129,
                        "end": 134,
                        "loc": {
                          "start": {
                            "line": 12,
                            "column": 3
                          },
                          "end": {
                            "line": 12,
                            "column": 8
                          }
                        },
                        "attributes": [],
                        "name": {
                          "type": "JSXIdentifier",
                          "start": 130,
                          "end": 133,
                          "loc": {
                            "start": {
                              "line": 12,
                              "column": 4
                            },
                            "end": {
                              "line": 12,
                              "column": 7
                            }
                          },
                          "name": "div"
                        },
                        "selfClosing": false
                      },
                      "closingElement": {
                        "type": "JSXClosingElement",
                        "start": 174,
                        "end": 180,
                        "loc": {
                          "start": {
                            "line": 14,
                            "column": 3
                          },
                          "end": {
                            "line": 14,
                            "column": 9
                          }
                        },
                        "name": {
                          "type": "JSXIdentifier",
                          "start": 176,
                          "end": 179,
                          "loc": {
                            "start": {
                              "line": 14,
                              "column": 5
                            },
                            "end": {
                              "line": 14,
                              "column": 8
                            }
                          },
                          "name": "div"
                        }
                      },
                      "children": [
                        {
                          "type": "Literal",
                          "start": 134,
                          "end": 139,
                          "loc": {
                            "start": {
                              "line": 12,
                              "column": 8
                            },
                            "end": {
                              "line": 13,
                              "column": 4
                            }
                          },
                          "value": "\n\t\t\t\t",
                          "rawValue": null,
                          "raw": "\n\t\t\t\t"
                        },
                        {
                          "type": "JSXElement",
                          "start": 139,
                          "end": 170,
                          "loc": {
                            "start": {
                              "line": 13,
                              "column": 4
                            },
                            "end": {
                              "line": 13,
                              "column": 35
                            }
                          },
                          "openingElement": {
                            "type": "JSXOpeningElement",
                            "start": 139,
                            "end": 170,
                            "loc": {
                              "start": {
                                "line": 13,
                                "column": 4
                              },
                              "end": {
                                "line": 13,
                                "column": 35
                              }
                            },
                            "attributes": [
                              {
                                "type": "JSXAttribute",
                                "start": 144,
                                "end": 158,
                                "loc": {
                                  "start": {
                                    "line": 13,
                                    "column": 9
                                  },
                                  "end": {
                                    "line": 13,
                                    "column": 23
                                  }
                                },
                                "name": {
                                  "type": "JSXIdentifier",
                                  "start": 144,
                                  "end": 147,
                                  "loc": {
                                    "start": {
                                      "line": 13,
                                      "column": 9
                                    },
                                    "end": {
                                      "line": 13,
                                      "column": 12
                                    }
                                  },
                                  "name": "alt"
                                },
                                "value": {
                                  "type": "Literal",
                                  "start": 148,
                                  "end": 158,
                                  "loc": {
                                    "start": {
                                      "line": 13,
                                      "column": 13
                                    },
                                    "end": {
                                      "line": 13,
                                      "column": 23
                                    }
                                  },
                                  "value": "alt text",
                                  "rawValue": null,
                                  "raw": "\"alt text\""
                                }
                              },
                              {
                                "type": "JSXAttribute",
                                "start": 159,
                                "end": 168,
                                "loc": {
                                  "start": {
                                    "line": 13,
                                    "column": 24
                                  },
                                  "end": {
                                    "line": 13,
                                    "column": 33
                                  }
                                },
                                "name": {
                                  "type": "JSXIdentifier",
                                  "start": 159,
                                  "end": 162,
                                  "loc": {
                                    "start": {
                                      "line": 13,
                                      "column": 24
                                    },
                                    "end": {
                                      "line": 13,
                                      "column": 27
                                    }
                                  },
                                  "name": "src"
                                },
                                "value": {
                                  "type": "JSXExpressionContainer",
                                  "start": 163,
                                  "end": 168,
                                  "loc": {
                                    "start": {
                                      "line": 13,
                                      "column": 28
                                    },
                                    "end": {
                                      "line": 13,
                                      "column": 33
                                    }
                                  },
                                  "expression": {
                                    "type": "Identifier",
                                    "start": 164,
                                    "end": 167,
                                    "loc": {
                                      "start": {
                                        "line": 13,
                                        "column": 29
                                      },
                                      "end": {
                                        "line": 13,
                                        "column": 32
                                      }
                                    },
                                    "name": "img"
                                  }
                                }
                              }
                            ],
                            "name": {
                              "type": "JSXIdentifier",
                              "start": 140,
                              "end": 143,
                              "loc": {
                                "start": {
                                  "line": 13,
                                  "column": 5
                                },
                                "end": {
                                  "line": 13,
                                  "column": 8
                                }
                              },
                              "name": "img"
                            },
                            "selfClosing": true
                          },
                          "closingElement": null,
                          "children": []
                        },
                        {
                          "type": "Literal",
                          "start": 170,
                          "end": 174,
                          "loc": {
                            "start": {
                              "line": 13,
                              "column": 35
                            },
                            "end": {
                              "line": 14,
                              "column": 3
                            }
                          },
                          "value": "\n\t\t\t",
                          "rawValue": null,
                          "raw": "\n\t\t\t"
                        }
                      ],
                      "parenthesizedExpression": true
                    }
                  }
                ]
              }
            }
          }
        ]
      },
      "name": "_",
      "leadingComments": [],
      "trailingComments": []
    },
    {
      "type": "Identifier",
      "start": 193,
      "end": 222,
      "loc": {
        "start": {
          "line": 21,
          "column": 0
        },
        "end": {
          "line": 21,
          "column": 29
        }
      },
      "declaration": {
        "type": "Identifier",
        "start": 208,
        "end": 221,
        "loc": {
          "start": {
            "line": 21,
            "column": 15
          },
          "end": {
            "line": 21,
            "column": 28
          }
        },
        "name": "IconComponent"
      },
      "name": "_",
      "leadingComments": [],
      "trailingComments": []
    },
    {
      "type": "ExportDefaultDeclaration",
      "start": 193,
      "end": 222,
      "loc": {
        "start": {
          "line": 21,
          "column": 0
        },
        "end": {
          "line": 21,
          "column": 29
        }
      },
      "declaration": {
        "type": "ClassDeclaration",
        "start": 28,
        "end": 191,
        "loc": {
          "start": {
            "line": 3,
            "column": 0
          },
          "end": {
            "line": 19,
            "column": 1
          }
        },
        "id": {
          "type": "Identifier",
          "start": 34,
          "end": 47,
          "loc": {
            "start": {
              "line": 3,
              "column": 6
            },
            "end": {
              "line": 3,
              "column": 19
            }
          },
          "name": "IconComponent"
        },
        "superClass": {
          "type": "MemberExpression",
          "start": 56,
          "end": 71,
          "loc": {
            "start": {
              "line": 3,
              "column": 28
            },
            "end": {
              "line": 3,
              "column": 43
            }
          },
          "object": {
            "type": "Identifier",
            "start": 56,
            "end": 61,
            "loc": {
              "start": {
                "line": 3,
                "column": 28
              },
              "end": {
                "line": 3,
                "column": 33
              }
            },
            "name": "React"
          },
          "property": {
            "type": "Identifier",
            "start": 62,
            "end": 71,
            "loc": {
              "start": {
                "line": 3,
                "column": 34
              },
              "end": {
                "line": 3,
                "column": 43
              }
            },
            "name": "Component"
          },
          "computed": false
        },
        "body": {
          "type": "ClassBody",
          "start": 71,
          "end": 191,
          "loc": {
            "start": {
              "line": 3,
              "column": 43
            },
            "end": {
              "line": 19,
              "column": 1
            }
          },
          "body": [
            {
              "type": "MethodDefinition",
              "start": 76,
              "end": 188,
              "loc": {
                "start": {
                  "line": 7,
                  "column": 0
                },
                "end": {
                  "line": 17,
                  "column": 1
                }
              },
              "computed": false,
              "key": {
                "type": "Identifier",
                "start": 76,
                "end": 82,
                "loc": {
                  "start": {
                    "line": 7,
                    "column": 0
                  },
                  "end": {
                    "line": 7,
                    "column": 6
                  }
                },
                "name": "render"
              },
              "static": false,
              "kind": "method",
              "value": {
                "type": "FunctionExpression",
                "start": 82,
                "end": 188,
                "loc": {
                  "start": {
                    "line": 7,
                    "column": 6
                  },
                  "end": {
                    "line": 17,
                    "column": 1
                  }
                },
                "id": null,
                "generator": false,
                "expression": false,
                "async": false,
                "params": [],
                "body": {
                  "type": "BlockStatement",
                  "start": 84,
                  "end": 188,
                  "loc": {
                    "start": {
                      "line": 7,
                      "column": 8
                    },
                    "end": {
                      "line": 17,
                      "column": 1
                    }
                  },
                  "body": [
                    {
                      "type": "VariableDeclaration",
                      "start": 88,
                      "end": 115,
                      "loc": {
                        "start": {
                          "line": 9,
                          "column": 1
                        },
                        "end": {
                          "line": 9,
                          "column": 28
                        }
                      },
                      "declarations": [
                        {
                          "type": "VariableDeclarator",
                          "start": 94,
                          "end": 114,
                          "loc": {
                            "start": {
                              "line": 9,
                              "column": 7
                            },
                            "end": {
                              "line": 9,
                              "column": 27
                            }
                          },
                          "id": {
                            "type": "Identifier",
                            "start": 94,
                            "end": 97,
                            "loc": {
                              "start": {
                                "line": 9,
                                "column": 7
                              },
                              "end": {
                                "line": 9,
                                "column": 10
                              }
                            },
                            "name": "img"
                          },
                          "init": {
                            "type": "MemberExpression",
                            "start": 100,
                            "end": 114,
                            "loc": {
                              "start": {
                                "line": 9,
                                "column": 13
                              },
                              "end": {
                                "line": 9,
                                "column": 27
                              }
                            },
                            "object": {
                              "type": "MemberExpression",
                              "start": 100,
                              "end": 110,
                              "loc": {
                                "start": {
                                  "line": 9,
                                  "column": 13
                                },
                                "end": {
                                  "line": 9,
                                  "column": 23
                                }
                              },
                              "object": {
                                "type": "ThisExpression",
                                "start": 100,
                                "end": 104,
                                "loc": {
                                  "start": {
                                    "line": 9,
                                    "column": 13
                                  },
                                  "end": {
                                    "line": 9,
                                    "column": 17
                                  }
                                }
                              },
                              "property": {
                                "type": "Identifier",
                                "start": 105,
                                "end": 110,
                                "loc": {
                                  "start": {
                                    "line": 9,
                                    "column": 18
                                  },
                                  "end": {
                                    "line": 9,
                                    "column": 23
                                  }
                                },
                                "name": "props"
                              },
                              "computed": false
                            },
                            "property": {
                              "type": "Identifier",
                              "start": 111,
                              "end": 114,
                              "loc": {
                                "start": {
                                  "line": 9,
                                  "column": 24
                                },
                                "end": {
                                  "line": 9,
                                  "column": 27
                                }
                              },
                              "name": "src"
                            },
                            "computed": false
                          }
                        }
                      ],
                      "kind": "const"
                    },
                    {
                      "type": "ReturnStatement",
                      "start": 118,
                      "end": 186,
                      "loc": {
                        "start": {
                          "line": 11,
                          "column": 1
                        },
                        "end": {
                          "line": 16,
                          "column": 4
                        }
                      },
                      "argument": {
                        "type": "JSXElement",
                        "start": 129,
                        "end": 180,
                        "loc": {
                          "start": {
                            "line": 12,
                            "column": 3
                          },
                          "end": {
                            "line": 14,
                            "column": 9
                          }
                        },
                        "openingElement": {
                          "type": "JSXOpeningElement",
                          "start": 129,
                          "end": 134,
                          "loc": {
                            "start": {
                              "line": 12,
                              "column": 3
                            },
                            "end": {
                              "line": 12,
                              "column": 8
                            }
                          },
                          "attributes": [],
                          "name": {
                            "type": "JSXIdentifier",
                            "start": 130,
                            "end": 133,
                            "loc": {
                              "start": {
                                "line": 12,
                                "column": 4
                              },
                              "end": {
                                "line": 12,
                                "column": 7
                              }
                            },
                            "name": "div"
                          },
                          "selfClosing": false
                        },
                        "closingElement": {
                          "type": "JSXClosingElement",
                          "start": 174,
                          "end": 180,
                          "loc": {
                            "start": {
                              "line": 14,
                              "column": 3
                            },
                            "end": {
                              "line": 14,
                              "column": 9
                            }
                          },
                          "name": {
                            "type": "JSXIdentifier",
                            "start": 176,
                            "end": 179,
                            "loc": {
                              "start": {
                                "line": 14,
                                "column": 5
                              },
                              "end": {
                                "line": 14,
                                "column": 8
                              }
                            },
                            "name": "div"
                          }
                        },
                        "children": [
                          {
                            "type": "Literal",
                            "start": 134,
                            "end": 139,
                            "loc": {
                              "start": {
                                "line": 12,
                                "column": 8
                              },
                              "end": {
                                "line": 13,
                                "column": 4
                              }
                            },
                            "value": "\n\t\t\t\t",
                            "rawValue": null,
                            "raw": "\n\t\t\t\t"
                          },
                          {
                            "type": "JSXElement",
                            "start": 139,
                            "end": 170,
                            "loc": {
                              "start": {
                                "line": 13,
                                "column": 4
                              },
                              "end": {
                                "line": 13,
                                "column": 35
                              }
                            },
                            "openingElement": {
                              "type": "JSXOpeningElement",
                              "start": 139,
                              "end": 170,
                              "loc": {
                                "start": {
                                  "line": 13,
                                  "column": 4
                                },
                                "end": {
                                  "line": 13,
                                  "column": 35
                                }
                              },
                              "attributes": [
                                {
                                  "type": "JSXAttribute",
                                  "start": 144,
                                  "end": 158,
                                  "loc": {
                                    "start": {
                                      "line": 13,
                                      "column": 9
                                    },
                                    "end": {
                                      "line": 13,
                                      "column": 23
                                    }
                                  },
                                  "name": {
                                    "type": "JSXIdentifier",
                                    "start": 144,
                                    "end": 147,
                                    "loc": {
                                      "start": {
                                        "line": 13,
                                        "column": 9
                                      },
                                      "end": {
                                        "line": 13,
                                        "column": 12
                                      }
                                    },
                                    "name": "alt"
                                  },
                                  "value": {
                                    "type": "Literal",
                                    "start": 148,
                                    "end": 158,
                                    "loc": {
                                      "start": {
                                        "line": 13,
                                        "column": 13
                                      },
                                      "end": {
                                        "line": 13,
                                        "column": 23
                                      }
                                    },
                                    "value": "alt text",
                                    "rawValue": null,
                                    "raw": "\"alt text\""
                                  }
                                },
                                {
                                  "type": "JSXAttribute",
                                  "start": 159,
                                  "end": 168,
                                  "loc": {
                                    "start": {
                                      "line": 13,
                                      "column": 24
                                    },
                                    "end": {
                                      "line": 13,
                                      "column": 33
                                    }
                                  },
                                  "name": {
                                    "type": "JSXIdentifier",
                                    "start": 159,
                                    "end": 162,
                                    "loc": {
                                      "start": {
                                        "line": 13,
                                        "column": 24
                                      },
                                      "end": {
                                        "line": 13,
                                        "column": 27
                                      }
                                    },
                                    "name": "src"
                                  },
                                  "value": {
                                    "type": "JSXExpressionContainer",
                                    "start": 163,
                                    "end": 168,
                                    "loc": {
                                      "start": {
                                        "line": 13,
                                        "column": 28
                                      },
                                      "end": {
                                        "line": 13,
                                        "column": 33
                                      }
                                    },
                                    "expression": {
                                      "type": "Identifier",
                                      "start": 164,
                                      "end": 167,
                                      "loc": {
                                        "start": {
                                          "line": 13,
                                          "column": 29
                                        },
                                        "end": {
                                          "line": 13,
                                          "column": 32
                                        }
                                      },
                                      "name": "img"
                                    }
                                  }
                                }
                              ],
                              "name": {
                                "type": "JSXIdentifier",
                                "start": 140,
                                "end": 143,
                                "loc": {
                                  "start": {
                                    "line": 13,
                                    "column": 5
                                  },
                                  "end": {
                                    "line": 13,
                                    "column": 8
                                  }
                                },
                                "name": "img"
                              },
                              "selfClosing": true
                            },
                            "closingElement": null,
                            "children": []
                          },
                          {
                            "type": "Literal",
                            "start": 170,
                            "end": 174,
                            "loc": {
                              "start": {
                                "line": 13,
                                "column": 35
                              },
                              "end": {
                                "line": 14,
                                "column": 3
                              }
                            },
                            "value": "\n\t\t\t",
                            "rawValue": null,
                            "raw": "\n\t\t\t"
                          }
                        ],
                        "parenthesizedExpression": true
                      }
                    }
                  ]
                }
              }
            }
          ]
        },
        "__esdoc__pseudo_export": false,
        "leadingComments": [],
        "trailingComments": []
      },
      "leadingComments": null
    }
  ]
}