{
  "type": "Program",
  "start": 0,
  "end": 318,
  "loc": {
    "start": {
      "line": 1,
      "column": 0
    },
    "end": {
      "line": 19,
      "column": 28
    }
  },
  "sourceType": "module",
  "body": [
    {
      "type": "ImportDeclaration",
      "start": 0,
      "end": 26,
      "loc": {
        "start": {
          "line": 1,
          "column": 0
        },
        "end": {
          "line": 1,
          "column": 26
        }
      },
      "specifiers": [
        {
          "type": "ImportDefaultSpecifier",
          "start": 7,
          "end": 12,
          "loc": {
            "start": {
              "line": 1,
              "column": 7
            },
            "end": {
              "line": 1,
              "column": 12
            }
          },
          "local": {
            "type": "Identifier",
            "start": 7,
            "end": 12,
            "loc": {
              "start": {
                "line": 1,
                "column": 7
              },
              "end": {
                "line": 1,
                "column": 12
              }
            },
            "name": "React"
          }
        }
      ],
      "importKind": "value",
      "source": {
        "type": "Literal",
        "start": 18,
        "end": 25,
        "loc": {
          "start": {
            "line": 1,
            "column": 18
          },
          "end": {
            "line": 1,
            "column": 25
          }
        },
        "value": "react",
        "rawValue": "react",
        "raw": "'react'"
      }
    },
    {
      "type": "Identifier",
      "start": 28,
      "end": 288,
      "loc": {
        "start": {
          "line": 3,
          "column": 0
        },
        "end": {
          "line": 17,
          "column": 1
        }
      },
      "id": {
        "type": "Identifier",
        "start": 34,
        "end": 46,
        "loc": {
          "start": {
            "line": 3,
            "column": 6
          },
          "end": {
            "line": 3,
            "column": 18
          }
        },
        "name": "RenderColumn"
      },
      "superClass": {
        "type": "MemberExpression",
        "start": 55,
        "end": 70,
        "loc": {
          "start": {
            "line": 3,
            "column": 27
          },
          "end": {
            "line": 3,
            "column": 42
          }
        },
        "object": {
          "type": "Identifier",
          "start": 55,
          "end": 60,
          "loc": {
            "start": {
              "line": 3,
              "column": 27
            },
            "end": {
              "line": 3,
              "column": 32
            }
          },
          "name": "React"
        },
        "property": {
          "type": "Identifier",
          "start": 61,
          "end": 70,
          "loc": {
            "start": {
              "line": 3,
              "column": 33
            },
            "end": {
              "line": 3,
              "column": 42
            }
          },
          "name": "Component"
        },
        "computed": false
      },
      "body": {
        "type": "ClassBody",
        "start": 70,
        "end": 288,
        "loc": {
          "start": {
            "line": 3,
            "column": 42
          },
          "end": {
            "line": 17,
            "column": 1
          }
        },
        "body": [
          {
            "type": "MethodDefinition",
            "start": 73,
            "end": 286,
            "loc": {
              "start": {
                "line": 5,
                "column": 0
              },
              "end": {
                "line": 16,
                "column": 1
              }
            },
            "computed": false,
            "key": {
              "type": "Identifier",
              "start": 73,
              "end": 79,
              "loc": {
                "start": {
                  "line": 5,
                  "column": 0
                },
                "end": {
                  "line": 5,
                  "column": 6
                }
              },
              "name": "render"
            },
            "static": false,
            "kind": "method",
            "value": {
              "type": "FunctionExpression",
              "start": 79,
              "end": 286,
              "loc": {
                "start": {
                  "line": 5,
                  "column": 6
                },
                "end": {
                  "line": 16,
                  "column": 1
                }
              },
              "id": null,
              "generator": false,
              "expression": false,
              "async": false,
              "params": [],
              "body": {
                "type": "BlockStatement",
                "start": 81,
                "end": 286,
                "loc": {
                  "start": {
                    "line": 5,
                    "column": 8
                  },
                  "end": {
                    "line": 16,
                    "column": 1
                  }
                },
                "body": [
                  {
                    "type": "VariableDeclaration",
                    "start": 86,
                    "end": 224,
                    "loc": {
                      "start": {
                        "line": 7,
                        "column": 1
                      },
                      "end": {
                        "line": 9,
                        "column": 4
                      }
                    },
                    "declarations": [
                      {
                        "type": "VariableDeclarator",
                        "start": 92,
                        "end": 223,
                        "loc": {
                          "start": {
                            "line": 7,
                            "column": 7
                          },
                          "end": {
                            "line": 9,
                            "column": 3
                          }
                        },
                        "id": {
                          "type": "Identifier",
                          "start": 92,
                          "end": 98,
                          "loc": {
                            "start": {
                              "line": 7,
                              "column": 7
                            },
                            "end": {
                              "line": 7,
                              "column": 13
                            }
                          },
                          "name": "column"
                        },
                        "init": {
                          "type": "CallExpression",
                          "start": 101,
                          "end": 223,
                          "loc": {
                            "start": {
                              "line": 7,
                              "column": 16
                            },
                            "end": {
                              "line": 9,
                              "column": 3
                            }
                          },
                          "callee": {
                            "type": "MemberExpression",
                            "start": 101,
                            "end": 120,
                            "loc": {
                              "start": {
                                "line": 7,
                                "column": 16
                              },
                              "end": {
                                "line": 7,
                                "column": 35
                              }
                            },
                            "object": {
                              "type": "MemberExpression",
                              "start": 101,
                              "end": 116,
                              "loc": {
                                "start": {
                                  "line": 7,
                                  "column": 16
                                },
                                "end": {
                                  "line": 7,
                                  "column": 31
                                }
                              },
                              "object": {
                                "type": "MemberExpression",
                                "start": 101,
                                "end": 111,
                                "loc": {
                                  "start": {
                                    "line": 7,
                                    "column": 16
                                  },
                                  "end": {
                                    "line": 7,
                                    "column": 26
                                  }
                                },
                                "object": {
                                  "type": "ThisExpression",
                                  "start": 101,
                                  "end": 105,
                                  "loc": {
                                    "start": {
                                      "line": 7,
                                      "column": 16
                                    },
                                    "end": {
                                      "line": 7,
                                      "column": 20
                                    }
                                  }
                                },
                                "property": {
                                  "type": "Identifier",
                                  "start": 106,
                                  "end": 111,
                                  "loc": {
                                    "start": {
                                      "line": 7,
                                      "column": 21
                                    },
                                    "end": {
                                      "line": 7,
                                      "column": 26
                                    }
                                  },
                                  "name": "props"
                                },
                                "computed": false
                              },
                              "property": {
                                "type": "Identifier",
                                "start": 112,
                                "end": 116,
                                "loc": {
                                  "start": {
                                    "line": 7,
                                    "column": 27
                                  },
                                  "end": {
                                    "line": 7,
                                    "column": 31
                                  }
                                },
                                "name": "cols"
                              },
                              "computed": false
                            },
                            "property": {
                              "type": "Identifier",
                              "start": 117,
                              "end": 120,
                              "loc": {
                                "start": {
                                  "line": 7,
                                  "column": 32
                                },
                                "end": {
                                  "line": 7,
                                  "column": 35
                                }
                              },
                              "name": "map"
                            },
                            "computed": false
                          },
                          "arguments": [
                            {
                              "type": "FunctionExpression",
                              "start": 121,
                              "end": 222,
                              "loc": {
                                "start": {
                                  "line": 7,
                                  "column": 36
                                },
                                "end": {
                                  "line": 9,
                                  "column": 2
                                }
                              },
                              "id": null,
                              "generator": false,
                              "expression": false,
                              "async": false,
                              "params": [
                                {
                                  "type": "Identifier",
                                  "start": 130,
                                  "end": 140,
                                  "loc": {
                                    "start": {
                                      "line": 7,
                                      "column": 45
                                    },
                                    "end": {
                                      "line": 7,
                                      "column": 55
                                    }
                                  },
                                  "name": "currColumn"
                                },
                                {
                                  "type": "Identifier",
                                  "start": 141,
                                  "end": 146,
                                  "loc": {
                                    "start": {
                                      "line": 7,
                                      "column": 56
                                    },
                                    "end": {
                                      "line": 7,
                                      "column": 61
                                    }
                                  },
                                  "name": "index"
                                }
                              ],
                              "body": {
                                "type": "BlockStatement",
                                "start": 147,
                                "end": 222,
                                "loc": {
                                  "start": {
                                    "line": 7,
                                    "column": 62
                                  },
                                  "end": {
                                    "line": 9,
                                    "column": 2
                                  }
                                },
                                "body": [
                                  {
                                    "type": "ReturnStatement",
                                    "start": 151,
                                    "end": 219,
                                    "loc": {
                                      "start": {
                                        "line": 8,
                                        "column": 2
                                      },
                                      "end": {
                                        "line": 8,
                                        "column": 70
                                      }
                                    },
                                    "argument": {
                                      "type": "JSXElement",
                                      "start": 158,
                                      "end": 218,
                                      "loc": {
                                        "start": {
                                          "line": 8,
                                          "column": 9
                                        },
                                        "end": {
                                          "line": 8,
                                          "column": 69
                                        }
                                      },
                                      "openingElement": {
                                        "type": "JSXOpeningElement",
                                        "start": 158,
                                        "end": 193,
                                        "loc": {
                                          "start": {
                                            "line": 8,
                                            "column": 9
                                          },
                                          "end": {
                                            "line": 8,
                                            "column": 44
                                          }
                                        },
                                        "attributes": [
                                          {
                                            "type": "JSXAttribute",
                                            "start": 163,
                                            "end": 180,
                                            "loc": {
                                              "start": {
                                                "line": 8,
                                                "column": 14
                                              },
                                              "end": {
                                                "line": 8,
                                                "column": 31
                                              }
                                            },
                                            "name": {
                                              "type": "JSXIdentifier",
                                              "start": 163,
                                              "end": 172,
                                              "loc": {
                                                "start": {
                                                  "line": 8,
                                                  "column": 14
                                                },
                                                "end": {
                                                  "line": 8,
                                                  "column": 23
                                                }
                                              },
                                              "name": "className"
                                            },
                                            "value": {
                                              "type": "Literal",
                                              "start": 173,
                                              "end": 180,
                                              "loc": {
                                                "start": {
                                                  "line": 8,
                                                  "column": 24
                                                },
                                                "end": {
                                                  "line": 8,
                                                  "column": 31
                                                }
                                              },
                                              "value": "col-3",
                                              "rawValue": null,
                                              "raw": "'col-3'"
                                            }
                                          },
                                          {
                                            "type": "JSXAttribute",
                                            "start": 181,
                                            "end": 192,
                                            "loc": {
                                              "start": {
                                                "line": 8,
                                                "column": 32
                                              },
                                              "end": {
                                                "line": 8,
                                                "column": 43
                                              }
                                            },
                                            "name": {
                                              "type": "JSXIdentifier",
                                              "start": 181,
                                              "end": 184,
                                              "loc": {
                                                "start": {
                                                  "line": 8,
                                                  "column": 32
                                                },
                                                "end": {
                                                  "line": 8,
                                                  "column": 35
                                                }
                                              },
                                              "name": "key"
                                            },
                                            "value": {
                                              "type": "JSXExpressionContainer",
                                              "start": 185,
                                              "end": 192,
                                              "loc": {
                                                "start": {
                                                  "line": 8,
                                                  "column": 36
                                                },
                                                "end": {
                                                  "line": 8,
                                                  "column": 43
                                                }
                                              },
                                              "expression": {
                                                "type": "Identifier",
                                                "start": 186,
                                                "end": 191,
                                                "loc": {
                                                  "start": {
                                                    "line": 8,
                                                    "column": 37
                                                  },
                                                  "end": {
                                                    "line": 8,
                                                    "column": 42
                                                  }
                                                },
                                                "name": "index"
                                              }
                                            }
                                          }
                                        ],
                                        "name": {
                                          "type": "JSXIdentifier",
                                          "start": 159,
                                          "end": 162,
                                          "loc": {
                                            "start": {
                                              "line": 8,
                                              "column": 10
                                            },
                                            "end": {
                                              "line": 8,
                                              "column": 13
                                            }
                                          },
                                          "name": "div"
                                        },
                                        "selfClosing": false
                                      },
                                      "closingElement": {
                                        "type": "JSXClosingElement",
                                        "start": 212,
                                        "end": 218,
                                        "loc": {
                                          "start": {
                                            "line": 8,
                                            "column": 63
                                          },
                                          "end": {
                                            "line": 8,
                                            "column": 69
                                          }
                                        },
                                        "name": {
                                          "type": "JSXIdentifier",
                                          "start": 214,
                                          "end": 217,
                                          "loc": {
                                            "start": {
                                              "line": 8,
                                              "column": 65
                                            },
                                            "end": {
                                              "line": 8,
                                              "column": 68
                                            }
                                          },
                                          "name": "div"
                                        }
                                      },
                                      "children": [
                                        {
                                          "type": "JSXElement",
                                          "start": 193,
                                          "end": 212,
                                          "loc": {
                                            "start": {
                                              "line": 8,
                                              "column": 44
                                            },
                                            "end": {
                                              "line": 8,
                                              "column": 63
                                            }
                                          },
                                          "openingElement": {
                                            "type": "JSXOpeningElement",
                                            "start": 193,
                                            "end": 196,
                                            "loc": {
                                              "start": {
                                                "line": 8,
                                                "column": 44
                                              },
                                              "end": {
                                                "line": 8,
                                                "column": 47
                                              }
                                            },
                                            "attributes": [],
                                            "name": {
                                              "type": "JSXIdentifier",
                                              "start": 194,
                                              "end": 195,
                                              "loc": {
                                                "start": {
                                                  "line": 8,
                                                  "column": 45
                                                },
                                                "end": {
                                                  "line": 8,
                                                  "column": 46
                                                }
                                              },
                                              "name": "b"
                                            },
                                            "selfClosing": false
                                          },
                                          "closingElement": {
                                            "type": "JSXClosingElement",
                                            "start": 208,
                                            "end": 212,
                                            "loc": {
                                              "start": {
                                                "line": 8,
                                                "column": 59
                                              },
                                              "end": {
                                                "line": 8,
                                                "column": 63
                                              }
                                            },
                                            "name": {
                                              "type": "JSXIdentifier",
                                              "start": 210,
                                              "end": 211,
                                              "loc": {
                                                "start": {
                                                  "line": 8,
                                                  "column": 61
                                                },
                                                "end": {
                                                  "line": 8,
                                                  "column": 62
                                                }
                                              },
                                              "name": "b"
                                            }
                                          },
                                          "children": [
                                            {
                                              "type": "JSXExpressionContainer",
                                              "start": 196,
                                              "end": 208,
                                              "loc": {
                                                "start": {
                                                  "line": 8,
                                                  "column": 47
                                                },
                                                "end": {
                                                  "line": 8,
                                                  "column": 59
                                                }
                                              },
                                              "expression": {
                                                "type": "Identifier",
                                                "start": 197,
                                                "end": 207,
                                                "loc": {
                                                  "start": {
                                                    "line": 8,
                                                    "column": 48
                                                  },
                                                  "end": {
                                                    "line": 8,
                                                    "column": 58
                                                  }
                                                },
                                                "name": "currColumn"
                                              }
                                            }
                                          ]
                                        }
                                      ]
                                    }
                                  }
                                ]
                              }
                            }
                          ]
                        }
                      }
                    ],
                    "kind": "const"
                  },
                  {
                    "type": "ReturnStatement",
                    "start": 228,
                    "end": 284,
                    "loc": {
                      "start": {
                        "line": 11,
                        "column": 1
                      },
                      "end": {
                        "line": 15,
                        "column": 3
                      }
                    },
                    "argument": {
                      "type": "JSXElement",
                      "start": 238,
                      "end": 280,
                      "loc": {
                        "start": {
                          "line": 12,
                          "column": 2
                        },
                        "end": {
                          "line": 14,
                          "column": 8
                        }
                      },
                      "openingElement": {
                        "type": "JSXOpeningElement",
                        "start": 238,
                        "end": 259,
                        "loc": {
                          "start": {
                            "line": 12,
                            "column": 2
                          },
                          "end": {
                            "line": 12,
                            "column": 23
                          }
                        },
                        "attributes": [
                          {
                            "type": "JSXAttribute",
                            "start": 243,
                            "end": 258,
                            "loc": {
                              "start": {
                                "line": 12,
                                "column": 7
                              },
                              "end": {
                                "line": 12,
                                "column": 22
                              }
                            },
                            "name": {
                              "type": "JSXIdentifier",
                              "start": 243,
                              "end": 252,
                              "loc": {
                                "start": {
                                  "line": 12,
                                  "column": 7
                                },
                                "end": {
                                  "line": 12,
                                  "column": 16
                                }
                              },
                              "name": "className"
                            },
                            "value": {
                              "type": "Literal",
                              "start": 253,
                              "end": 258,
                              "loc": {
                                "start": {
                                  "line": 12,
                                  "column": 17
                                },
                                "end": {
                                  "line": 12,
                                  "column": 22
                                }
                              },
                              "value": "row",
                              "rawValue": null,
                              "raw": "'row'"
                            }
                          }
                        ],
                        "name": {
                          "type": "JSXIdentifier",
                          "start": 239,
                          "end": 242,
                          "loc": {
                            "start": {
                              "line": 12,
                              "column": 3
                            },
                            "end": {
                              "line": 12,
                              "column": 6
                            }
                          },
                          "name": "div"
                        },
                        "selfClosing": false
                      },
                      "closingElement": {
                        "type": "JSXClosingElement",
                        "start": 274,
                        "end": 280,
                        "loc": {
                          "start": {
                            "line": 14,
                            "column": 2
                          },
                          "end": {
                            "line": 14,
                            "column": 8
                          }
                        },
                        "name": {
                          "type": "JSXIdentifier",
                          "start": 276,
                          "end": 279,
                          "loc": {
                            "start": {
                              "line": 14,
                              "column": 4
                            },
                            "end": {
                              "line": 14,
                              "column": 7
                            }
                          },
                          "name": "div"
                        }
                      },
                      "children": [
                        {
                          "type": "Literal",
                          "start": 259,
                          "end": 263,
                          "loc": {
                            "start": {
                              "line": 12,
                              "column": 23
                            },
                            "end": {
                              "line": 13,
                              "column": 3
                            }
                          },
                          "value": "\n\t\t\t",
                          "rawValue": null,
                          "raw": "\n\t\t\t"
                        },
                        {
                          "type": "JSXExpressionContainer",
                          "start": 263,
                          "end": 271,
                          "loc": {
                            "start": {
                              "line": 13,
                              "column": 3
                            },
                            "end": {
                              "line": 13,
                              "column": 11
                            }
                          },
                          "expression": {
                            "type": "Identifier",
                            "start": 264,
                            "end": 270,
                            "loc": {
                              "start": {
                                "line": 13,
                                "column": 4
                              },
                              "end": {
                                "line": 13,
                                "column": 10
                              }
                            },
                            "name": "column"
                          }
                        },
                        {
                          "type": "Literal",
                          "start": 271,
                          "end": 274,
                          "loc": {
                            "start": {
                              "line": 13,
                              "column": 11
                            },
                            "end": {
                              "line": 14,
                              "column": 2
                            }
                          },
                          "value": "\n\t\t",
                          "rawValue": null,
                          "raw": "\n\t\t"
                        }
                      ],
                      "parenthesizedExpression": true
                    }
                  }
                ]
              }
            }
          }
        ]
      },
      "name": "_",
      "leadingComments": [],
      "trailingComments": []
    },
    {
      "type": "Identifier",
      "start": 290,
      "end": 318,
      "loc": {
        "start": {
          "line": 19,
          "column": 0
        },
        "end": {
          "line": 19,
          "column": 28
        }
      },
      "declaration": {
        "type": "Identifier",
        "start": 305,
        "end": 317,
        "loc": {
          "start": {
            "line": 19,
            "column": 15
          },
          "end": {
            "line": 19,
            "column": 27
          }
        },
        "name": "RenderColumn"
      },
      "name": "_",
      "leadingComments": [],
      "trailingComments": []
    },
    {
      "type": "ExportDefaultDeclaration",
      "start": 290,
      "end": 318,
      "loc": {
        "start": {
          "line": 19,
          "column": 0
        },
        "end": {
          "line": 19,
          "column": 28
        }
      },
      "declaration": {
        "type": "ClassDeclaration",
        "start": 28,
        "end": 288,
        "loc": {
          "start": {
            "line": 3,
            "column": 0
          },
          "end": {
            "line": 17,
            "column": 1
          }
        },
        "id": {
          "type": "Identifier",
          "start": 34,
          "end": 46,
          "loc": {
            "start": {
              "line": 3,
              "column": 6
            },
            "end": {
              "line": 3,
              "column": 18
            }
          },
          "name": "RenderColumn"
        },
        "superClass": {
          "type": "MemberExpression",
          "start": 55,
          "end": 70,
          "loc": {
            "start": {
              "line": 3,
              "column": 27
            },
            "end": {
              "line": 3,
              "column": 42
            }
          },
          "object": {
            "type": "Identifier",
            "start": 55,
            "end": 60,
            "loc": {
              "start": {
                "line": 3,
                "column": 27
              },
              "end": {
                "line": 3,
                "column": 32
              }
            },
            "name": "React"
          },
          "property": {
            "type": "Identifier",
            "start": 61,
            "end": 70,
            "loc": {
              "start": {
                "line": 3,
                "column": 33
              },
              "end": {
                "line": 3,
                "column": 42
              }
            },
            "name": "Component"
          },
          "computed": false
        },
        "body": {
          "type": "ClassBody",
          "start": 70,
          "end": 288,
          "loc": {
            "start": {
              "line": 3,
              "column": 42
            },
            "end": {
              "line": 17,
              "column": 1
            }
          },
          "body": [
            {
              "type": "MethodDefinition",
              "start": 73,
              "end": 286,
              "loc": {
                "start": {
                  "line": 5,
                  "column": 0
                },
                "end": {
                  "line": 16,
                  "column": 1
                }
              },
              "computed": false,
              "key": {
                "type": "Identifier",
                "start": 73,
                "end": 79,
                "loc": {
                  "start": {
                    "line": 5,
                    "column": 0
                  },
                  "end": {
                    "line": 5,
                    "column": 6
                  }
                },
                "name": "render"
              },
              "static": false,
              "kind": "method",
              "value": {
                "type": "FunctionExpression",
                "start": 79,
                "end": 286,
                "loc": {
                  "start": {
                    "line": 5,
                    "column": 6
                  },
                  "end": {
                    "line": 16,
                    "column": 1
                  }
                },
                "id": null,
                "generator": false,
                "expression": false,
                "async": false,
                "params": [],
                "body": {
                  "type": "BlockStatement",
                  "start": 81,
                  "end": 286,
                  "loc": {
                    "start": {
                      "line": 5,
                      "column": 8
                    },
                    "end": {
                      "line": 16,
                      "column": 1
                    }
                  },
                  "body": [
                    {
                      "type": "VariableDeclaration",
                      "start": 86,
                      "end": 224,
                      "loc": {
                        "start": {
                          "line": 7,
                          "column": 1
                        },
                        "end": {
                          "line": 9,
                          "column": 4
                        }
                      },
                      "declarations": [
                        {
                          "type": "VariableDeclarator",
                          "start": 92,
                          "end": 223,
                          "loc": {
                            "start": {
                              "line": 7,
                              "column": 7
                            },
                            "end": {
                              "line": 9,
                              "column": 3
                            }
                          },
                          "id": {
                            "type": "Identifier",
                            "start": 92,
                            "end": 98,
                            "loc": {
                              "start": {
                                "line": 7,
                                "column": 7
                              },
                              "end": {
                                "line": 7,
                                "column": 13
                              }
                            },
                            "name": "column"
                          },
                          "init": {
                            "type": "CallExpression",
                            "start": 101,
                            "end": 223,
                            "loc": {
                              "start": {
                                "line": 7,
                                "column": 16
                              },
                              "end": {
                                "line": 9,
                                "column": 3
                              }
                            },
                            "callee": {
                              "type": "MemberExpression",
                              "start": 101,
                              "end": 120,
                              "loc": {
                                "start": {
                                  "line": 7,
                                  "column": 16
                                },
                                "end": {
                                  "line": 7,
                                  "column": 35
                                }
                              },
                              "object": {
                                "type": "MemberExpression",
                                "start": 101,
                                "end": 116,
                                "loc": {
                                  "start": {
                                    "line": 7,
                                    "column": 16
                                  },
                                  "end": {
                                    "line": 7,
                                    "column": 31
                                  }
                                },
                                "object": {
                                  "type": "MemberExpression",
                                  "start": 101,
                                  "end": 111,
                                  "loc": {
                                    "start": {
                                      "line": 7,
                                      "column": 16
                                    },
                                    "end": {
                                      "line": 7,
                                      "column": 26
                                    }
                                  },
                                  "object": {
                                    "type": "ThisExpression",
                                    "start": 101,
                                    "end": 105,
                                    "loc": {
                                      "start": {
                                        "line": 7,
                                        "column": 16
                                      },
                                      "end": {
                                        "line": 7,
                                        "column": 20
                                      }
                                    }
                                  },
                                  "property": {
                                    "type": "Identifier",
                                    "start": 106,
                                    "end": 111,
                                    "loc": {
                                      "start": {
                                        "line": 7,
                                        "column": 21
                                      },
                                      "end": {
                                        "line": 7,
                                        "column": 26
                                      }
                                    },
                                    "name": "props"
                                  },
                                  "computed": false
                                },
                                "property": {
                                  "type": "Identifier",
                                  "start": 112,
                                  "end": 116,
                                  "loc": {
                                    "start": {
                                      "line": 7,
                                      "column": 27
                                    },
                                    "end": {
                                      "line": 7,
                                      "column": 31
                                    }
                                  },
                                  "name": "cols"
                                },
                                "computed": false
                              },
                              "property": {
                                "type": "Identifier",
                                "start": 117,
                                "end": 120,
                                "loc": {
                                  "start": {
                                    "line": 7,
                                    "column": 32
                                  },
                                  "end": {
                                    "line": 7,
                                    "column": 35
                                  }
                                },
                                "name": "map"
                              },
                              "computed": false
                            },
                            "arguments": [
                              {
                                "type": "FunctionExpression",
                                "start": 121,
                                "end": 222,
                                "loc": {
                                  "start": {
                                    "line": 7,
                                    "column": 36
                                  },
                                  "end": {
                                    "line": 9,
                                    "column": 2
                                  }
                                },
                                "id": null,
                                "generator": false,
                                "expression": false,
                                "async": false,
                                "params": [
                                  {
                                    "type": "Identifier",
                                    "start": 130,
                                    "end": 140,
                                    "loc": {
                                      "start": {
                                        "line": 7,
                                        "column": 45
                                      },
                                      "end": {
                                        "line": 7,
                                        "column": 55
                                      }
                                    },
                                    "name": "currColumn"
                                  },
                                  {
                                    "type": "Identifier",
                                    "start": 141,
                                    "end": 146,
                                    "loc": {
                                      "start": {
                                        "line": 7,
                                        "column": 56
                                      },
                                      "end": {
                                        "line": 7,
                                        "column": 61
                                      }
                                    },
                                    "name": "index"
                                  }
                                ],
                                "body": {
                                  "type": "BlockStatement",
                                  "start": 147,
                                  "end": 222,
                                  "loc": {
                                    "start": {
                                      "line": 7,
                                      "column": 62
                                    },
                                    "end": {
                                      "line": 9,
                                      "column": 2
                                    }
                                  },
                                  "body": [
                                    {
                                      "type": "ReturnStatement",
                                      "start": 151,
                                      "end": 219,
                                      "loc": {
                                        "start": {
                                          "line": 8,
                                          "column": 2
                                        },
                                        "end": {
                                          "line": 8,
                                          "column": 70
                                        }
                                      },
                                      "argument": {
                                        "type": "JSXElement",
                                        "start": 158,
                                        "end": 218,
                                        "loc": {
                                          "start": {
                                            "line": 8,
                                            "column": 9
                                          },
                                          "end": {
                                            "line": 8,
                                            "column": 69
                                          }
                                        },
                                        "openingElement": {
                                          "type": "JSXOpeningElement",
                                          "start": 158,
                                          "end": 193,
                                          "loc": {
                                            "start": {
                                              "line": 8,
                                              "column": 9
                                            },
                                            "end": {
                                              "line": 8,
                                              "column": 44
                                            }
                                          },
                                          "attributes": [
                                            {
                                              "type": "JSXAttribute",
                                              "start": 163,
                                              "end": 180,
                                              "loc": {
                                                "start": {
                                                  "line": 8,
                                                  "column": 14
                                                },
                                                "end": {
                                                  "line": 8,
                                                  "column": 31
                                                }
                                              },
                                              "name": {
                                                "type": "JSXIdentifier",
                                                "start": 163,
                                                "end": 172,
                                                "loc": {
                                                  "start": {
                                                    "line": 8,
                                                    "column": 14
                                                  },
                                                  "end": {
                                                    "line": 8,
                                                    "column": 23
                                                  }
                                                },
                                                "name": "className"
                                              },
                                              "value": {
                                                "type": "Literal",
                                                "start": 173,
                                                "end": 180,
                                                "loc": {
                                                  "start": {
                                                    "line": 8,
                                                    "column": 24
                                                  },
                                                  "end": {
                                                    "line": 8,
                                                    "column": 31
                                                  }
                                                },
                                                "value": "col-3",
                                                "rawValue": null,
                                                "raw": "'col-3'"
                                              }
                                            },
                                            {
                                              "type": "JSXAttribute",
                                              "start": 181,
                                              "end": 192,
                                              "loc": {
                                                "start": {
                                                  "line": 8,
                                                  "column": 32
                                                },
                                                "end": {
                                                  "line": 8,
                                                  "column": 43
                                                }
                                              },
                                              "name": {
                                                "type": "JSXIdentifier",
                                                "start": 181,
                                                "end": 184,
                                                "loc": {
                                                  "start": {
                                                    "line": 8,
                                                    "column": 32
                                                  },
                                                  "end": {
                                                    "line": 8,
                                                    "column": 35
                                                  }
                                                },
                                                "name": "key"
                                              },
                                              "value": {
                                                "type": "JSXExpressionContainer",
                                                "start": 185,
                                                "end": 192,
                                                "loc": {
                                                  "start": {
                                                    "line": 8,
                                                    "column": 36
                                                  },
                                                  "end": {
                                                    "line": 8,
                                                    "column": 43
                                                  }
                                                },
                                                "expression": {
                                                  "type": "Identifier",
                                                  "start": 186,
                                                  "end": 191,
                                                  "loc": {
                                                    "start": {
                                                      "line": 8,
                                                      "column": 37
                                                    },
                                                    "end": {
                                                      "line": 8,
                                                      "column": 42
                                                    }
                                                  },
                                                  "name": "index"
                                                }
                                              }
                                            }
                                          ],
                                          "name": {
                                            "type": "JSXIdentifier",
                                            "start": 159,
                                            "end": 162,
                                            "loc": {
                                              "start": {
                                                "line": 8,
                                                "column": 10
                                              },
                                              "end": {
                                                "line": 8,
                                                "column": 13
                                              }
                                            },
                                            "name": "div"
                                          },
                                          "selfClosing": false
                                        },
                                        "closingElement": {
                                          "type": "JSXClosingElement",
                                          "start": 212,
                                          "end": 218,
                                          "loc": {
                                            "start": {
                                              "line": 8,
                                              "column": 63
                                            },
                                            "end": {
                                              "line": 8,
                                              "column": 69
                                            }
                                          },
                                          "name": {
                                            "type": "JSXIdentifier",
                                            "start": 214,
                                            "end": 217,
                                            "loc": {
                                              "start": {
                                                "line": 8,
                                                "column": 65
                                              },
                                              "end": {
                                                "line": 8,
                                                "column": 68
                                              }
                                            },
                                            "name": "div"
                                          }
                                        },
                                        "children": [
                                          {
                                            "type": "JSXElement",
                                            "start": 193,
                                            "end": 212,
                                            "loc": {
                                              "start": {
                                                "line": 8,
                                                "column": 44
                                              },
                                              "end": {
                                                "line": 8,
                                                "column": 63
                                              }
                                            },
                                            "openingElement": {
                                              "type": "JSXOpeningElement",
                                              "start": 193,
                                              "end": 196,
                                              "loc": {
                                                "start": {
                                                  "line": 8,
                                                  "column": 44
                                                },
                                                "end": {
                                                  "line": 8,
                                                  "column": 47
                                                }
                                              },
                                              "attributes": [],
                                              "name": {
                                                "type": "JSXIdentifier",
                                                "start": 194,
                                                "end": 195,
                                                "loc": {
                                                  "start": {
                                                    "line": 8,
                                                    "column": 45
                                                  },
                                                  "end": {
                                                    "line": 8,
                                                    "column": 46
                                                  }
                                                },
                                                "name": "b"
                                              },
                                              "selfClosing": false
                                            },
                                            "closingElement": {
                                              "type": "JSXClosingElement",
                                              "start": 208,
                                              "end": 212,
                                              "loc": {
                                                "start": {
                                                  "line": 8,
                                                  "column": 59
                                                },
                                                "end": {
                                                  "line": 8,
                                                  "column": 63
                                                }
                                              },
                                              "name": {
                                                "type": "JSXIdentifier",
                                                "start": 210,
                                                "end": 211,
                                                "loc": {
                                                  "start": {
                                                    "line": 8,
                                                    "column": 61
                                                  },
                                                  "end": {
                                                    "line": 8,
                                                    "column": 62
                                                  }
                                                },
                                                "name": "b"
                                              }
                                            },
                                            "children": [
                                              {
                                                "type": "JSXExpressionContainer",
                                                "start": 196,
                                                "end": 208,
                                                "loc": {
                                                  "start": {
                                                    "line": 8,
                                                    "column": 47
                                                  },
                                                  "end": {
                                                    "line": 8,
                                                    "column": 59
                                                  }
                                                },
                                                "expression": {
                                                  "type": "Identifier",
                                                  "start": 197,
                                                  "end": 207,
                                                  "loc": {
                                                    "start": {
                                                      "line": 8,
                                                      "column": 48
                                                    },
                                                    "end": {
                                                      "line": 8,
                                                      "column": 58
                                                    }
                                                  },
                                                  "name": "currColumn"
                                                }
                                              }
                                            ]
                                          }
                                        ]
                                      }
                                    }
                                  ]
                                }
                              }
                            ]
                          }
                        }
                      ],
                      "kind": "const"
                    },
                    {
                      "type": "ReturnStatement",
                      "start": 228,
                      "end": 284,
                      "loc": {
                        "start": {
                          "line": 11,
                          "column": 1
                        },
                        "end": {
                          "line": 15,
                          "column": 3
                        }
                      },
                      "argument": {
                        "type": "JSXElement",
                        "start": 238,
                        "end": 280,
                        "loc": {
                          "start": {
                            "line": 12,
                            "column": 2
                          },
                          "end": {
                            "line": 14,
                            "column": 8
                          }
                        },
                        "openingElement": {
                          "type": "JSXOpeningElement",
                          "start": 238,
                          "end": 259,
                          "loc": {
                            "start": {
                              "line": 12,
                              "column": 2
                            },
                            "end": {
                              "line": 12,
                              "column": 23
                            }
                          },
                          "attributes": [
                            {
                              "type": "JSXAttribute",
                              "start": 243,
                              "end": 258,
                              "loc": {
                                "start": {
                                  "line": 12,
                                  "column": 7
                                },
                                "end": {
                                  "line": 12,
                                  "column": 22
                                }
                              },
                              "name": {
                                "type": "JSXIdentifier",
                                "start": 243,
                                "end": 252,
                                "loc": {
                                  "start": {
                                    "line": 12,
                                    "column": 7
                                  },
                                  "end": {
                                    "line": 12,
                                    "column": 16
                                  }
                                },
                                "name": "className"
                              },
                              "value": {
                                "type": "Literal",
                                "start": 253,
                                "end": 258,
                                "loc": {
                                  "start": {
                                    "line": 12,
                                    "column": 17
                                  },
                                  "end": {
                                    "line": 12,
                                    "column": 22
                                  }
                                },
                                "value": "row",
                                "rawValue": null,
                                "raw": "'row'"
                              }
                            }
                          ],
                          "name": {
                            "type": "JSXIdentifier",
                            "start": 239,
                            "end": 242,
                            "loc": {
                              "start": {
                                "line": 12,
                                "column": 3
                              },
                              "end": {
                                "line": 12,
                                "column": 6
                              }
                            },
                            "name": "div"
                          },
                          "selfClosing": false
                        },
                        "closingElement": {
                          "type": "JSXClosingElement",
                          "start": 274,
                          "end": 280,
                          "loc": {
                            "start": {
                              "line": 14,
                              "column": 2
                            },
                            "end": {
                              "line": 14,
                              "column": 8
                            }
                          },
                          "name": {
                            "type": "JSXIdentifier",
                            "start": 276,
                            "end": 279,
                            "loc": {
                              "start": {
                                "line": 14,
                                "column": 4
                              },
                              "end": {
                                "line": 14,
                                "column": 7
                              }
                            },
                            "name": "div"
                          }
                        },
                        "children": [
                          {
                            "type": "Literal",
                            "start": 259,
                            "end": 263,
                            "loc": {
                              "start": {
                                "line": 12,
                                "column": 23
                              },
                              "end": {
                                "line": 13,
                                "column": 3
                              }
                            },
                            "value": "\n\t\t\t",
                            "rawValue": null,
                            "raw": "\n\t\t\t"
                          },
                          {
                            "type": "JSXExpressionContainer",
                            "start": 263,
                            "end": 271,
                            "loc": {
                              "start": {
                                "line": 13,
                                "column": 3
                              },
                              "end": {
                                "line": 13,
                                "column": 11
                              }
                            },
                            "expression": {
                              "type": "Identifier",
                              "start": 264,
                              "end": 270,
                              "loc": {
                                "start": {
                                  "line": 13,
                                  "column": 4
                                },
                                "end": {
                                  "line": 13,
                                  "column": 10
                                }
                              },
                              "name": "column"
                            }
                          },
                          {
                            "type": "Literal",
                            "start": 271,
                            "end": 274,
                            "loc": {
                              "start": {
                                "line": 13,
                                "column": 11
                              },
                              "end": {
                                "line": 14,
                                "column": 2
                              }
                            },
                            "value": "\n\t\t",
                            "rawValue": null,
                            "raw": "\n\t\t"
                          }
                        ],
                        "parenthesizedExpression": true
                      }
                    }
                  ]
                }
              }
            }
          ]
        },
        "__esdoc__pseudo_export": false,
        "leadingComments": [],
        "trailingComments": []
      },
      "leadingComments": null
    }
  ]
}