{
  "type": "Program",
  "start": 0,
  "end": 349,
  "loc": {
    "start": {
      "line": 1,
      "column": 0
    },
    "end": {
      "line": 17,
      "column": 0
    }
  },
  "sourceType": "module",
  "body": [
    {
      "type": "ImportDeclaration",
      "start": 0,
      "end": 53,
      "loc": {
        "start": {
          "line": 1,
          "column": 0
        },
        "end": {
          "line": 1,
          "column": 53
        }
      },
      "specifiers": [
        {
          "type": "ImportSpecifier",
          "start": 9,
          "end": 20,
          "loc": {
            "start": {
              "line": 1,
              "column": 9
            },
            "end": {
              "line": 1,
              "column": 20
            }
          },
          "imported": {
            "type": "Identifier",
            "start": 9,
            "end": 20,
            "loc": {
              "start": {
                "line": 1,
                "column": 9
              },
              "end": {
                "line": 1,
                "column": 20
              }
            },
            "name": "createStore"
          },
          "local": {
            "type": "Identifier",
            "start": 9,
            "end": 20,
            "loc": {
              "start": {
                "line": 1,
                "column": 9
              },
              "end": {
                "line": 1,
                "column": 20
              }
            },
            "name": "createStore"
          }
        },
        {
          "type": "ImportSpecifier",
          "start": 22,
          "end": 37,
          "loc": {
            "start": {
              "line": 1,
              "column": 22
            },
            "end": {
              "line": 1,
              "column": 37
            }
          },
          "imported": {
            "type": "Identifier",
            "start": 22,
            "end": 37,
            "loc": {
              "start": {
                "line": 1,
                "column": 22
              },
              "end": {
                "line": 1,
                "column": 37
              }
            },
            "name": "applyMiddleware"
          },
          "local": {
            "type": "Identifier",
            "start": 22,
            "end": 37,
            "loc": {
              "start": {
                "line": 1,
                "column": 22
              },
              "end": {
                "line": 1,
                "column": 37
              }
            },
            "name": "applyMiddleware"
          }
        }
      ],
      "importKind": "value",
      "source": {
        "type": "Literal",
        "start": 45,
        "end": 52,
        "loc": {
          "start": {
            "line": 1,
            "column": 45
          },
          "end": {
            "line": 1,
            "column": 52
          }
        },
        "value": "redux",
        "rawValue": "redux",
        "raw": "'redux'"
      }
    },
    {
      "type": "ImportDeclaration",
      "start": 54,
      "end": 87,
      "loc": {
        "start": {
          "line": 2,
          "column": 0
        },
        "end": {
          "line": 2,
          "column": 33
        }
      },
      "specifiers": [
        {
          "type": "ImportDefaultSpecifier",
          "start": 61,
          "end": 67,
          "loc": {
            "start": {
              "line": 2,
              "column": 7
            },
            "end": {
              "line": 2,
              "column": 13
            }
          },
          "local": {
            "type": "Identifier",
            "start": 61,
            "end": 67,
            "loc": {
              "start": {
                "line": 2,
                "column": 7
              },
              "end": {
                "line": 2,
                "column": 13
              }
            },
            "name": "logger"
          }
        }
      ],
      "importKind": "value",
      "source": {
        "type": "Literal",
        "start": 73,
        "end": 87,
        "loc": {
          "start": {
            "line": 2,
            "column": 19
          },
          "end": {
            "line": 2,
            "column": 33
          }
        },
        "value": "redux-logger",
        "rawValue": "redux-logger",
        "raw": "'redux-logger'"
      }
    },
    {
      "type": "ImportDeclaration",
      "start": 88,
      "end": 120,
      "loc": {
        "start": {
          "line": 3,
          "column": 0
        },
        "end": {
          "line": 3,
          "column": 32
        }
      },
      "specifiers": [
        {
          "type": "ImportDefaultSpecifier",
          "start": 95,
          "end": 100,
          "loc": {
            "start": {
              "line": 3,
              "column": 7
            },
            "end": {
              "line": 3,
              "column": 12
            }
          },
          "local": {
            "type": "Identifier",
            "start": 95,
            "end": 100,
            "loc": {
              "start": {
                "line": 3,
                "column": 7
              },
              "end": {
                "line": 3,
                "column": 12
              }
            },
            "name": "thunk"
          }
        }
      ],
      "importKind": "value",
      "source": {
        "type": "Literal",
        "start": 106,
        "end": 119,
        "loc": {
          "start": {
            "line": 3,
            "column": 18
          },
          "end": {
            "line": 3,
            "column": 31
          }
        },
        "value": "redux-thunk",
        "rawValue": "redux-thunk",
        "raw": "'redux-thunk'"
      }
    },
    {
      "type": "ImportDeclaration",
      "start": 121,
      "end": 154,
      "loc": {
        "start": {
          "line": 4,
          "column": 0
        },
        "end": {
          "line": 4,
          "column": 33
        }
      },
      "specifiers": [
        {
          "type": "ImportDefaultSpecifier",
          "start": 128,
          "end": 135,
          "loc": {
            "start": {
              "line": 4,
              "column": 7
            },
            "end": {
              "line": 4,
              "column": 14
            }
          },
          "local": {
            "type": "Identifier",
            "start": 128,
            "end": 135,
            "loc": {
              "start": {
                "line": 4,
                "column": 7
              },
              "end": {
                "line": 4,
                "column": 14
              }
            },
            "name": "reducer"
          }
        }
      ],
      "importKind": "value",
      "source": {
        "type": "Literal",
        "start": 141,
        "end": 154,
        "loc": {
          "start": {
            "line": 4,
            "column": 20
          },
          "end": {
            "line": 4,
            "column": 33
          }
        },
        "value": "../reducers",
        "rawValue": "../reducers",
        "raw": "'../reducers'"
      }
    },
    {
      "type": "VariableDeclaration",
      "start": 157,
      "end": 251,
      "loc": {
        "start": {
          "line": 7,
          "column": 0
        },
        "end": {
          "line": 9,
          "column": 21
        }
      },
      "declarations": [
        {
          "type": "VariableDeclarator",
          "start": 163,
          "end": 251,
          "loc": {
            "start": {
              "line": 7,
              "column": 6
            },
            "end": {
              "line": 9,
              "column": 21
            }
          },
          "id": {
            "type": "Identifier",
            "start": 163,
            "end": 173,
            "loc": {
              "start": {
                "line": 7,
                "column": 6
              },
              "end": {
                "line": 7,
                "column": 16
              }
            },
            "name": "middleware"
          },
          "init": {
            "type": "ConditionalExpression",
            "start": 176,
            "end": 251,
            "loc": {
              "start": {
                "line": 7,
                "column": 19
              },
              "end": {
                "line": 9,
                "column": 21
              }
            },
            "test": {
              "type": "BinaryExpression",
              "start": 176,
              "end": 213,
              "loc": {
                "start": {
                  "line": 7,
                  "column": 19
                },
                "end": {
                  "line": 7,
                  "column": 56
                }
              },
              "left": {
                "type": "MemberExpression",
                "start": 176,
                "end": 196,
                "loc": {
                  "start": {
                    "line": 7,
                    "column": 19
                  },
                  "end": {
                    "line": 7,
                    "column": 39
                  }
                },
                "object": {
                  "type": "MemberExpression",
                  "start": 176,
                  "end": 187,
                  "loc": {
                    "start": {
                      "line": 7,
                      "column": 19
                    },
                    "end": {
                      "line": 7,
                      "column": 30
                    }
                  },
                  "object": {
                    "type": "Identifier",
                    "start": 176,
                    "end": 183,
                    "loc": {
                      "start": {
                        "line": 7,
                        "column": 19
                      },
                      "end": {
                        "line": 7,
                        "column": 26
                      }
                    },
                    "name": "process"
                  },
                  "property": {
                    "type": "Identifier",
                    "start": 184,
                    "end": 187,
                    "loc": {
                      "start": {
                        "line": 7,
                        "column": 27
                      },
                      "end": {
                        "line": 7,
                        "column": 30
                      }
                    },
                    "name": "env"
                  },
                  "computed": false
                },
                "property": {
                  "type": "Identifier",
                  "start": 188,
                  "end": 196,
                  "loc": {
                    "start": {
                      "line": 7,
                      "column": 31
                    },
                    "end": {
                      "line": 7,
                      "column": 39
                    }
                  },
                  "name": "NODE_ENV"
                },
                "computed": false
              },
              "operator": "===",
              "right": {
                "type": "Literal",
                "start": 201,
                "end": 213,
                "loc": {
                  "start": {
                    "line": 7,
                    "column": 44
                  },
                  "end": {
                    "line": 7,
                    "column": 56
                  }
                },
                "value": "production",
                "rawValue": "production",
                "raw": "'production'"
              }
            },
            "consequent": {
              "type": "ArrayExpression",
              "start": 218,
              "end": 227,
              "loc": {
                "start": {
                  "line": 8,
                  "column": 2
                },
                "end": {
                  "line": 8,
                  "column": 11
                }
              },
              "elements": [
                {
                  "type": "Identifier",
                  "start": 220,
                  "end": 225,
                  "loc": {
                    "start": {
                      "line": 8,
                      "column": 4
                    },
                    "end": {
                      "line": 8,
                      "column": 9
                    }
                  },
                  "name": "thunk"
                }
              ]
            },
            "alternate": {
              "type": "ArrayExpression",
              "start": 232,
              "end": 251,
              "loc": {
                "start": {
                  "line": 9,
                  "column": 2
                },
                "end": {
                  "line": 9,
                  "column": 21
                }
              },
              "elements": [
                {
                  "type": "Identifier",
                  "start": 234,
                  "end": 239,
                  "loc": {
                    "start": {
                      "line": 9,
                      "column": 4
                    },
                    "end": {
                      "line": 9,
                      "column": 9
                    }
                  },
                  "name": "thunk"
                },
                {
                  "type": "CallExpression",
                  "start": 241,
                  "end": 249,
                  "loc": {
                    "start": {
                      "line": 9,
                      "column": 11
                    },
                    "end": {
                      "line": 9,
                      "column": 19
                    }
                  },
                  "callee": {
                    "type": "Identifier",
                    "start": 241,
                    "end": 247,
                    "loc": {
                      "start": {
                        "line": 9,
                        "column": 11
                      },
                      "end": {
                        "line": 9,
                        "column": 17
                      }
                    },
                    "name": "logger"
                  },
                  "arguments": []
                }
              ]
            }
          }
        }
      ],
      "kind": "const"
    },
    {
      "type": "Identifier",
      "start": 253,
      "end": 325,
      "loc": {
        "start": {
          "line": 11,
          "column": 0
        },
        "end": {
          "line": 14,
          "column": 1
        }
      },
      "declarations": [
        {
          "type": "VariableDeclarator",
          "start": 259,
          "end": 325,
          "loc": {
            "start": {
              "line": 11,
              "column": 6
            },
            "end": {
              "line": 14,
              "column": 1
            }
          },
          "id": {
            "type": "Identifier",
            "start": 259,
            "end": 264,
            "loc": {
              "start": {
                "line": 11,
                "column": 6
              },
              "end": {
                "line": 11,
                "column": 11
              }
            },
            "name": "store"
          },
          "init": {
            "type": "CallExpression",
            "start": 267,
            "end": 325,
            "loc": {
              "start": {
                "line": 11,
                "column": 14
              },
              "end": {
                "line": 14,
                "column": 1
              }
            },
            "callee": {
              "type": "Identifier",
              "start": 267,
              "end": 278,
              "loc": {
                "start": {
                  "line": 11,
                  "column": 14
                },
                "end": {
                  "line": 11,
                  "column": 25
                }
              },
              "name": "createStore"
            },
            "arguments": [
              {
                "type": "Identifier",
                "start": 282,
                "end": 289,
                "loc": {
                  "start": {
                    "line": 12,
                    "column": 2
                  },
                  "end": {
                    "line": 12,
                    "column": 9
                  }
                },
                "name": "reducer"
              },
              {
                "type": "CallExpression",
                "start": 293,
                "end": 323,
                "loc": {
                  "start": {
                    "line": 13,
                    "column": 2
                  },
                  "end": {
                    "line": 13,
                    "column": 32
                  }
                },
                "callee": {
                  "type": "Identifier",
                  "start": 293,
                  "end": 308,
                  "loc": {
                    "start": {
                      "line": 13,
                      "column": 2
                    },
                    "end": {
                      "line": 13,
                      "column": 17
                    }
                  },
                  "name": "applyMiddleware"
                },
                "arguments": [
                  {
                    "type": "SpreadElement",
                    "start": 309,
                    "end": 322,
                    "loc": {
                      "start": {
                        "line": 13,
                        "column": 18
                      },
                      "end": {
                        "line": 13,
                        "column": 31
                      }
                    },
                    "argument": {
                      "type": "Identifier",
                      "start": 312,
                      "end": 322,
                      "loc": {
                        "start": {
                          "line": 13,
                          "column": 21
                        },
                        "end": {
                          "line": 13,
                          "column": 31
                        }
                      },
                      "name": "middleware"
                    }
                  }
                ]
              }
            ]
          }
        }
      ],
      "kind": "const",
      "name": "_",
      "leadingComments": [],
      "trailingComments": []
    },
    {
      "type": "Identifier",
      "start": 327,
      "end": 348,
      "loc": {
        "start": {
          "line": 16,
          "column": 0
        },
        "end": {
          "line": 16,
          "column": 21
        }
      },
      "declaration": {
        "type": "Identifier",
        "start": 342,
        "end": 347,
        "loc": {
          "start": {
            "line": 16,
            "column": 15
          },
          "end": {
            "line": 16,
            "column": 20
          }
        },
        "name": "store"
      },
      "name": "_",
      "leadingComments": [],
      "trailingComments": []
    },
    {
      "type": "ExportDefaultDeclaration",
      "start": 327,
      "end": 348,
      "loc": {
        "start": {
          "line": 16,
          "column": 0
        },
        "end": {
          "line": 16,
          "column": 21
        }
      },
      "declaration": {
        "type": "VariableDeclaration",
        "start": 253,
        "end": 325,
        "loc": {
          "start": {
            "line": 11,
            "column": 0
          },
          "end": {
            "line": 14,
            "column": 1
          }
        },
        "declarations": [
          {
            "type": "VariableDeclarator",
            "start": 259,
            "end": 325,
            "loc": {
              "start": {
                "line": 11,
                "column": 6
              },
              "end": {
                "line": 14,
                "column": 1
              }
            },
            "id": {
              "type": "Identifier",
              "start": 259,
              "end": 264,
              "loc": {
                "start": {
                  "line": 11,
                  "column": 6
                },
                "end": {
                  "line": 11,
                  "column": 11
                }
              },
              "name": "store"
            },
            "init": {
              "type": "CallExpression",
              "start": 267,
              "end": 325,
              "loc": {
                "start": {
                  "line": 11,
                  "column": 14
                },
                "end": {
                  "line": 14,
                  "column": 1
                }
              },
              "callee": {
                "type": "Identifier",
                "start": 267,
                "end": 278,
                "loc": {
                  "start": {
                    "line": 11,
                    "column": 14
                  },
                  "end": {
                    "line": 11,
                    "column": 25
                  }
                },
                "name": "createStore"
              },
              "arguments": [
                {
                  "type": "Identifier",
                  "start": 282,
                  "end": 289,
                  "loc": {
                    "start": {
                      "line": 12,
                      "column": 2
                    },
                    "end": {
                      "line": 12,
                      "column": 9
                    }
                  },
                  "name": "reducer"
                },
                {
                  "type": "CallExpression",
                  "start": 293,
                  "end": 323,
                  "loc": {
                    "start": {
                      "line": 13,
                      "column": 2
                    },
                    "end": {
                      "line": 13,
                      "column": 32
                    }
                  },
                  "callee": {
                    "type": "Identifier",
                    "start": 293,
                    "end": 308,
                    "loc": {
                      "start": {
                        "line": 13,
                        "column": 2
                      },
                      "end": {
                        "line": 13,
                        "column": 17
                      }
                    },
                    "name": "applyMiddleware"
                  },
                  "arguments": [
                    {
                      "type": "SpreadElement",
                      "start": 309,
                      "end": 322,
                      "loc": {
                        "start": {
                          "line": 13,
                          "column": 18
                        },
                        "end": {
                          "line": 13,
                          "column": 31
                        }
                      },
                      "argument": {
                        "type": "Identifier",
                        "start": 312,
                        "end": 322,
                        "loc": {
                          "start": {
                            "line": 13,
                            "column": 21
                          },
                          "end": {
                            "line": 13,
                            "column": 31
                          }
                        },
                        "name": "middleware"
                      }
                    }
                  ]
                }
              ]
            }
          }
        ],
        "kind": "const",
        "leadingComments": [],
        "trailingComments": []
      }
    }
  ]
}