{
  "type": "Program",
  "start": 0,
  "end": 794,
  "loc": {
    "start": {
      "line": 1,
      "column": 0
    },
    "end": {
      "line": 44,
      "column": 0
    }
  },
  "sourceType": "module",
  "body": [
    {
      "type": "ImportDeclaration",
      "start": 12,
      "end": 38,
      "loc": {
        "start": {
          "line": 5,
          "column": 0
        },
        "end": {
          "line": 5,
          "column": 26
        }
      },
      "specifiers": [
        {
          "type": "ImportDefaultSpecifier",
          "start": 19,
          "end": 24,
          "loc": {
            "start": {
              "line": 5,
              "column": 7
            },
            "end": {
              "line": 5,
              "column": 12
            }
          },
          "local": {
            "type": "Identifier",
            "start": 19,
            "end": 24,
            "loc": {
              "start": {
                "line": 5,
                "column": 7
              },
              "end": {
                "line": 5,
                "column": 12
              }
            },
            "name": "React",
            "leadingComments": null
          },
          "leadingComments": null
        }
      ],
      "importKind": "value",
      "source": {
        "type": "Literal",
        "start": 30,
        "end": 37,
        "loc": {
          "start": {
            "line": 5,
            "column": 18
          },
          "end": {
            "line": 5,
            "column": 25
          }
        },
        "value": "react",
        "rawValue": "react",
        "raw": "'react'"
      },
      "leadingComments": [
        {
          "type": "Block",
          "value": "*\n *\n ",
          "start": 0,
          "end": 10,
          "loc": {
            "start": {
              "line": 1,
              "column": 0
            },
            "end": {
              "line": 3,
              "column": 3
            }
          },
          "range": [
            0,
            10
          ]
        }
      ]
    },
    {
      "type": "ClassDeclaration",
      "start": 40,
      "end": 762,
      "loc": {
        "start": {
          "line": 7,
          "column": 0
        },
        "end": {
          "line": 41,
          "column": 1
        }
      },
      "id": {
        "type": "Identifier",
        "start": 46,
        "end": 56,
        "loc": {
          "start": {
            "line": 7,
            "column": 6
          },
          "end": {
            "line": 7,
            "column": 16
          }
        },
        "name": "ChooseFile"
      },
      "superClass": {
        "type": "MemberExpression",
        "start": 65,
        "end": 80,
        "loc": {
          "start": {
            "line": 7,
            "column": 25
          },
          "end": {
            "line": 7,
            "column": 40
          }
        },
        "object": {
          "type": "Identifier",
          "start": 65,
          "end": 70,
          "loc": {
            "start": {
              "line": 7,
              "column": 25
            },
            "end": {
              "line": 7,
              "column": 30
            }
          },
          "name": "React"
        },
        "property": {
          "type": "Identifier",
          "start": 71,
          "end": 80,
          "loc": {
            "start": {
              "line": 7,
              "column": 31
            },
            "end": {
              "line": 7,
              "column": 40
            }
          },
          "name": "Component"
        },
        "computed": false
      },
      "body": {
        "type": "ClassBody",
        "start": 80,
        "end": 762,
        "loc": {
          "start": {
            "line": 7,
            "column": 40
          },
          "end": {
            "line": 41,
            "column": 1
          }
        },
        "body": [
          {
            "type": "MethodDefinition",
            "start": 83,
            "end": 162,
            "loc": {
              "start": {
                "line": 9,
                "column": 0
              },
              "end": {
                "line": 12,
                "column": 2
              }
            },
            "computed": false,
            "key": {
              "type": "Identifier",
              "start": 83,
              "end": 94,
              "loc": {
                "start": {
                  "line": 9,
                  "column": 0
                },
                "end": {
                  "line": 9,
                  "column": 11
                }
              },
              "name": "constructor"
            },
            "static": false,
            "kind": "constructor",
            "value": {
              "type": "FunctionExpression",
              "start": 94,
              "end": 162,
              "loc": {
                "start": {
                  "line": 9,
                  "column": 11
                },
                "end": {
                  "line": 12,
                  "column": 2
                }
              },
              "id": null,
              "generator": false,
              "expression": false,
              "async": false,
              "params": [
                {
                  "type": "Identifier",
                  "start": 95,
                  "end": 100,
                  "loc": {
                    "start": {
                      "line": 9,
                      "column": 12
                    },
                    "end": {
                      "line": 9,
                      "column": 17
                    }
                  },
                  "name": "props"
                }
              ],
              "body": {
                "type": "BlockStatement",
                "start": 102,
                "end": 162,
                "loc": {
                  "start": {
                    "line": 9,
                    "column": 19
                  },
                  "end": {
                    "line": 12,
                    "column": 2
                  }
                },
                "body": [
                  {
                    "type": "ExpressionStatement",
                    "start": 108,
                    "end": 121,
                    "loc": {
                      "start": {
                        "line": 10,
                        "column": 4
                      },
                      "end": {
                        "line": 10,
                        "column": 17
                      }
                    },
                    "expression": {
                      "type": "CallExpression",
                      "start": 108,
                      "end": 120,
                      "loc": {
                        "start": {
                          "line": 10,
                          "column": 4
                        },
                        "end": {
                          "line": 10,
                          "column": 16
                        }
                      },
                      "callee": {
                        "type": "Super",
                        "start": 108,
                        "end": 113,
                        "loc": {
                          "start": {
                            "line": 10,
                            "column": 4
                          },
                          "end": {
                            "line": 10,
                            "column": 9
                          }
                        }
                      },
                      "arguments": [
                        {
                          "type": "Identifier",
                          "start": 114,
                          "end": 119,
                          "loc": {
                            "start": {
                              "line": 10,
                              "column": 10
                            },
                            "end": {
                              "line": 10,
                              "column": 15
                            }
                          },
                          "name": "props"
                        }
                      ]
                    }
                  },
                  {
                    "type": "ExpressionStatement",
                    "start": 126,
                    "end": 159,
                    "loc": {
                      "start": {
                        "line": 11,
                        "column": 4
                      },
                      "end": {
                        "line": 11,
                        "column": 37
                      }
                    },
                    "expression": {
                      "type": "AssignmentExpression",
                      "start": 126,
                      "end": 158,
                      "loc": {
                        "start": {
                          "line": 11,
                          "column": 4
                        },
                        "end": {
                          "line": 11,
                          "column": 36
                        }
                      },
                      "operator": "=",
                      "left": {
                        "type": "MemberExpression",
                        "start": 126,
                        "end": 142,
                        "loc": {
                          "start": {
                            "line": 11,
                            "column": 4
                          },
                          "end": {
                            "line": 11,
                            "column": 20
                          }
                        },
                        "object": {
                          "type": "ThisExpression",
                          "start": 126,
                          "end": 130,
                          "loc": {
                            "start": {
                              "line": 11,
                              "column": 4
                            },
                            "end": {
                              "line": 11,
                              "column": 8
                            }
                          }
                        },
                        "property": {
                          "type": "Identifier",
                          "start": 131,
                          "end": 142,
                          "loc": {
                            "start": {
                              "line": 11,
                              "column": 9
                            },
                            "end": {
                              "line": 11,
                              "column": 20
                            }
                          },
                          "name": "displayName"
                        },
                        "computed": false
                      },
                      "right": {
                        "type": "Literal",
                        "start": 145,
                        "end": 158,
                        "loc": {
                          "start": {
                            "line": 11,
                            "column": 23
                          },
                          "end": {
                            "line": 11,
                            "column": 36
                          }
                        },
                        "value": "Choose File",
                        "rawValue": "Choose File",
                        "raw": "'Choose File'"
                      }
                    }
                  }
                ]
              }
            }
          },
          {
            "type": "Identifier",
            "start": 164,
            "end": 292,
            "loc": {
              "start": {
                "line": 14,
                "column": 0
              },
              "end": {
                "line": 19,
                "column": 1
              }
            },
            "computed": false,
            "key": {
              "type": "Identifier",
              "start": 171,
              "end": 180,
              "loc": {
                "start": {
                  "line": 14,
                  "column": 7
                },
                "end": {
                  "line": 14,
                  "column": 16
                }
              },
              "name": "propTypes"
            },
            "static": true,
            "value": {
              "type": "ObjectExpression",
              "start": 182,
              "end": 292,
              "loc": {
                "start": {
                  "line": 14,
                  "column": 18
                },
                "end": {
                  "line": 19,
                  "column": 1
                }
              },
              "properties": [
                {
                  "type": "Property",
                  "start": 188,
                  "end": 213,
                  "loc": {
                    "start": {
                      "line": 15,
                      "column": 4
                    },
                    "end": {
                      "line": 15,
                      "column": 29
                    }
                  },
                  "method": false,
                  "shorthand": false,
                  "computed": false,
                  "key": {
                    "type": "Identifier",
                    "start": 188,
                    "end": 190,
                    "loc": {
                      "start": {
                        "line": 15,
                        "column": 4
                      },
                      "end": {
                        "line": 15,
                        "column": 6
                      }
                    },
                    "name": "id"
                  },
                  "value": {
                    "type": "MemberExpression",
                    "start": 191,
                    "end": 213,
                    "loc": {
                      "start": {
                        "line": 15,
                        "column": 7
                      },
                      "end": {
                        "line": 15,
                        "column": 29
                      }
                    },
                    "object": {
                      "type": "MemberExpression",
                      "start": 191,
                      "end": 206,
                      "loc": {
                        "start": {
                          "line": 15,
                          "column": 7
                        },
                        "end": {
                          "line": 15,
                          "column": 22
                        }
                      },
                      "object": {
                        "type": "Identifier",
                        "start": 191,
                        "end": 196,
                        "loc": {
                          "start": {
                            "line": 15,
                            "column": 7
                          },
                          "end": {
                            "line": 15,
                            "column": 12
                          }
                        },
                        "name": "React"
                      },
                      "property": {
                        "type": "Identifier",
                        "start": 197,
                        "end": 206,
                        "loc": {
                          "start": {
                            "line": 15,
                            "column": 13
                          },
                          "end": {
                            "line": 15,
                            "column": 22
                          }
                        },
                        "name": "PropTypes"
                      },
                      "computed": false
                    },
                    "property": {
                      "type": "Identifier",
                      "start": 207,
                      "end": 213,
                      "loc": {
                        "start": {
                          "line": 15,
                          "column": 23
                        },
                        "end": {
                          "line": 15,
                          "column": 29
                        }
                      },
                      "name": "string"
                    },
                    "computed": false
                  },
                  "kind": "init"
                },
                {
                  "type": "Property",
                  "start": 219,
                  "end": 249,
                  "loc": {
                    "start": {
                      "line": 16,
                      "column": 4
                    },
                    "end": {
                      "line": 16,
                      "column": 34
                    }
                  },
                  "method": false,
                  "shorthand": false,
                  "computed": false,
                  "key": {
                    "type": "Identifier",
                    "start": 219,
                    "end": 227,
                    "loc": {
                      "start": {
                        "line": 16,
                        "column": 4
                      },
                      "end": {
                        "line": 16,
                        "column": 12
                      }
                    },
                    "name": "disabled"
                  },
                  "value": {
                    "type": "MemberExpression",
                    "start": 229,
                    "end": 249,
                    "loc": {
                      "start": {
                        "line": 16,
                        "column": 14
                      },
                      "end": {
                        "line": 16,
                        "column": 34
                      }
                    },
                    "object": {
                      "type": "MemberExpression",
                      "start": 229,
                      "end": 244,
                      "loc": {
                        "start": {
                          "line": 16,
                          "column": 14
                        },
                        "end": {
                          "line": 16,
                          "column": 29
                        }
                      },
                      "object": {
                        "type": "Identifier",
                        "start": 229,
                        "end": 234,
                        "loc": {
                          "start": {
                            "line": 16,
                            "column": 14
                          },
                          "end": {
                            "line": 16,
                            "column": 19
                          }
                        },
                        "name": "React"
                      },
                      "property": {
                        "type": "Identifier",
                        "start": 235,
                        "end": 244,
                        "loc": {
                          "start": {
                            "line": 16,
                            "column": 20
                          },
                          "end": {
                            "line": 16,
                            "column": 29
                          }
                        },
                        "name": "PropTypes"
                      },
                      "computed": false
                    },
                    "property": {
                      "type": "Identifier",
                      "start": 245,
                      "end": 249,
                      "loc": {
                        "start": {
                          "line": 16,
                          "column": 30
                        },
                        "end": {
                          "line": 16,
                          "column": 34
                        }
                      },
                      "name": "bool"
                    },
                    "computed": false
                  },
                  "kind": "init"
                },
                {
                  "type": "Property",
                  "start": 255,
                  "end": 285,
                  "loc": {
                    "start": {
                      "line": 17,
                      "column": 4
                    },
                    "end": {
                      "line": 17,
                      "column": 34
                    }
                  },
                  "method": false,
                  "shorthand": false,
                  "computed": false,
                  "key": {
                    "type": "Identifier",
                    "start": 255,
                    "end": 263,
                    "loc": {
                      "start": {
                        "line": 17,
                        "column": 4
                      },
                      "end": {
                        "line": 17,
                        "column": 12
                      }
                    },
                    "name": "required"
                  },
                  "value": {
                    "type": "MemberExpression",
                    "start": 265,
                    "end": 285,
                    "loc": {
                      "start": {
                        "line": 17,
                        "column": 14
                      },
                      "end": {
                        "line": 17,
                        "column": 34
                      }
                    },
                    "object": {
                      "type": "MemberExpression",
                      "start": 265,
                      "end": 280,
                      "loc": {
                        "start": {
                          "line": 17,
                          "column": 14
                        },
                        "end": {
                          "line": 17,
                          "column": 29
                        }
                      },
                      "object": {
                        "type": "Identifier",
                        "start": 265,
                        "end": 270,
                        "loc": {
                          "start": {
                            "line": 17,
                            "column": 14
                          },
                          "end": {
                            "line": 17,
                            "column": 19
                          }
                        },
                        "name": "React"
                      },
                      "property": {
                        "type": "Identifier",
                        "start": 271,
                        "end": 280,
                        "loc": {
                          "start": {
                            "line": 17,
                            "column": 20
                          },
                          "end": {
                            "line": 17,
                            "column": 29
                          }
                        },
                        "name": "PropTypes"
                      },
                      "computed": false
                    },
                    "property": {
                      "type": "Identifier",
                      "start": 281,
                      "end": 285,
                      "loc": {
                        "start": {
                          "line": 17,
                          "column": 30
                        },
                        "end": {
                          "line": 17,
                          "column": 34
                        }
                      },
                      "name": "bool"
                    },
                    "computed": false
                  },
                  "kind": "init"
                }
              ]
            }
          },
          {
            "type": "Identifier",
            "start": 293,
            "end": 373,
            "loc": {
              "start": {
                "line": 20,
                "column": 0
              },
              "end": {
                "line": 24,
                "column": 1
              }
            },
            "computed": false,
            "key": {
              "type": "Identifier",
              "start": 300,
              "end": 312,
              "loc": {
                "start": {
                  "line": 20,
                  "column": 7
                },
                "end": {
                  "line": 20,
                  "column": 19
                }
              },
              "name": "defaultProps"
            },
            "static": true,
            "value": {
              "type": "ObjectExpression",
              "start": 314,
              "end": 373,
              "loc": {
                "start": {
                  "line": 20,
                  "column": 21
                },
                "end": {
                  "line": 24,
                  "column": 1
                }
              },
              "properties": [
                {
                  "type": "Property",
                  "start": 322,
                  "end": 327,
                  "loc": {
                    "start": {
                      "line": 21,
                      "column": 6
                    },
                    "end": {
                      "line": 21,
                      "column": 11
                    }
                  },
                  "method": false,
                  "shorthand": false,
                  "computed": false,
                  "key": {
                    "type": "Identifier",
                    "start": 322,
                    "end": 324,
                    "loc": {
                      "start": {
                        "line": 21,
                        "column": 6
                      },
                      "end": {
                        "line": 21,
                        "column": 8
                      }
                    },
                    "name": "id"
                  },
                  "value": {
                    "type": "Literal",
                    "start": 325,
                    "end": 327,
                    "loc": {
                      "start": {
                        "line": 21,
                        "column": 9
                      },
                      "end": {
                        "line": 21,
                        "column": 11
                      }
                    },
                    "value": "",
                    "rawValue": "",
                    "raw": "''"
                  },
                  "kind": "init"
                },
                {
                  "type": "Property",
                  "start": 335,
                  "end": 349,
                  "loc": {
                    "start": {
                      "line": 22,
                      "column": 6
                    },
                    "end": {
                      "line": 22,
                      "column": 20
                    }
                  },
                  "method": false,
                  "shorthand": false,
                  "computed": false,
                  "key": {
                    "type": "Identifier",
                    "start": 335,
                    "end": 343,
                    "loc": {
                      "start": {
                        "line": 22,
                        "column": 6
                      },
                      "end": {
                        "line": 22,
                        "column": 14
                      }
                    },
                    "name": "disabled"
                  },
                  "value": {
                    "type": "Literal",
                    "start": 344,
                    "end": 349,
                    "loc": {
                      "start": {
                        "line": 22,
                        "column": 15
                      },
                      "end": {
                        "line": 22,
                        "column": 20
                      }
                    },
                    "value": false,
                    "rawValue": false,
                    "raw": "false"
                  },
                  "kind": "init"
                },
                {
                  "type": "Property",
                  "start": 357,
                  "end": 371,
                  "loc": {
                    "start": {
                      "line": 23,
                      "column": 6
                    },
                    "end": {
                      "line": 23,
                      "column": 20
                    }
                  },
                  "method": false,
                  "shorthand": false,
                  "computed": false,
                  "key": {
                    "type": "Identifier",
                    "start": 357,
                    "end": 365,
                    "loc": {
                      "start": {
                        "line": 23,
                        "column": 6
                      },
                      "end": {
                        "line": 23,
                        "column": 14
                      }
                    },
                    "name": "required"
                  },
                  "value": {
                    "type": "Literal",
                    "start": 366,
                    "end": 371,
                    "loc": {
                      "start": {
                        "line": 23,
                        "column": 15
                      },
                      "end": {
                        "line": 23,
                        "column": 20
                      }
                    },
                    "value": false,
                    "rawValue": false,
                    "raw": "false"
                  },
                  "kind": "init"
                }
              ]
            }
          },
          {
            "type": "MethodDefinition",
            "start": 375,
            "end": 759,
            "loc": {
              "start": {
                "line": 26,
                "column": 0
              },
              "end": {
                "line": 39,
                "column": 5
              }
            },
            "computed": false,
            "key": {
              "type": "Identifier",
              "start": 375,
              "end": 381,
              "loc": {
                "start": {
                  "line": 26,
                  "column": 0
                },
                "end": {
                  "line": 26,
                  "column": 6
                }
              },
              "name": "render"
            },
            "static": false,
            "kind": "method",
            "value": {
              "type": "FunctionExpression",
              "start": 381,
              "end": 759,
              "loc": {
                "start": {
                  "line": 26,
                  "column": 6
                },
                "end": {
                  "line": 39,
                  "column": 5
                }
              },
              "id": null,
              "generator": false,
              "expression": false,
              "async": false,
              "params": [],
              "body": {
                "type": "BlockStatement",
                "start": 384,
                "end": 759,
                "loc": {
                  "start": {
                    "line": 26,
                    "column": 9
                  },
                  "end": {
                    "line": 39,
                    "column": 5
                  }
                },
                "body": [
                  {
                    "type": "ReturnStatement",
                    "start": 405,
                    "end": 753,
                    "loc": {
                      "start": {
                        "line": 28,
                        "column": 8
                      },
                      "end": {
                        "line": 38,
                        "column": 9
                      }
                    },
                    "argument": {
                      "type": "JSXElement",
                      "start": 436,
                      "end": 743,
                      "loc": {
                        "start": {
                          "line": 30,
                          "column": 12
                        },
                        "end": {
                          "line": 37,
                          "column": 14
                        }
                      },
                      "openingElement": {
                        "type": "JSXOpeningElement",
                        "start": 436,
                        "end": 743,
                        "loc": {
                          "start": {
                            "line": 30,
                            "column": 12
                          },
                          "end": {
                            "line": 37,
                            "column": 14
                          }
                        },
                        "attributes": [
                          {
                            "type": "JSXSpreadAttribute",
                            "start": 443,
                            "end": 464,
                            "loc": {
                              "start": {
                                "line": 30,
                                "column": 19
                              },
                              "end": {
                                "line": 30,
                                "column": 40
                              }
                            },
                            "argument": {
                              "type": "MemberExpression",
                              "start": 447,
                              "end": 463,
                              "loc": {
                                "start": {
                                  "line": 30,
                                  "column": 23
                                },
                                "end": {
                                  "line": 30,
                                  "column": 39
                                }
                              },
                              "object": {
                                "type": "MemberExpression",
                                "start": 447,
                                "end": 457,
                                "loc": {
                                  "start": {
                                    "line": 30,
                                    "column": 23
                                  },
                                  "end": {
                                    "line": 30,
                                    "column": 33
                                  }
                                },
                                "object": {
                                  "type": "ThisExpression",
                                  "start": 447,
                                  "end": 451,
                                  "loc": {
                                    "start": {
                                      "line": 30,
                                      "column": 23
                                    },
                                    "end": {
                                      "line": 30,
                                      "column": 27
                                    }
                                  }
                                },
                                "property": {
                                  "type": "Identifier",
                                  "start": 452,
                                  "end": 457,
                                  "loc": {
                                    "start": {
                                      "line": 30,
                                      "column": 28
                                    },
                                    "end": {
                                      "line": 30,
                                      "column": 33
                                    }
                                  },
                                  "name": "props"
                                },
                                "computed": false
                              },
                              "property": {
                                "type": "Identifier",
                                "start": 458,
                                "end": 463,
                                "loc": {
                                  "start": {
                                    "line": 30,
                                    "column": 34
                                  },
                                  "end": {
                                    "line": 30,
                                    "column": 39
                                  }
                                },
                                "name": "value"
                              },
                              "computed": false
                            }
                          },
                          {
                            "type": "JSXAttribute",
                            "start": 477,
                            "end": 495,
                            "loc": {
                              "start": {
                                "line": 31,
                                "column": 12
                              },
                              "end": {
                                "line": 31,
                                "column": 30
                              }
                            },
                            "name": {
                              "type": "JSXIdentifier",
                              "start": 477,
                              "end": 479,
                              "loc": {
                                "start": {
                                  "line": 31,
                                  "column": 12
                                },
                                "end": {
                                  "line": 31,
                                  "column": 14
                                }
                              },
                              "name": "id"
                            },
                            "value": {
                              "type": "JSXExpressionContainer",
                              "start": 480,
                              "end": 495,
                              "loc": {
                                "start": {
                                  "line": 31,
                                  "column": 15
                                },
                                "end": {
                                  "line": 31,
                                  "column": 30
                                }
                              },
                              "expression": {
                                "type": "MemberExpression",
                                "start": 481,
                                "end": 494,
                                "loc": {
                                  "start": {
                                    "line": 31,
                                    "column": 16
                                  },
                                  "end": {
                                    "line": 31,
                                    "column": 29
                                  }
                                },
                                "object": {
                                  "type": "MemberExpression",
                                  "start": 481,
                                  "end": 491,
                                  "loc": {
                                    "start": {
                                      "line": 31,
                                      "column": 16
                                    },
                                    "end": {
                                      "line": 31,
                                      "column": 26
                                    }
                                  },
                                  "object": {
                                    "type": "ThisExpression",
                                    "start": 481,
                                    "end": 485,
                                    "loc": {
                                      "start": {
                                        "line": 31,
                                        "column": 16
                                      },
                                      "end": {
                                        "line": 31,
                                        "column": 20
                                      }
                                    }
                                  },
                                  "property": {
                                    "type": "Identifier",
                                    "start": 486,
                                    "end": 491,
                                    "loc": {
                                      "start": {
                                        "line": 31,
                                        "column": 21
                                      },
                                      "end": {
                                        "line": 31,
                                        "column": 26
                                      }
                                    },
                                    "name": "props"
                                  },
                                  "computed": false
                                },
                                "property": {
                                  "type": "Identifier",
                                  "start": 492,
                                  "end": 494,
                                  "loc": {
                                    "start": {
                                      "line": 31,
                                      "column": 27
                                    },
                                    "end": {
                                      "line": 31,
                                      "column": 29
                                    }
                                  },
                                  "name": "id"
                                },
                                "computed": false
                              }
                            }
                          },
                          {
                            "type": "JSXAttribute",
                            "start": 496,
                            "end": 507,
                            "loc": {
                              "start": {
                                "line": 31,
                                "column": 31
                              },
                              "end": {
                                "line": 31,
                                "column": 42
                              }
                            },
                            "name": {
                              "type": "JSXIdentifier",
                              "start": 496,
                              "end": 500,
                              "loc": {
                                "start": {
                                  "line": 31,
                                  "column": 31
                                },
                                "end": {
                                  "line": 31,
                                  "column": 35
                                }
                              },
                              "name": "type"
                            },
                            "value": {
                              "type": "Literal",
                              "start": 501,
                              "end": 507,
                              "loc": {
                                "start": {
                                  "line": 31,
                                  "column": 36
                                },
                                "end": {
                                  "line": 31,
                                  "column": 42
                                }
                              },
                              "value": "file",
                              "rawValue": null,
                              "raw": "\"file\""
                            }
                          },
                          {
                            "type": "JSXAttribute",
                            "start": 523,
                            "end": 553,
                            "loc": {
                              "start": {
                                "line": 32,
                                "column": 15
                              },
                              "end": {
                                "line": 32,
                                "column": 45
                              }
                            },
                            "name": {
                              "type": "JSXIdentifier",
                              "start": 523,
                              "end": 531,
                              "loc": {
                                "start": {
                                  "line": 32,
                                  "column": 15
                                },
                                "end": {
                                  "line": 32,
                                  "column": 23
                                }
                              },
                              "name": "required"
                            },
                            "value": {
                              "type": "JSXExpressionContainer",
                              "start": 532,
                              "end": 553,
                              "loc": {
                                "start": {
                                  "line": 32,
                                  "column": 24
                                },
                                "end": {
                                  "line": 32,
                                  "column": 45
                                }
                              },
                              "expression": {
                                "type": "MemberExpression",
                                "start": 533,
                                "end": 552,
                                "loc": {
                                  "start": {
                                    "line": 32,
                                    "column": 25
                                  },
                                  "end": {
                                    "line": 32,
                                    "column": 44
                                  }
                                },
                                "object": {
                                  "type": "MemberExpression",
                                  "start": 533,
                                  "end": 543,
                                  "loc": {
                                    "start": {
                                      "line": 32,
                                      "column": 25
                                    },
                                    "end": {
                                      "line": 32,
                                      "column": 35
                                    }
                                  },
                                  "object": {
                                    "type": "ThisExpression",
                                    "start": 533,
                                    "end": 537,
                                    "loc": {
                                      "start": {
                                        "line": 32,
                                        "column": 25
                                      },
                                      "end": {
                                        "line": 32,
                                        "column": 29
                                      }
                                    }
                                  },
                                  "property": {
                                    "type": "Identifier",
                                    "start": 538,
                                    "end": 543,
                                    "loc": {
                                      "start": {
                                        "line": 32,
                                        "column": 30
                                      },
                                      "end": {
                                        "line": 32,
                                        "column": 35
                                      }
                                    },
                                    "name": "props"
                                  },
                                  "computed": false
                                },
                                "property": {
                                  "type": "Identifier",
                                  "start": 544,
                                  "end": 552,
                                  "loc": {
                                    "start": {
                                      "line": 32,
                                      "column": 36
                                    },
                                    "end": {
                                      "line": 32,
                                      "column": 44
                                    }
                                  },
                                  "name": "required"
                                },
                                "computed": false
                              }
                            }
                          },
                          {
                            "type": "JSXAttribute",
                            "start": 572,
                            "end": 602,
                            "loc": {
                              "start": {
                                "line": 33,
                                "column": 17
                              },
                              "end": {
                                "line": 33,
                                "column": 47
                              }
                            },
                            "name": {
                              "type": "JSXIdentifier",
                              "start": 572,
                              "end": 580,
                              "loc": {
                                "start": {
                                  "line": 33,
                                  "column": 17
                                },
                                "end": {
                                  "line": 33,
                                  "column": 25
                                }
                              },
                              "name": "disabled"
                            },
                            "value": {
                              "type": "JSXExpressionContainer",
                              "start": 581,
                              "end": 602,
                              "loc": {
                                "start": {
                                  "line": 33,
                                  "column": 26
                                },
                                "end": {
                                  "line": 33,
                                  "column": 47
                                }
                              },
                              "expression": {
                                "type": "MemberExpression",
                                "start": 582,
                                "end": 601,
                                "loc": {
                                  "start": {
                                    "line": 33,
                                    "column": 27
                                  },
                                  "end": {
                                    "line": 33,
                                    "column": 46
                                  }
                                },
                                "object": {
                                  "type": "MemberExpression",
                                  "start": 582,
                                  "end": 592,
                                  "loc": {
                                    "start": {
                                      "line": 33,
                                      "column": 27
                                    },
                                    "end": {
                                      "line": 33,
                                      "column": 37
                                    }
                                  },
                                  "object": {
                                    "type": "ThisExpression",
                                    "start": 582,
                                    "end": 586,
                                    "loc": {
                                      "start": {
                                        "line": 33,
                                        "column": 27
                                      },
                                      "end": {
                                        "line": 33,
                                        "column": 31
                                      }
                                    }
                                  },
                                  "property": {
                                    "type": "Identifier",
                                    "start": 587,
                                    "end": 592,
                                    "loc": {
                                      "start": {
                                        "line": 33,
                                        "column": 32
                                      },
                                      "end": {
                                        "line": 33,
                                        "column": 37
                                      }
                                    },
                                    "name": "props"
                                  },
                                  "computed": false
                                },
                                "property": {
                                  "type": "Identifier",
                                  "start": 593,
                                  "end": 601,
                                  "loc": {
                                    "start": {
                                      "line": 33,
                                      "column": 38
                                    },
                                    "end": {
                                      "line": 33,
                                      "column": 46
                                    }
                                  },
                                  "name": "disabled"
                                },
                                "computed": false
                              }
                            }
                          },
                          {
                            "type": "JSXAttribute",
                            "start": 620,
                            "end": 632,
                            "loc": {
                              "start": {
                                "line": 34,
                                "column": 17
                              },
                              "end": {
                                "line": 34,
                                "column": 29
                              }
                            },
                            "name": {
                              "type": "JSXIdentifier",
                              "start": 620,
                              "end": 625,
                              "loc": {
                                "start": {
                                  "line": 34,
                                  "column": 17
                                },
                                "end": {
                                  "line": 34,
                                  "column": 22
                                }
                              },
                              "name": "value"
                            },
                            "value": {
                              "type": "JSXExpressionContainer",
                              "start": 626,
                              "end": 632,
                              "loc": {
                                "start": {
                                  "line": 34,
                                  "column": 23
                                },
                                "end": {
                                  "line": 34,
                                  "column": 29
                                }
                              },
                              "expression": {
                                "type": "Literal",
                                "start": 627,
                                "end": 631,
                                "loc": {
                                  "start": {
                                    "line": 34,
                                    "column": 24
                                  },
                                  "end": {
                                    "line": 34,
                                    "column": 28
                                  }
                                },
                                "value": null,
                                "rawValue": null,
                                "raw": "null"
                              }
                            }
                          },
                          {
                            "type": "JSXAttribute",
                            "start": 650,
                            "end": 672,
                            "loc": {
                              "start": {
                                "line": 35,
                                "column": 17
                              },
                              "end": {
                                "line": 35,
                                "column": 39
                              }
                            },
                            "name": {
                              "type": "JSXIdentifier",
                              "start": 650,
                              "end": 654,
                              "loc": {
                                "start": {
                                  "line": 35,
                                  "column": 17
                                },
                                "end": {
                                  "line": 35,
                                  "column": 21
                                }
                              },
                              "name": "name"
                            },
                            "value": {
                              "type": "JSXExpressionContainer",
                              "start": 655,
                              "end": 672,
                              "loc": {
                                "start": {
                                  "line": 35,
                                  "column": 22
                                },
                                "end": {
                                  "line": 35,
                                  "column": 39
                                }
                              },
                              "expression": {
                                "type": "MemberExpression",
                                "start": 656,
                                "end": 671,
                                "loc": {
                                  "start": {
                                    "line": 35,
                                    "column": 23
                                  },
                                  "end": {
                                    "line": 35,
                                    "column": 38
                                  }
                                },
                                "object": {
                                  "type": "MemberExpression",
                                  "start": 656,
                                  "end": 666,
                                  "loc": {
                                    "start": {
                                      "line": 35,
                                      "column": 23
                                    },
                                    "end": {
                                      "line": 35,
                                      "column": 33
                                    }
                                  },
                                  "object": {
                                    "type": "ThisExpression",
                                    "start": 656,
                                    "end": 660,
                                    "loc": {
                                      "start": {
                                        "line": 35,
                                        "column": 23
                                      },
                                      "end": {
                                        "line": 35,
                                        "column": 27
                                      }
                                    }
                                  },
                                  "property": {
                                    "type": "Identifier",
                                    "start": 661,
                                    "end": 666,
                                    "loc": {
                                      "start": {
                                        "line": 35,
                                        "column": 28
                                      },
                                      "end": {
                                        "line": 35,
                                        "column": 33
                                      }
                                    },
                                    "name": "props"
                                  },
                                  "computed": false
                                },
                                "property": {
                                  "type": "Identifier",
                                  "start": 667,
                                  "end": 671,
                                  "loc": {
                                    "start": {
                                      "line": 35,
                                      "column": 34
                                    },
                                    "end": {
                                      "line": 35,
                                      "column": 38
                                    }
                                  },
                                  "name": "name"
                                },
                                "computed": false
                              }
                            }
                          },
                          {
                            "type": "JSXAttribute",
                            "start": 690,
                            "end": 728,
                            "loc": {
                              "start": {
                                "line": 36,
                                "column": 17
                              },
                              "end": {
                                "line": 36,
                                "column": 55
                              }
                            },
                            "name": {
                              "type": "JSXIdentifier",
                              "start": 690,
                              "end": 699,
                              "loc": {
                                "start": {
                                  "line": 36,
                                  "column": 17
                                },
                                "end": {
                                  "line": 36,
                                  "column": 26
                                }
                              },
                              "name": "className"
                            },
                            "value": {
                              "type": "JSXExpressionContainer",
                              "start": 700,
                              "end": 728,
                              "loc": {
                                "start": {
                                  "line": 36,
                                  "column": 27
                                },
                                "end": {
                                  "line": 36,
                                  "column": 55
                                }
                              },
                              "expression": {
                                "type": "MemberExpression",
                                "start": 701,
                                "end": 727,
                                "loc": {
                                  "start": {
                                    "line": 36,
                                    "column": 28
                                  },
                                  "end": {
                                    "line": 36,
                                    "column": 54
                                  }
                                },
                                "object": {
                                  "type": "MemberExpression",
                                  "start": 701,
                                  "end": 711,
                                  "loc": {
                                    "start": {
                                      "line": 36,
                                      "column": 28
                                    },
                                    "end": {
                                      "line": 36,
                                      "column": 38
                                    }
                                  },
                                  "object": {
                                    "type": "ThisExpression",
                                    "start": 701,
                                    "end": 705,
                                    "loc": {
                                      "start": {
                                        "line": 36,
                                        "column": 28
                                      },
                                      "end": {
                                        "line": 36,
                                        "column": 32
                                      }
                                    }
                                  },
                                  "property": {
                                    "type": "Identifier",
                                    "start": 706,
                                    "end": 711,
                                    "loc": {
                                      "start": {
                                        "line": 36,
                                        "column": 33
                                      },
                                      "end": {
                                        "line": 36,
                                        "column": 38
                                      }
                                    },
                                    "name": "props"
                                  },
                                  "computed": false
                                },
                                "property": {
                                  "type": "Identifier",
                                  "start": 712,
                                  "end": 727,
                                  "loc": {
                                    "start": {
                                      "line": 36,
                                      "column": 39
                                    },
                                    "end": {
                                      "line": 36,
                                      "column": 54
                                    }
                                  },
                                  "name": "choosefileclass"
                                },
                                "computed": false
                              }
                            }
                          }
                        ],
                        "name": {
                          "type": "JSXIdentifier",
                          "start": 437,
                          "end": 442,
                          "loc": {
                            "start": {
                              "line": 30,
                              "column": 13
                            },
                            "end": {
                              "line": 30,
                              "column": 18
                            }
                          },
                          "name": "input"
                        },
                        "selfClosing": true
                      },
                      "closingElement": null,
                      "children": [],
                      "parenthesizedExpression": true
                    }
                  }
                ]
              }
            }
          }
        ]
      }
    },
    {
      "type": "EmptyStatement",
      "start": 762,
      "end": 763,
      "loc": {
        "start": {
          "line": 41,
          "column": 1
        },
        "end": {
          "line": 41,
          "column": 2
        }
      }
    },
    {
      "type": "ExpressionStatement",
      "start": 765,
      "end": 793,
      "loc": {
        "start": {
          "line": 43,
          "column": 0
        },
        "end": {
          "line": 43,
          "column": 28
        }
      },
      "expression": {
        "type": "AssignmentExpression",
        "start": 765,
        "end": 792,
        "loc": {
          "start": {
            "line": 43,
            "column": 0
          },
          "end": {
            "line": 43,
            "column": 27
          }
        },
        "operator": "=",
        "left": {
          "type": "MemberExpression",
          "start": 765,
          "end": 779,
          "loc": {
            "start": {
              "line": 43,
              "column": 0
            },
            "end": {
              "line": 43,
              "column": 14
            }
          },
          "object": {
            "type": "Identifier",
            "start": 765,
            "end": 771,
            "loc": {
              "start": {
                "line": 43,
                "column": 0
              },
              "end": {
                "line": 43,
                "column": 6
              }
            },
            "name": "module"
          },
          "property": {
            "type": "Identifier",
            "start": 772,
            "end": 779,
            "loc": {
              "start": {
                "line": 43,
                "column": 7
              },
              "end": {
                "line": 43,
                "column": 14
              }
            },
            "name": "exports"
          },
          "computed": false
        },
        "right": {
          "type": "Identifier",
          "start": 782,
          "end": 792,
          "loc": {
            "start": {
              "line": 43,
              "column": 17
            },
            "end": {
              "line": 43,
              "column": 27
            }
          },
          "name": "ChooseFile"
        }
      }
    }
  ]
}