{
  "type": "Program",
  "start": 0,
  "end": 686,
  "loc": {
    "start": {
      "line": 1,
      "column": 0
    },
    "end": {
      "line": 35,
      "column": 0
    }
  },
  "sourceType": "module",
  "body": [
    {
      "type": "ExpressionStatement",
      "start": 12,
      "end": 25,
      "loc": {
        "start": {
          "line": 4,
          "column": 1
        },
        "end": {
          "line": 4,
          "column": 14
        }
      },
      "expression": {
        "type": "Literal",
        "start": 12,
        "end": 24,
        "loc": {
          "start": {
            "line": 4,
            "column": 1
          },
          "end": {
            "line": 4,
            "column": 13
          }
        },
        "value": "use strict",
        "rawValue": "use strict",
        "raw": "'use strict'",
        "leadingComments": null
      },
      "leadingComments": [
        {
          "type": "Block",
          "value": "*\n *\n ",
          "start": 0,
          "end": 10,
          "loc": {
            "start": {
              "line": 1,
              "column": 0
            },
            "end": {
              "line": 3,
              "column": 3
            }
          },
          "range": [
            0,
            10
          ]
        }
      ]
    },
    {
      "type": "ImportDeclaration",
      "start": 26,
      "end": 52,
      "loc": {
        "start": {
          "line": 5,
          "column": 0
        },
        "end": {
          "line": 5,
          "column": 26
        }
      },
      "specifiers": [
        {
          "type": "ImportDefaultSpecifier",
          "start": 33,
          "end": 38,
          "loc": {
            "start": {
              "line": 5,
              "column": 7
            },
            "end": {
              "line": 5,
              "column": 12
            }
          },
          "local": {
            "type": "Identifier",
            "start": 33,
            "end": 38,
            "loc": {
              "start": {
                "line": 5,
                "column": 7
              },
              "end": {
                "line": 5,
                "column": 12
              }
            },
            "name": "React"
          }
        }
      ],
      "importKind": "value",
      "source": {
        "type": "Literal",
        "start": 44,
        "end": 51,
        "loc": {
          "start": {
            "line": 5,
            "column": 18
          },
          "end": {
            "line": 5,
            "column": 25
          }
        },
        "value": "react",
        "rawValue": "react",
        "raw": "'react'"
      }
    },
    {
      "type": "ClassDeclaration",
      "start": 55,
      "end": 659,
      "loc": {
        "start": {
          "line": 8,
          "column": 0
        },
        "end": {
          "line": 32,
          "column": 1
        }
      },
      "id": {
        "type": "Identifier",
        "start": 61,
        "end": 66,
        "loc": {
          "start": {
            "line": 8,
            "column": 6
          },
          "end": {
            "line": 8,
            "column": 11
          }
        },
        "name": "Label"
      },
      "superClass": {
        "type": "MemberExpression",
        "start": 75,
        "end": 90,
        "loc": {
          "start": {
            "line": 8,
            "column": 20
          },
          "end": {
            "line": 8,
            "column": 35
          }
        },
        "object": {
          "type": "Identifier",
          "start": 75,
          "end": 80,
          "loc": {
            "start": {
              "line": 8,
              "column": 20
            },
            "end": {
              "line": 8,
              "column": 25
            }
          },
          "name": "React"
        },
        "property": {
          "type": "Identifier",
          "start": 81,
          "end": 90,
          "loc": {
            "start": {
              "line": 8,
              "column": 26
            },
            "end": {
              "line": 8,
              "column": 35
            }
          },
          "name": "Component"
        },
        "computed": false
      },
      "body": {
        "type": "ClassBody",
        "start": 90,
        "end": 659,
        "loc": {
          "start": {
            "line": 8,
            "column": 35
          },
          "end": {
            "line": 32,
            "column": 1
          }
        },
        "body": [
          {
            "type": "MethodDefinition",
            "start": 93,
            "end": 170,
            "loc": {
              "start": {
                "line": 9,
                "column": 1
              },
              "end": {
                "line": 12,
                "column": 4
              }
            },
            "computed": false,
            "key": {
              "type": "Identifier",
              "start": 93,
              "end": 104,
              "loc": {
                "start": {
                  "line": 9,
                  "column": 1
                },
                "end": {
                  "line": 9,
                  "column": 12
                }
              },
              "name": "constructor"
            },
            "static": false,
            "kind": "constructor",
            "value": {
              "type": "FunctionExpression",
              "start": 104,
              "end": 170,
              "loc": {
                "start": {
                  "line": 9,
                  "column": 12
                },
                "end": {
                  "line": 12,
                  "column": 4
                }
              },
              "id": null,
              "generator": false,
              "expression": false,
              "async": false,
              "params": [
                {
                  "type": "Identifier",
                  "start": 105,
                  "end": 110,
                  "loc": {
                    "start": {
                      "line": 9,
                      "column": 13
                    },
                    "end": {
                      "line": 9,
                      "column": 18
                    }
                  },
                  "name": "props"
                }
              ],
              "body": {
                "type": "BlockStatement",
                "start": 112,
                "end": 170,
                "loc": {
                  "start": {
                    "line": 9,
                    "column": 20
                  },
                  "end": {
                    "line": 12,
                    "column": 4
                  }
                },
                "body": [
                  {
                    "type": "ExpressionStatement",
                    "start": 119,
                    "end": 132,
                    "loc": {
                      "start": {
                        "line": 10,
                        "column": 5
                      },
                      "end": {
                        "line": 10,
                        "column": 18
                      }
                    },
                    "expression": {
                      "type": "CallExpression",
                      "start": 119,
                      "end": 131,
                      "loc": {
                        "start": {
                          "line": 10,
                          "column": 5
                        },
                        "end": {
                          "line": 10,
                          "column": 17
                        }
                      },
                      "callee": {
                        "type": "Super",
                        "start": 119,
                        "end": 124,
                        "loc": {
                          "start": {
                            "line": 10,
                            "column": 5
                          },
                          "end": {
                            "line": 10,
                            "column": 10
                          }
                        }
                      },
                      "arguments": [
                        {
                          "type": "Identifier",
                          "start": 125,
                          "end": 130,
                          "loc": {
                            "start": {
                              "line": 10,
                              "column": 11
                            },
                            "end": {
                              "line": 10,
                              "column": 16
                            }
                          },
                          "name": "props"
                        }
                      ]
                    }
                  },
                  {
                    "type": "ExpressionStatement",
                    "start": 138,
                    "end": 165,
                    "loc": {
                      "start": {
                        "line": 11,
                        "column": 5
                      },
                      "end": {
                        "line": 11,
                        "column": 32
                      }
                    },
                    "expression": {
                      "type": "AssignmentExpression",
                      "start": 138,
                      "end": 164,
                      "loc": {
                        "start": {
                          "line": 11,
                          "column": 5
                        },
                        "end": {
                          "line": 11,
                          "column": 31
                        }
                      },
                      "operator": "=",
                      "left": {
                        "type": "MemberExpression",
                        "start": 138,
                        "end": 154,
                        "loc": {
                          "start": {
                            "line": 11,
                            "column": 5
                          },
                          "end": {
                            "line": 11,
                            "column": 21
                          }
                        },
                        "object": {
                          "type": "ThisExpression",
                          "start": 138,
                          "end": 142,
                          "loc": {
                            "start": {
                              "line": 11,
                              "column": 5
                            },
                            "end": {
                              "line": 11,
                              "column": 9
                            }
                          }
                        },
                        "property": {
                          "type": "Identifier",
                          "start": 143,
                          "end": 154,
                          "loc": {
                            "start": {
                              "line": 11,
                              "column": 10
                            },
                            "end": {
                              "line": 11,
                              "column": 21
                            }
                          },
                          "name": "displayName"
                        },
                        "computed": false
                      },
                      "right": {
                        "type": "Literal",
                        "start": 157,
                        "end": 164,
                        "loc": {
                          "start": {
                            "line": 11,
                            "column": 24
                          },
                          "end": {
                            "line": 11,
                            "column": 31
                          }
                        },
                        "value": "Label",
                        "rawValue": "Label",
                        "raw": "'Label'"
                      }
                    }
                  }
                ]
              }
            }
          },
          {
            "type": "Identifier",
            "start": 175,
            "end": 292,
            "loc": {
              "start": {
                "line": 13,
                "column": 4
              },
              "end": {
                "line": 16,
                "column": 5
              }
            },
            "computed": false,
            "key": {
              "type": "Identifier",
              "start": 182,
              "end": 191,
              "loc": {
                "start": {
                  "line": 13,
                  "column": 11
                },
                "end": {
                  "line": 13,
                  "column": 20
                }
              },
              "name": "propTypes"
            },
            "static": true,
            "value": {
              "type": "ObjectExpression",
              "start": 194,
              "end": 292,
              "loc": {
                "start": {
                  "line": 13,
                  "column": 23
                },
                "end": {
                  "line": 16,
                  "column": 5
                }
              },
              "properties": [
                {
                  "type": "Property",
                  "start": 204,
                  "end": 231,
                  "loc": {
                    "start": {
                      "line": 14,
                      "column": 8
                    },
                    "end": {
                      "line": 14,
                      "column": 35
                    }
                  },
                  "method": false,
                  "shorthand": false,
                  "computed": false,
                  "key": {
                    "type": "Identifier",
                    "start": 204,
                    "end": 207,
                    "loc": {
                      "start": {
                        "line": 14,
                        "column": 8
                      },
                      "end": {
                        "line": 14,
                        "column": 11
                      }
                    },
                    "name": "for"
                  },
                  "value": {
                    "type": "MemberExpression",
                    "start": 209,
                    "end": 231,
                    "loc": {
                      "start": {
                        "line": 14,
                        "column": 13
                      },
                      "end": {
                        "line": 14,
                        "column": 35
                      }
                    },
                    "object": {
                      "type": "MemberExpression",
                      "start": 209,
                      "end": 224,
                      "loc": {
                        "start": {
                          "line": 14,
                          "column": 13
                        },
                        "end": {
                          "line": 14,
                          "column": 28
                        }
                      },
                      "object": {
                        "type": "Identifier",
                        "start": 209,
                        "end": 214,
                        "loc": {
                          "start": {
                            "line": 14,
                            "column": 13
                          },
                          "end": {
                            "line": 14,
                            "column": 18
                          }
                        },
                        "name": "React"
                      },
                      "property": {
                        "type": "Identifier",
                        "start": 215,
                        "end": 224,
                        "loc": {
                          "start": {
                            "line": 14,
                            "column": 19
                          },
                          "end": {
                            "line": 14,
                            "column": 28
                          }
                        },
                        "name": "PropTypes"
                      },
                      "computed": false
                    },
                    "property": {
                      "type": "Identifier",
                      "start": 225,
                      "end": 231,
                      "loc": {
                        "start": {
                          "line": 14,
                          "column": 29
                        },
                        "end": {
                          "line": 14,
                          "column": 35
                        }
                      },
                      "name": "string"
                    },
                    "computed": false
                  },
                  "kind": "init"
                },
                {
                  "type": "Property",
                  "start": 241,
                  "end": 281,
                  "loc": {
                    "start": {
                      "line": 15,
                      "column": 8
                    },
                    "end": {
                      "line": 15,
                      "column": 48
                    }
                  },
                  "method": false,
                  "shorthand": false,
                  "computed": false,
                  "key": {
                    "type": "Identifier",
                    "start": 241,
                    "end": 245,
                    "loc": {
                      "start": {
                        "line": 15,
                        "column": 8
                      },
                      "end": {
                        "line": 15,
                        "column": 12
                      }
                    },
                    "name": "text"
                  },
                  "value": {
                    "type": "MemberExpression",
                    "start": 248,
                    "end": 281,
                    "loc": {
                      "start": {
                        "line": 15,
                        "column": 15
                      },
                      "end": {
                        "line": 15,
                        "column": 48
                      }
                    },
                    "object": {
                      "type": "MemberExpression",
                      "start": 248,
                      "end": 270,
                      "loc": {
                        "start": {
                          "line": 15,
                          "column": 15
                        },
                        "end": {
                          "line": 15,
                          "column": 37
                        }
                      },
                      "object": {
                        "type": "MemberExpression",
                        "start": 248,
                        "end": 263,
                        "loc": {
                          "start": {
                            "line": 15,
                            "column": 15
                          },
                          "end": {
                            "line": 15,
                            "column": 30
                          }
                        },
                        "object": {
                          "type": "Identifier",
                          "start": 248,
                          "end": 253,
                          "loc": {
                            "start": {
                              "line": 15,
                              "column": 15
                            },
                            "end": {
                              "line": 15,
                              "column": 20
                            }
                          },
                          "name": "React"
                        },
                        "property": {
                          "type": "Identifier",
                          "start": 254,
                          "end": 263,
                          "loc": {
                            "start": {
                              "line": 15,
                              "column": 21
                            },
                            "end": {
                              "line": 15,
                              "column": 30
                            }
                          },
                          "name": "PropTypes"
                        },
                        "computed": false
                      },
                      "property": {
                        "type": "Identifier",
                        "start": 264,
                        "end": 270,
                        "loc": {
                          "start": {
                            "line": 15,
                            "column": 31
                          },
                          "end": {
                            "line": 15,
                            "column": 37
                          }
                        },
                        "name": "string"
                      },
                      "computed": false
                    },
                    "property": {
                      "type": "Identifier",
                      "start": 271,
                      "end": 281,
                      "loc": {
                        "start": {
                          "line": 15,
                          "column": 38
                        },
                        "end": {
                          "line": 15,
                          "column": 48
                        }
                      },
                      "name": "isRequired"
                    },
                    "computed": false
                  },
                  "kind": "init"
                }
              ]
            }
          },
          {
            "type": "Identifier",
            "start": 297,
            "end": 362,
            "loc": {
              "start": {
                "line": 17,
                "column": 4
              },
              "end": {
                "line": 20,
                "column": 5
              }
            },
            "computed": false,
            "key": {
              "type": "Identifier",
              "start": 304,
              "end": 316,
              "loc": {
                "start": {
                  "line": 17,
                  "column": 11
                },
                "end": {
                  "line": 17,
                  "column": 23
                }
              },
              "name": "defaultProps"
            },
            "static": true,
            "value": {
              "type": "ObjectExpression",
              "start": 318,
              "end": 362,
              "loc": {
                "start": {
                  "line": 17,
                  "column": 25
                },
                "end": {
                  "line": 20,
                  "column": 5
                }
              },
              "properties": [
                {
                  "type": "Property",
                  "start": 330,
                  "end": 336,
                  "loc": {
                    "start": {
                      "line": 18,
                      "column": 10
                    },
                    "end": {
                      "line": 18,
                      "column": 16
                    }
                  },
                  "method": false,
                  "shorthand": false,
                  "computed": false,
                  "key": {
                    "type": "Identifier",
                    "start": 330,
                    "end": 333,
                    "loc": {
                      "start": {
                        "line": 18,
                        "column": 10
                      },
                      "end": {
                        "line": 18,
                        "column": 13
                      }
                    },
                    "name": "for"
                  },
                  "value": {
                    "type": "Literal",
                    "start": 334,
                    "end": 336,
                    "loc": {
                      "start": {
                        "line": 18,
                        "column": 14
                      },
                      "end": {
                        "line": 18,
                        "column": 16
                      }
                    },
                    "value": "",
                    "rawValue": "",
                    "raw": "''"
                  },
                  "kind": "init"
                },
                {
                  "type": "Property",
                  "start": 348,
                  "end": 356,
                  "loc": {
                    "start": {
                      "line": 19,
                      "column": 10
                    },
                    "end": {
                      "line": 19,
                      "column": 18
                    }
                  },
                  "method": false,
                  "shorthand": false,
                  "computed": false,
                  "key": {
                    "type": "Identifier",
                    "start": 348,
                    "end": 352,
                    "loc": {
                      "start": {
                        "line": 19,
                        "column": 10
                      },
                      "end": {
                        "line": 19,
                        "column": 14
                      }
                    },
                    "name": "text"
                  },
                  "value": {
                    "type": "Literal",
                    "start": 354,
                    "end": 356,
                    "loc": {
                      "start": {
                        "line": 19,
                        "column": 16
                      },
                      "end": {
                        "line": 19,
                        "column": 18
                      }
                    },
                    "value": "",
                    "rawValue": "",
                    "raw": "''"
                  },
                  "kind": "init"
                }
              ]
            }
          },
          {
            "type": "MethodDefinition",
            "start": 367,
            "end": 656,
            "loc": {
              "start": {
                "line": 21,
                "column": 4
              },
              "end": {
                "line": 30,
                "column": 5
              }
            },
            "computed": false,
            "key": {
              "type": "Identifier",
              "start": 367,
              "end": 373,
              "loc": {
                "start": {
                  "line": 21,
                  "column": 4
                },
                "end": {
                  "line": 21,
                  "column": 10
                }
              },
              "name": "render"
            },
            "static": false,
            "kind": "method",
            "value": {
              "type": "FunctionExpression",
              "start": 373,
              "end": 656,
              "loc": {
                "start": {
                  "line": 21,
                  "column": 10
                },
                "end": {
                  "line": 30,
                  "column": 5
                }
              },
              "id": null,
              "generator": false,
              "expression": false,
              "async": false,
              "params": [],
              "body": {
                "type": "BlockStatement",
                "start": 376,
                "end": 656,
                "loc": {
                  "start": {
                    "line": 21,
                    "column": 13
                  },
                  "end": {
                    "line": 30,
                    "column": 5
                  }
                },
                "body": [
                  {
                    "type": "VariableDeclaration",
                    "start": 386,
                    "end": 414,
                    "loc": {
                      "start": {
                        "line": 22,
                        "column": 8
                      },
                      "end": {
                        "line": 22,
                        "column": 36
                      }
                    },
                    "declarations": [
                      {
                        "type": "VariableDeclarator",
                        "start": 390,
                        "end": 413,
                        "loc": {
                          "start": {
                            "line": 22,
                            "column": 12
                          },
                          "end": {
                            "line": 22,
                            "column": 35
                          }
                        },
                        "id": {
                          "type": "Identifier",
                          "start": 390,
                          "end": 396,
                          "loc": {
                            "start": {
                              "line": 22,
                              "column": 12
                            },
                            "end": {
                              "line": 22,
                              "column": 18
                            }
                          },
                          "name": "forTxt"
                        },
                        "init": {
                          "type": "MemberExpression",
                          "start": 399,
                          "end": 413,
                          "loc": {
                            "start": {
                              "line": 22,
                              "column": 21
                            },
                            "end": {
                              "line": 22,
                              "column": 35
                            }
                          },
                          "object": {
                            "type": "MemberExpression",
                            "start": 399,
                            "end": 409,
                            "loc": {
                              "start": {
                                "line": 22,
                                "column": 21
                              },
                              "end": {
                                "line": 22,
                                "column": 31
                              }
                            },
                            "object": {
                              "type": "ThisExpression",
                              "start": 399,
                              "end": 403,
                              "loc": {
                                "start": {
                                  "line": 22,
                                  "column": 21
                                },
                                "end": {
                                  "line": 22,
                                  "column": 25
                                }
                              }
                            },
                            "property": {
                              "type": "Identifier",
                              "start": 404,
                              "end": 409,
                              "loc": {
                                "start": {
                                  "line": 22,
                                  "column": 26
                                },
                                "end": {
                                  "line": 22,
                                  "column": 31
                                }
                              },
                              "name": "props"
                            },
                            "computed": false
                          },
                          "property": {
                            "type": "Identifier",
                            "start": 410,
                            "end": 413,
                            "loc": {
                              "start": {
                                "line": 22,
                                "column": 32
                              },
                              "end": {
                                "line": 22,
                                "column": 35
                              }
                            },
                            "name": "for"
                          },
                          "computed": false
                        }
                      }
                    ],
                    "kind": "let"
                  },
                  {
                    "type": "VariableDeclaration",
                    "start": 423,
                    "end": 450,
                    "loc": {
                      "start": {
                        "line": 23,
                        "column": 8
                      },
                      "end": {
                        "line": 23,
                        "column": 35
                      }
                    },
                    "declarations": [
                      {
                        "type": "VariableDeclarator",
                        "start": 427,
                        "end": 449,
                        "loc": {
                          "start": {
                            "line": 23,
                            "column": 12
                          },
                          "end": {
                            "line": 23,
                            "column": 34
                          }
                        },
                        "id": {
                          "type": "Identifier",
                          "start": 427,
                          "end": 431,
                          "loc": {
                            "start": {
                              "line": 23,
                              "column": 12
                            },
                            "end": {
                              "line": 23,
                              "column": 16
                            }
                          },
                          "name": "text"
                        },
                        "init": {
                          "type": "MemberExpression",
                          "start": 434,
                          "end": 449,
                          "loc": {
                            "start": {
                              "line": 23,
                              "column": 19
                            },
                            "end": {
                              "line": 23,
                              "column": 34
                            }
                          },
                          "object": {
                            "type": "MemberExpression",
                            "start": 434,
                            "end": 444,
                            "loc": {
                              "start": {
                                "line": 23,
                                "column": 19
                              },
                              "end": {
                                "line": 23,
                                "column": 29
                              }
                            },
                            "object": {
                              "type": "ThisExpression",
                              "start": 434,
                              "end": 438,
                              "loc": {
                                "start": {
                                  "line": 23,
                                  "column": 19
                                },
                                "end": {
                                  "line": 23,
                                  "column": 23
                                }
                              }
                            },
                            "property": {
                              "type": "Identifier",
                              "start": 439,
                              "end": 444,
                              "loc": {
                                "start": {
                                  "line": 23,
                                  "column": 24
                                },
                                "end": {
                                  "line": 23,
                                  "column": 29
                                }
                              },
                              "name": "props"
                            },
                            "computed": false
                          },
                          "property": {
                            "type": "Identifier",
                            "start": 445,
                            "end": 449,
                            "loc": {
                              "start": {
                                "line": 23,
                                "column": 30
                              },
                              "end": {
                                "line": 23,
                                "column": 34
                              }
                            },
                            "name": "text"
                          },
                          "computed": false
                        }
                      }
                    ],
                    "kind": "let",
                    "trailingComments": [
                      {
                        "type": "CommentLine",
                        "value": "below is the pearson label",
                        "start": 460,
                        "end": 488,
                        "loc": {
                          "start": {
                            "line": 25,
                            "column": 8
                          },
                          "end": {
                            "line": 25,
                            "column": 36
                          }
                        },
                        "range": [
                          460,
                          488
                        ]
                      },
                      {
                        "type": "CommentLine",
                        "value": " var divAsLabel = \"<div class='pe-label pe-label--bold' >{text}</div>\";",
                        "start": 496,
                        "end": 569,
                        "loc": {
                          "start": {
                            "line": 26,
                            "column": 7
                          },
                          "end": {
                            "line": 26,
                            "column": 80
                          }
                        },
                        "range": [
                          496,
                          569
                        ]
                      }
                    ]
                  },
                  {
                    "type": "ReturnStatement",
                    "start": 578,
                    "end": 650,
                    "loc": {
                      "start": {
                        "line": 27,
                        "column": 8
                      },
                      "end": {
                        "line": 29,
                        "column": 10
                      }
                    },
                    "argument": {
                      "type": "JSXElement",
                      "start": 599,
                      "end": 639,
                      "loc": {
                        "start": {
                          "line": 28,
                          "column": 12
                        },
                        "end": {
                          "line": 28,
                          "column": 52
                        }
                      },
                      "openingElement": {
                        "type": "JSXOpeningElement",
                        "start": 599,
                        "end": 623,
                        "loc": {
                          "start": {
                            "line": 28,
                            "column": 12
                          },
                          "end": {
                            "line": 28,
                            "column": 36
                          }
                        },
                        "attributes": [
                          {
                            "type": "JSXAttribute",
                            "start": 606,
                            "end": 622,
                            "loc": {
                              "start": {
                                "line": 28,
                                "column": 19
                              },
                              "end": {
                                "line": 28,
                                "column": 35
                              }
                            },
                            "name": {
                              "type": "JSXIdentifier",
                              "start": 606,
                              "end": 613,
                              "loc": {
                                "start": {
                                  "line": 28,
                                  "column": 19
                                },
                                "end": {
                                  "line": 28,
                                  "column": 26
                                }
                              },
                              "name": "htmlFor"
                            },
                            "value": {
                              "type": "JSXExpressionContainer",
                              "start": 614,
                              "end": 622,
                              "loc": {
                                "start": {
                                  "line": 28,
                                  "column": 27
                                },
                                "end": {
                                  "line": 28,
                                  "column": 35
                                }
                              },
                              "expression": {
                                "type": "Identifier",
                                "start": 615,
                                "end": 621,
                                "loc": {
                                  "start": {
                                    "line": 28,
                                    "column": 28
                                  },
                                  "end": {
                                    "line": 28,
                                    "column": 34
                                  }
                                },
                                "name": "forTxt"
                              }
                            }
                          }
                        ],
                        "name": {
                          "type": "JSXIdentifier",
                          "start": 600,
                          "end": 605,
                          "loc": {
                            "start": {
                              "line": 28,
                              "column": 13
                            },
                            "end": {
                              "line": 28,
                              "column": 18
                            }
                          },
                          "name": "label",
                          "leadingComments": null
                        },
                        "selfClosing": false,
                        "leadingComments": null
                      },
                      "closingElement": {
                        "type": "JSXClosingElement",
                        "start": 631,
                        "end": 639,
                        "loc": {
                          "start": {
                            "line": 28,
                            "column": 44
                          },
                          "end": {
                            "line": 28,
                            "column": 52
                          }
                        },
                        "name": {
                          "type": "JSXIdentifier",
                          "start": 633,
                          "end": 638,
                          "loc": {
                            "start": {
                              "line": 28,
                              "column": 46
                            },
                            "end": {
                              "line": 28,
                              "column": 51
                            }
                          },
                          "name": "label"
                        }
                      },
                      "children": [
                        {
                          "type": "Literal",
                          "start": 623,
                          "end": 624,
                          "loc": {
                            "start": {
                              "line": 28,
                              "column": 36
                            },
                            "end": {
                              "line": 28,
                              "column": 37
                            }
                          },
                          "value": " ",
                          "rawValue": null,
                          "raw": " "
                        },
                        {
                          "type": "JSXExpressionContainer",
                          "start": 624,
                          "end": 630,
                          "loc": {
                            "start": {
                              "line": 28,
                              "column": 37
                            },
                            "end": {
                              "line": 28,
                              "column": 43
                            }
                          },
                          "expression": {
                            "type": "Identifier",
                            "start": 625,
                            "end": 629,
                            "loc": {
                              "start": {
                                "line": 28,
                                "column": 38
                              },
                              "end": {
                                "line": 28,
                                "column": 42
                              }
                            },
                            "name": "text"
                          }
                        },
                        {
                          "type": "Literal",
                          "start": 630,
                          "end": 631,
                          "loc": {
                            "start": {
                              "line": 28,
                              "column": 43
                            },
                            "end": {
                              "line": 28,
                              "column": 44
                            }
                          },
                          "value": " ",
                          "rawValue": null,
                          "raw": " "
                        }
                      ],
                      "leadingComments": null,
                      "parenthesizedExpression": true
                    },
                    "leadingComments": [
                      {
                        "type": "CommentLine",
                        "value": "below is the pearson label",
                        "start": 460,
                        "end": 488,
                        "loc": {
                          "start": {
                            "line": 25,
                            "column": 8
                          },
                          "end": {
                            "line": 25,
                            "column": 36
                          }
                        },
                        "range": [
                          460,
                          488
                        ]
                      },
                      {
                        "type": "CommentLine",
                        "value": " var divAsLabel = \"<div class='pe-label pe-label--bold' >{text}</div>\";",
                        "start": 496,
                        "end": 569,
                        "loc": {
                          "start": {
                            "line": 26,
                            "column": 7
                          },
                          "end": {
                            "line": 26,
                            "column": 80
                          }
                        },
                        "range": [
                          496,
                          569
                        ]
                      }
                    ]
                  }
                ]
              }
            }
          }
        ]
      }
    },
    {
      "type": "EmptyStatement",
      "start": 659,
      "end": 660,
      "loc": {
        "start": {
          "line": 32,
          "column": 1
        },
        "end": {
          "line": 32,
          "column": 2
        }
      }
    },
    {
      "type": "ExpressionStatement",
      "start": 662,
      "end": 685,
      "loc": {
        "start": {
          "line": 34,
          "column": 0
        },
        "end": {
          "line": 34,
          "column": 23
        }
      },
      "expression": {
        "type": "AssignmentExpression",
        "start": 662,
        "end": 684,
        "loc": {
          "start": {
            "line": 34,
            "column": 0
          },
          "end": {
            "line": 34,
            "column": 22
          }
        },
        "operator": "=",
        "left": {
          "type": "MemberExpression",
          "start": 662,
          "end": 676,
          "loc": {
            "start": {
              "line": 34,
              "column": 0
            },
            "end": {
              "line": 34,
              "column": 14
            }
          },
          "object": {
            "type": "Identifier",
            "start": 662,
            "end": 668,
            "loc": {
              "start": {
                "line": 34,
                "column": 0
              },
              "end": {
                "line": 34,
                "column": 6
              }
            },
            "name": "module"
          },
          "property": {
            "type": "Identifier",
            "start": 669,
            "end": 676,
            "loc": {
              "start": {
                "line": 34,
                "column": 7
              },
              "end": {
                "line": 34,
                "column": 14
              }
            },
            "name": "exports"
          },
          "computed": false
        },
        "right": {
          "type": "Identifier",
          "start": 679,
          "end": 684,
          "loc": {
            "start": {
              "line": 34,
              "column": 17
            },
            "end": {
              "line": 34,
              "column": 22
            }
          },
          "name": "Label"
        }
      }
    }
  ]
}