{
  "type": "Program",
  "start": 0,
  "end": 104,
  "loc": {
    "start": {
      "line": 1,
      "column": 0
    },
    "end": {
      "line": 7,
      "column": 30
    }
  },
  "sourceType": "module",
  "body": [
    {
      "type": "VariableDeclaration",
      "start": 0,
      "end": 72,
      "loc": {
        "start": {
          "line": 1,
          "column": 0
        },
        "end": {
          "line": 5,
          "column": 1
        }
      },
      "declarations": [
        {
          "type": "VariableDeclarator",
          "start": 6,
          "end": 72,
          "loc": {
            "start": {
              "line": 1,
              "column": 6
            },
            "end": {
              "line": 5,
              "column": 1
            }
          },
          "id": {
            "type": "Identifier",
            "start": 6,
            "end": 18,
            "loc": {
              "start": {
                "line": 1,
                "column": 6
              },
              "end": {
                "line": 1,
                "column": 18
              }
            },
            "name": "treeConstant"
          },
          "init": {
            "type": "ObjectExpression",
            "start": 21,
            "end": 72,
            "loc": {
              "start": {
                "line": 1,
                "column": 21
              },
              "end": {
                "line": 5,
                "column": 1
              }
            },
            "properties": [
              {
                "type": "Property",
                "start": 25,
                "end": 50,
                "loc": {
                  "start": {
                    "line": 3,
                    "column": 1
                  },
                  "end": {
                    "line": 3,
                    "column": 26
                  }
                },
                "method": false,
                "shorthand": false,
                "computed": false,
                "key": {
                  "type": "Identifier",
                  "start": 25,
                  "end": 35,
                  "loc": {
                    "start": {
                      "line": 3,
                      "column": 1
                    },
                    "end": {
                      "line": 3,
                      "column": 11
                    }
                  },
                  "name": "GET_FOLDER"
                },
                "value": {
                  "type": "Literal",
                  "start": 38,
                  "end": 50,
                  "loc": {
                    "start": {
                      "line": 3,
                      "column": 14
                    },
                    "end": {
                      "line": 3,
                      "column": 26
                    }
                  },
                  "value": "GET_FOLDER",
                  "rawValue": "GET_FOLDER",
                  "raw": "'GET_FOLDER'"
                },
                "kind": "init"
              },
              {
                "type": "Property",
                "start": 53,
                "end": 70,
                "loc": {
                  "start": {
                    "line": 4,
                    "column": 1
                  },
                  "end": {
                    "line": 4,
                    "column": 18
                  }
                },
                "method": false,
                "shorthand": false,
                "computed": false,
                "key": {
                  "type": "Identifier",
                  "start": 53,
                  "end": 59,
                  "loc": {
                    "start": {
                      "line": 4,
                      "column": 1
                    },
                    "end": {
                      "line": 4,
                      "column": 7
                    }
                  },
                  "name": "TOGGLE"
                },
                "value": {
                  "type": "Literal",
                  "start": 62,
                  "end": 70,
                  "loc": {
                    "start": {
                      "line": 4,
                      "column": 10
                    },
                    "end": {
                      "line": 4,
                      "column": 18
                    }
                  },
                  "value": "TOGGLE",
                  "rawValue": "TOGGLE",
                  "raw": "'TOGGLE'"
                },
                "kind": "init"
              }
            ]
          }
        }
      ],
      "kind": "const"
    },
    {
      "type": "ExpressionStatement",
      "start": 74,
      "end": 104,
      "loc": {
        "start": {
          "line": 7,
          "column": 0
        },
        "end": {
          "line": 7,
          "column": 30
        }
      },
      "expression": {
        "type": "AssignmentExpression",
        "start": 74,
        "end": 103,
        "loc": {
          "start": {
            "line": 7,
            "column": 0
          },
          "end": {
            "line": 7,
            "column": 29
          }
        },
        "operator": "=",
        "left": {
          "type": "MemberExpression",
          "start": 74,
          "end": 88,
          "loc": {
            "start": {
              "line": 7,
              "column": 0
            },
            "end": {
              "line": 7,
              "column": 14
            }
          },
          "object": {
            "type": "Identifier",
            "start": 74,
            "end": 80,
            "loc": {
              "start": {
                "line": 7,
                "column": 0
              },
              "end": {
                "line": 7,
                "column": 6
              }
            },
            "name": "module"
          },
          "property": {
            "type": "Identifier",
            "start": 81,
            "end": 88,
            "loc": {
              "start": {
                "line": 7,
                "column": 7
              },
              "end": {
                "line": 7,
                "column": 14
              }
            },
            "name": "exports"
          },
          "computed": false
        },
        "right": {
          "type": "Identifier",
          "start": 91,
          "end": 103,
          "loc": {
            "start": {
              "line": 7,
              "column": 17
            },
            "end": {
              "line": 7,
              "column": 29
            }
          },
          "name": "treeConstant"
        }
      }
    }
  ]
}