{
  "type": "Program",
  "start": 0,
  "end": 795,
  "loc": {
    "start": {
      "line": 1,
      "column": 0
    },
    "end": {
      "line": 27,
      "column": 24
    }
  },
  "sourceType": "module",
  "body": [
    {
      "type": "ExpressionStatement",
      "start": 0,
      "end": 13,
      "loc": {
        "start": {
          "line": 1,
          "column": 0
        },
        "end": {
          "line": 1,
          "column": 13
        }
      },
      "expression": {
        "type": "Literal",
        "start": 0,
        "end": 12,
        "loc": {
          "start": {
            "line": 1,
            "column": 0
          },
          "end": {
            "line": 1,
            "column": 12
          }
        },
        "value": "use strict",
        "rawValue": "use strict",
        "raw": "\"use strict\""
      }
    },
    {
      "type": "VariableDeclaration",
      "start": 14,
      "end": 43,
      "loc": {
        "start": {
          "line": 2,
          "column": 0
        },
        "end": {
          "line": 2,
          "column": 29
        }
      },
      "declarations": [
        {
          "type": "VariableDeclarator",
          "start": 18,
          "end": 42,
          "loc": {
            "start": {
              "line": 2,
              "column": 4
            },
            "end": {
              "line": 2,
              "column": 28
            }
          },
          "id": {
            "type": "Identifier",
            "start": 18,
            "end": 23,
            "loc": {
              "start": {
                "line": 2,
                "column": 4
              },
              "end": {
                "line": 2,
                "column": 9
              }
            },
            "name": "React"
          },
          "init": {
            "type": "CallExpression",
            "start": 26,
            "end": 42,
            "loc": {
              "start": {
                "line": 2,
                "column": 12
              },
              "end": {
                "line": 2,
                "column": 28
              }
            },
            "callee": {
              "type": "Identifier",
              "start": 26,
              "end": 33,
              "loc": {
                "start": {
                  "line": 2,
                  "column": 12
                },
                "end": {
                  "line": 2,
                  "column": 19
                }
              },
              "name": "require"
            },
            "arguments": [
              {
                "type": "Literal",
                "start": 34,
                "end": 41,
                "loc": {
                  "start": {
                    "line": 2,
                    "column": 20
                  },
                  "end": {
                    "line": 2,
                    "column": 27
                  }
                },
                "value": "react",
                "rawValue": "react",
                "raw": "'react'"
              }
            ]
          }
        }
      ],
      "kind": "var"
    },
    {
      "type": "ClassDeclaration",
      "start": 45,
      "end": 769,
      "loc": {
        "start": {
          "line": 4,
          "column": 0
        },
        "end": {
          "line": 25,
          "column": 1
        }
      },
      "id": {
        "type": "Identifier",
        "start": 51,
        "end": 57,
        "loc": {
          "start": {
            "line": 4,
            "column": 6
          },
          "end": {
            "line": 4,
            "column": 12
          }
        },
        "name": "assets"
      },
      "superClass": {
        "type": "MemberExpression",
        "start": 66,
        "end": 81,
        "loc": {
          "start": {
            "line": 4,
            "column": 21
          },
          "end": {
            "line": 4,
            "column": 36
          }
        },
        "object": {
          "type": "Identifier",
          "start": 66,
          "end": 71,
          "loc": {
            "start": {
              "line": 4,
              "column": 21
            },
            "end": {
              "line": 4,
              "column": 26
            }
          },
          "name": "React"
        },
        "property": {
          "type": "Identifier",
          "start": 72,
          "end": 81,
          "loc": {
            "start": {
              "line": 4,
              "column": 27
            },
            "end": {
              "line": 4,
              "column": 36
            }
          },
          "name": "Component"
        },
        "computed": false
      },
      "body": {
        "type": "ClassBody",
        "start": 82,
        "end": 769,
        "loc": {
          "start": {
            "line": 4,
            "column": 37
          },
          "end": {
            "line": 25,
            "column": 1
          }
        },
        "body": [
          {
            "type": "MethodDefinition",
            "start": 86,
            "end": 767,
            "loc": {
              "start": {
                "line": 5,
                "column": 2
              },
              "end": {
                "line": 24,
                "column": 3
              }
            },
            "computed": false,
            "key": {
              "type": "Identifier",
              "start": 86,
              "end": 92,
              "loc": {
                "start": {
                  "line": 5,
                  "column": 2
                },
                "end": {
                  "line": 5,
                  "column": 8
                }
              },
              "name": "render"
            },
            "static": false,
            "kind": "method",
            "value": {
              "type": "FunctionExpression",
              "start": 93,
              "end": 767,
              "loc": {
                "start": {
                  "line": 5,
                  "column": 9
                },
                "end": {
                  "line": 24,
                  "column": 3
                }
              },
              "id": null,
              "generator": false,
              "expression": false,
              "async": false,
              "params": [],
              "body": {
                "type": "BlockStatement",
                "start": 96,
                "end": 767,
                "loc": {
                  "start": {
                    "line": 5,
                    "column": 12
                  },
                  "end": {
                    "line": 24,
                    "column": 3
                  }
                },
                "body": [
                  {
                    "type": "VariableDeclaration",
                    "start": 103,
                    "end": 137,
                    "loc": {
                      "start": {
                        "line": 6,
                        "column": 5
                      },
                      "end": {
                        "line": 6,
                        "column": 39
                      }
                    },
                    "declarations": [
                      {
                        "type": "VariableDeclarator",
                        "start": 107,
                        "end": 136,
                        "loc": {
                          "start": {
                            "line": 6,
                            "column": 9
                          },
                          "end": {
                            "line": 6,
                            "column": 38
                          }
                        },
                        "id": {
                          "type": "Identifier",
                          "start": 107,
                          "end": 111,
                          "loc": {
                            "start": {
                              "line": 6,
                              "column": 9
                            },
                            "end": {
                              "line": 6,
                              "column": 13
                            }
                          },
                          "name": "item"
                        },
                        "init": {
                          "type": "MemberExpression",
                          "start": 114,
                          "end": 136,
                          "loc": {
                            "start": {
                              "line": 6,
                              "column": 16
                            },
                            "end": {
                              "line": 6,
                              "column": 38
                            }
                          },
                          "object": {
                            "type": "MemberExpression",
                            "start": 114,
                            "end": 124,
                            "loc": {
                              "start": {
                                "line": 6,
                                "column": 16
                              },
                              "end": {
                                "line": 6,
                                "column": 26
                              }
                            },
                            "object": {
                              "type": "ThisExpression",
                              "start": 114,
                              "end": 118,
                              "loc": {
                                "start": {
                                  "line": 6,
                                  "column": 16
                                },
                                "end": {
                                  "line": 6,
                                  "column": 20
                                }
                              }
                            },
                            "property": {
                              "type": "Identifier",
                              "start": 119,
                              "end": 124,
                              "loc": {
                                "start": {
                                  "line": 6,
                                  "column": 21
                                },
                                "end": {
                                  "line": 6,
                                  "column": 26
                                }
                              },
                              "name": "props"
                            },
                            "computed": false
                          },
                          "property": {
                            "type": "Identifier",
                            "start": 125,
                            "end": 136,
                            "loc": {
                              "start": {
                                "line": 6,
                                "column": 27
                              },
                              "end": {
                                "line": 6,
                                "column": 38
                              }
                            },
                            "name": "productTemp"
                          },
                          "computed": false
                        }
                      }
                    ],
                    "kind": "var"
                  },
                  {
                    "type": "ReturnStatement",
                    "start": 144,
                    "end": 763,
                    "loc": {
                      "start": {
                        "line": 8,
                        "column": 5
                      },
                      "end": {
                        "line": 23,
                        "column": 6
                      }
                    },
                    "argument": {
                      "type": "JSXElement",
                      "start": 163,
                      "end": 756,
                      "loc": {
                        "start": {
                          "line": 9,
                          "column": 10
                        },
                        "end": {
                          "line": 22,
                          "column": 16
                        }
                      },
                      "openingElement": {
                        "type": "JSXOpeningElement",
                        "start": 163,
                        "end": 204,
                        "loc": {
                          "start": {
                            "line": 9,
                            "column": 10
                          },
                          "end": {
                            "line": 9,
                            "column": 51
                          }
                        },
                        "attributes": [
                          {
                            "type": "JSXAttribute",
                            "start": 168,
                            "end": 181,
                            "loc": {
                              "start": {
                                "line": 9,
                                "column": 15
                              },
                              "end": {
                                "line": 9,
                                "column": 28
                              }
                            },
                            "name": {
                              "type": "JSXIdentifier",
                              "start": 168,
                              "end": 171,
                              "loc": {
                                "start": {
                                  "line": 9,
                                  "column": 15
                                },
                                "end": {
                                  "line": 9,
                                  "column": 18
                                }
                              },
                              "name": "key"
                            },
                            "value": {
                              "type": "JSXExpressionContainer",
                              "start": 172,
                              "end": 181,
                              "loc": {
                                "start": {
                                  "line": 9,
                                  "column": 19
                                },
                                "end": {
                                  "line": 9,
                                  "column": 28
                                }
                              },
                              "expression": {
                                "type": "MemberExpression",
                                "start": 173,
                                "end": 180,
                                "loc": {
                                  "start": {
                                    "line": 9,
                                    "column": 20
                                  },
                                  "end": {
                                    "line": 9,
                                    "column": 27
                                  }
                                },
                                "object": {
                                  "type": "Identifier",
                                  "start": 173,
                                  "end": 177,
                                  "loc": {
                                    "start": {
                                      "line": 9,
                                      "column": 20
                                    },
                                    "end": {
                                      "line": 9,
                                      "column": 24
                                    }
                                  },
                                  "name": "item"
                                },
                                "property": {
                                  "type": "Identifier",
                                  "start": 178,
                                  "end": 180,
                                  "loc": {
                                    "start": {
                                      "line": 9,
                                      "column": 25
                                    },
                                    "end": {
                                      "line": 9,
                                      "column": 27
                                    }
                                  },
                                  "name": "id"
                                },
                                "computed": false
                              }
                            }
                          },
                          {
                            "type": "JSXAttribute",
                            "start": 182,
                            "end": 203,
                            "loc": {
                              "start": {
                                "line": 9,
                                "column": 29
                              },
                              "end": {
                                "line": 9,
                                "column": 50
                              }
                            },
                            "name": {
                              "type": "JSXIdentifier",
                              "start": 182,
                              "end": 191,
                              "loc": {
                                "start": {
                                  "line": 9,
                                  "column": 29
                                },
                                "end": {
                                  "line": 9,
                                  "column": 38
                                }
                              },
                              "name": "className"
                            },
                            "value": {
                              "type": "Literal",
                              "start": 192,
                              "end": 203,
                              "loc": {
                                "start": {
                                  "line": 9,
                                  "column": 39
                                },
                                "end": {
                                  "line": 9,
                                  "column": 50
                                }
                              },
                              "value": "card-item",
                              "rawValue": null,
                              "raw": "\"card-item\""
                            }
                          }
                        ],
                        "name": {
                          "type": "JSXIdentifier",
                          "start": 164,
                          "end": 167,
                          "loc": {
                            "start": {
                              "line": 9,
                              "column": 11
                            },
                            "end": {
                              "line": 9,
                              "column": 14
                            }
                          },
                          "name": "div"
                        },
                        "selfClosing": false
                      },
                      "closingElement": {
                        "type": "JSXClosingElement",
                        "start": 750,
                        "end": 756,
                        "loc": {
                          "start": {
                            "line": 22,
                            "column": 10
                          },
                          "end": {
                            "line": 22,
                            "column": 16
                          }
                        },
                        "name": {
                          "type": "JSXIdentifier",
                          "start": 752,
                          "end": 755,
                          "loc": {
                            "start": {
                              "line": 22,
                              "column": 12
                            },
                            "end": {
                              "line": 22,
                              "column": 15
                            }
                          },
                          "name": "div"
                        }
                      },
                      "children": [
                        {
                          "type": "Literal",
                          "start": 204,
                          "end": 221,
                          "loc": {
                            "start": {
                              "line": 9,
                              "column": 51
                            },
                            "end": {
                              "line": 10,
                              "column": 16
                            }
                          },
                          "value": "\n                ",
                          "rawValue": null,
                          "raw": "\n                "
                        },
                        {
                          "type": "JSXElement",
                          "start": 221,
                          "end": 246,
                          "loc": {
                            "start": {
                              "line": 10,
                              "column": 16
                            },
                            "end": {
                              "line": 10,
                              "column": 41
                            }
                          },
                          "openingElement": {
                            "type": "JSXOpeningElement",
                            "start": 221,
                            "end": 246,
                            "loc": {
                              "start": {
                                "line": 10,
                                "column": 16
                              },
                              "end": {
                                "line": 10,
                                "column": 41
                              }
                            },
                            "attributes": [
                              {
                                "type": "JSXAttribute",
                                "start": 228,
                                "end": 243,
                                "loc": {
                                  "start": {
                                    "line": 10,
                                    "column": 23
                                  },
                                  "end": {
                                    "line": 10,
                                    "column": 38
                                  }
                                },
                                "name": {
                                  "type": "JSXIdentifier",
                                  "start": 228,
                                  "end": 232,
                                  "loc": {
                                    "start": {
                                      "line": 10,
                                      "column": 23
                                    },
                                    "end": {
                                      "line": 10,
                                      "column": 27
                                    }
                                  },
                                  "name": "type"
                                },
                                "value": {
                                  "type": "Literal",
                                  "start": 233,
                                  "end": 243,
                                  "loc": {
                                    "start": {
                                      "line": 10,
                                      "column": 28
                                    },
                                    "end": {
                                      "line": 10,
                                      "column": 38
                                    }
                                  },
                                  "value": "checkbox",
                                  "rawValue": null,
                                  "raw": "\"checkbox\""
                                }
                              }
                            ],
                            "name": {
                              "type": "JSXIdentifier",
                              "start": 222,
                              "end": 227,
                              "loc": {
                                "start": {
                                  "line": 10,
                                  "column": 17
                                },
                                "end": {
                                  "line": 10,
                                  "column": 22
                                }
                              },
                              "name": "input"
                            },
                            "selfClosing": true
                          },
                          "closingElement": null,
                          "children": []
                        },
                        {
                          "type": "Literal",
                          "start": 246,
                          "end": 263,
                          "loc": {
                            "start": {
                              "line": 10,
                              "column": 41
                            },
                            "end": {
                              "line": 11,
                              "column": 16
                            }
                          },
                          "value": "\n                ",
                          "rawValue": null,
                          "raw": "\n                "
                        },
                        {
                          "type": "JSXElement",
                          "start": 263,
                          "end": 407,
                          "loc": {
                            "start": {
                              "line": 11,
                              "column": 16
                            },
                            "end": {
                              "line": 13,
                              "column": 22
                            }
                          },
                          "openingElement": {
                            "type": "JSXOpeningElement",
                            "start": 263,
                            "end": 300,
                            "loc": {
                              "start": {
                                "line": 11,
                                "column": 16
                              },
                              "end": {
                                "line": 11,
                                "column": 53
                              }
                            },
                            "attributes": [
                              {
                                "type": "JSXAttribute",
                                "start": 268,
                                "end": 299,
                                "loc": {
                                  "start": {
                                    "line": 11,
                                    "column": 21
                                  },
                                  "end": {
                                    "line": 11,
                                    "column": 52
                                  }
                                },
                                "name": {
                                  "type": "JSXIdentifier",
                                  "start": 268,
                                  "end": 277,
                                  "loc": {
                                    "start": {
                                      "line": 11,
                                      "column": 21
                                    },
                                    "end": {
                                      "line": 11,
                                      "column": 30
                                    }
                                  },
                                  "name": "className"
                                },
                                "value": {
                                  "type": "Literal",
                                  "start": 278,
                                  "end": 299,
                                  "loc": {
                                    "start": {
                                      "line": 11,
                                      "column": 31
                                    },
                                    "end": {
                                      "line": 11,
                                      "column": 52
                                    }
                                  },
                                  "value": "thumbnail card-body",
                                  "rawValue": null,
                                  "raw": "\"thumbnail card-body\""
                                }
                              }
                            ],
                            "name": {
                              "type": "JSXIdentifier",
                              "start": 264,
                              "end": 267,
                              "loc": {
                                "start": {
                                  "line": 11,
                                  "column": 17
                                },
                                "end": {
                                  "line": 11,
                                  "column": 20
                                }
                              },
                              "name": "div"
                            },
                            "selfClosing": false
                          },
                          "closingElement": {
                            "type": "JSXClosingElement",
                            "start": 401,
                            "end": 407,
                            "loc": {
                              "start": {
                                "line": 13,
                                "column": 16
                              },
                              "end": {
                                "line": 13,
                                "column": 22
                              }
                            },
                            "name": {
                              "type": "JSXIdentifier",
                              "start": 403,
                              "end": 406,
                              "loc": {
                                "start": {
                                  "line": 13,
                                  "column": 18
                                },
                                "end": {
                                  "line": 13,
                                  "column": 21
                                }
                              },
                              "name": "div"
                            }
                          },
                          "children": [
                            {
                              "type": "Literal",
                              "start": 300,
                              "end": 321,
                              "loc": {
                                "start": {
                                  "line": 11,
                                  "column": 53
                                },
                                "end": {
                                  "line": 12,
                                  "column": 20
                                }
                              },
                              "value": "\n                    ",
                              "rawValue": null,
                              "raw": "\n                    "
                            },
                            {
                              "type": "JSXElement",
                              "start": 321,
                              "end": 384,
                              "loc": {
                                "start": {
                                  "line": 12,
                                  "column": 20
                                },
                                "end": {
                                  "line": 12,
                                  "column": 83
                                }
                              },
                              "openingElement": {
                                "type": "JSXOpeningElement",
                                "start": 321,
                                "end": 384,
                                "loc": {
                                  "start": {
                                    "line": 12,
                                    "column": 20
                                  },
                                  "end": {
                                    "line": 12,
                                    "column": 83
                                  }
                                },
                                "attributes": [
                                  {
                                    "type": "JSXAttribute",
                                    "start": 326,
                                    "end": 340,
                                    "loc": {
                                      "start": {
                                        "line": 12,
                                        "column": 25
                                      },
                                      "end": {
                                        "line": 12,
                                        "column": 39
                                      }
                                    },
                                    "name": {
                                      "type": "JSXIdentifier",
                                      "start": 326,
                                      "end": 329,
                                      "loc": {
                                        "start": {
                                          "line": 12,
                                          "column": 25
                                        },
                                        "end": {
                                          "line": 12,
                                          "column": 28
                                        }
                                      },
                                      "name": "src"
                                    },
                                    "value": {
                                      "type": "JSXExpressionContainer",
                                      "start": 330,
                                      "end": 340,
                                      "loc": {
                                        "start": {
                                          "line": 12,
                                          "column": 29
                                        },
                                        "end": {
                                          "line": 12,
                                          "column": 39
                                        }
                                      },
                                      "expression": {
                                        "type": "MemberExpression",
                                        "start": 331,
                                        "end": 339,
                                        "loc": {
                                          "start": {
                                            "line": 12,
                                            "column": 30
                                          },
                                          "end": {
                                            "line": 12,
                                            "column": 38
                                          }
                                        },
                                        "object": {
                                          "type": "Identifier",
                                          "start": 331,
                                          "end": 335,
                                          "loc": {
                                            "start": {
                                              "line": 12,
                                              "column": 30
                                            },
                                            "end": {
                                              "line": 12,
                                              "column": 34
                                            }
                                          },
                                          "name": "item"
                                        },
                                        "property": {
                                          "type": "Identifier",
                                          "start": 336,
                                          "end": 339,
                                          "loc": {
                                            "start": {
                                              "line": 12,
                                              "column": 35
                                            },
                                            "end": {
                                              "line": 12,
                                              "column": 38
                                            }
                                          },
                                          "name": "url"
                                        },
                                        "computed": false
                                      }
                                    }
                                  },
                                  {
                                    "type": "JSXAttribute",
                                    "start": 341,
                                    "end": 361,
                                    "loc": {
                                      "start": {
                                        "line": 12,
                                        "column": 40
                                      },
                                      "end": {
                                        "line": 12,
                                        "column": 60
                                      }
                                    },
                                    "name": {
                                      "type": "JSXIdentifier",
                                      "start": 341,
                                      "end": 350,
                                      "loc": {
                                        "start": {
                                          "line": 12,
                                          "column": 40
                                        },
                                        "end": {
                                          "line": 12,
                                          "column": 49
                                        }
                                      },
                                      "name": "className"
                                    },
                                    "value": {
                                      "type": "Literal",
                                      "start": 351,
                                      "end": 361,
                                      "loc": {
                                        "start": {
                                          "line": 12,
                                          "column": 50
                                        },
                                        "end": {
                                          "line": 12,
                                          "column": 60
                                        }
                                      },
                                      "value": "card-img",
                                      "rawValue": null,
                                      "raw": "\"card-img\""
                                    }
                                  },
                                  {
                                    "type": "JSXAttribute",
                                    "start": 362,
                                    "end": 381,
                                    "loc": {
                                      "start": {
                                        "line": 12,
                                        "column": 61
                                      },
                                      "end": {
                                        "line": 12,
                                        "column": 80
                                      }
                                    },
                                    "name": {
                                      "type": "JSXIdentifier",
                                      "start": 362,
                                      "end": 365,
                                      "loc": {
                                        "start": {
                                          "line": 12,
                                          "column": 61
                                        },
                                        "end": {
                                          "line": 12,
                                          "column": 64
                                        }
                                      },
                                      "name": "alt"
                                    },
                                    "value": {
                                      "type": "Literal",
                                      "start": 366,
                                      "end": 381,
                                      "loc": {
                                        "start": {
                                          "line": 12,
                                          "column": 65
                                        },
                                        "end": {
                                          "line": 12,
                                          "column": 80
                                        }
                                      },
                                      "value": "product image",
                                      "rawValue": null,
                                      "raw": "\"product image\""
                                    }
                                  }
                                ],
                                "name": {
                                  "type": "JSXIdentifier",
                                  "start": 322,
                                  "end": 325,
                                  "loc": {
                                    "start": {
                                      "line": 12,
                                      "column": 21
                                    },
                                    "end": {
                                      "line": 12,
                                      "column": 24
                                    }
                                  },
                                  "name": "img"
                                },
                                "selfClosing": true
                              },
                              "closingElement": null,
                              "children": []
                            },
                            {
                              "type": "Literal",
                              "start": 384,
                              "end": 401,
                              "loc": {
                                "start": {
                                  "line": 12,
                                  "column": 83
                                },
                                "end": {
                                  "line": 13,
                                  "column": 16
                                }
                              },
                              "value": "\n                ",
                              "rawValue": null,
                              "raw": "\n                "
                            }
                          ]
                        },
                        {
                          "type": "Literal",
                          "start": 407,
                          "end": 423,
                          "loc": {
                            "start": {
                              "line": 13,
                              "column": 22
                            },
                            "end": {
                              "line": 14,
                              "column": 15
                            }
                          },
                          "value": "\n               ",
                          "rawValue": null,
                          "raw": "\n               "
                        },
                        {
                          "type": "JSXElement",
                          "start": 423,
                          "end": 739,
                          "loc": {
                            "start": {
                              "line": 14,
                              "column": 15
                            },
                            "end": {
                              "line": 21,
                              "column": 24
                            }
                          },
                          "openingElement": {
                            "type": "JSXOpeningElement",
                            "start": 423,
                            "end": 455,
                            "loc": {
                              "start": {
                                "line": 14,
                                "column": 15
                              },
                              "end": {
                                "line": 14,
                                "column": 47
                              }
                            },
                            "attributes": [
                              {
                                "type": "JSXAttribute",
                                "start": 431,
                                "end": 454,
                                "loc": {
                                  "start": {
                                    "line": 14,
                                    "column": 23
                                  },
                                  "end": {
                                    "line": 14,
                                    "column": 46
                                  }
                                },
                                "name": {
                                  "type": "JSXIdentifier",
                                  "start": 431,
                                  "end": 440,
                                  "loc": {
                                    "start": {
                                      "line": 14,
                                      "column": 23
                                    },
                                    "end": {
                                      "line": 14,
                                      "column": 32
                                    }
                                  },
                                  "name": "className"
                                },
                                "value": {
                                  "type": "Literal",
                                  "start": 441,
                                  "end": 454,
                                  "loc": {
                                    "start": {
                                      "line": 14,
                                      "column": 33
                                    },
                                    "end": {
                                      "line": 14,
                                      "column": 46
                                    }
                                  },
                                  "value": "card-footer",
                                  "rawValue": null,
                                  "raw": "\"card-footer\""
                                }
                              }
                            ],
                            "name": {
                              "type": "JSXIdentifier",
                              "start": 424,
                              "end": 430,
                              "loc": {
                                "start": {
                                  "line": 14,
                                  "column": 16
                                },
                                "end": {
                                  "line": 14,
                                  "column": 22
                                }
                              },
                              "name": "footer"
                            },
                            "selfClosing": false
                          },
                          "closingElement": {
                            "type": "JSXClosingElement",
                            "start": 730,
                            "end": 739,
                            "loc": {
                              "start": {
                                "line": 21,
                                "column": 15
                              },
                              "end": {
                                "line": 21,
                                "column": 24
                              }
                            },
                            "name": {
                              "type": "JSXIdentifier",
                              "start": 732,
                              "end": 738,
                              "loc": {
                                "start": {
                                  "line": 21,
                                  "column": 17
                                },
                                "end": {
                                  "line": 21,
                                  "column": 23
                                }
                              },
                              "name": "footer"
                            }
                          },
                          "children": [
                            {
                              "type": "Literal",
                              "start": 455,
                              "end": 472,
                              "loc": {
                                "start": {
                                  "line": 14,
                                  "column": 47
                                },
                                "end": {
                                  "line": 15,
                                  "column": 16
                                }
                              },
                              "value": "\n                ",
                              "rawValue": null,
                              "raw": "\n                "
                            },
                            {
                              "type": "JSXElement",
                              "start": 472,
                              "end": 564,
                              "loc": {
                                "start": {
                                  "line": 15,
                                  "column": 16
                                },
                                "end": {
                                  "line": 17,
                                  "column": 22
                                }
                              },
                              "openingElement": {
                                "type": "JSXOpeningElement",
                                "start": 472,
                                "end": 504,
                                "loc": {
                                  "start": {
                                    "line": 15,
                                    "column": 16
                                  },
                                  "end": {
                                    "line": 15,
                                    "column": 48
                                  }
                                },
                                "attributes": [
                                  {
                                    "type": "JSXAttribute",
                                    "start": 477,
                                    "end": 503,
                                    "loc": {
                                      "start": {
                                        "line": 15,
                                        "column": 21
                                      },
                                      "end": {
                                        "line": 15,
                                        "column": 47
                                      }
                                    },
                                    "name": {
                                      "type": "JSXIdentifier",
                                      "start": 477,
                                      "end": 486,
                                      "loc": {
                                        "start": {
                                          "line": 15,
                                          "column": 21
                                        },
                                        "end": {
                                          "line": 15,
                                          "column": 30
                                        }
                                      },
                                      "name": "className"
                                    },
                                    "value": {
                                      "type": "Literal",
                                      "start": 487,
                                      "end": 503,
                                      "loc": {
                                        "start": {
                                          "line": 15,
                                          "column": 31
                                        },
                                        "end": {
                                          "line": 15,
                                          "column": 47
                                        }
                                      },
                                      "value": "browseDescWrap",
                                      "rawValue": null,
                                      "raw": "\"browseDescWrap\""
                                    }
                                  }
                                ],
                                "name": {
                                  "type": "JSXIdentifier",
                                  "start": 473,
                                  "end": 476,
                                  "loc": {
                                    "start": {
                                      "line": 15,
                                      "column": 17
                                    },
                                    "end": {
                                      "line": 15,
                                      "column": 20
                                    }
                                  },
                                  "name": "div"
                                },
                                "selfClosing": false
                              },
                              "closingElement": {
                                "type": "JSXClosingElement",
                                "start": 558,
                                "end": 564,
                                "loc": {
                                  "start": {
                                    "line": 17,
                                    "column": 16
                                  },
                                  "end": {
                                    "line": 17,
                                    "column": 22
                                  }
                                },
                                "name": {
                                  "type": "JSXIdentifier",
                                  "start": 560,
                                  "end": 563,
                                  "loc": {
                                    "start": {
                                      "line": 17,
                                      "column": 18
                                    },
                                    "end": {
                                      "line": 17,
                                      "column": 21
                                    }
                                  },
                                  "name": "div"
                                }
                              },
                              "children": [
                                {
                                  "type": "Literal",
                                  "start": 504,
                                  "end": 523,
                                  "loc": {
                                    "start": {
                                      "line": 15,
                                      "column": 48
                                    },
                                    "end": {
                                      "line": 16,
                                      "column": 18
                                    }
                                  },
                                  "value": "\n                  ",
                                  "rawValue": null,
                                  "raw": "\n                  "
                                },
                                {
                                  "type": "JSXElement",
                                  "start": 523,
                                  "end": 541,
                                  "loc": {
                                    "start": {
                                      "line": 16,
                                      "column": 18
                                    },
                                    "end": {
                                      "line": 16,
                                      "column": 36
                                    }
                                  },
                                  "openingElement": {
                                    "type": "JSXOpeningElement",
                                    "start": 523,
                                    "end": 526,
                                    "loc": {
                                      "start": {
                                        "line": 16,
                                        "column": 18
                                      },
                                      "end": {
                                        "line": 16,
                                        "column": 21
                                      }
                                    },
                                    "attributes": [],
                                    "name": {
                                      "type": "JSXIdentifier",
                                      "start": 524,
                                      "end": 525,
                                      "loc": {
                                        "start": {
                                          "line": 16,
                                          "column": 19
                                        },
                                        "end": {
                                          "line": 16,
                                          "column": 20
                                        }
                                      },
                                      "name": "p"
                                    },
                                    "selfClosing": false
                                  },
                                  "closingElement": {
                                    "type": "JSXClosingElement",
                                    "start": 537,
                                    "end": 541,
                                    "loc": {
                                      "start": {
                                        "line": 16,
                                        "column": 32
                                      },
                                      "end": {
                                        "line": 16,
                                        "column": 36
                                      }
                                    },
                                    "name": {
                                      "type": "JSXIdentifier",
                                      "start": 539,
                                      "end": 540,
                                      "loc": {
                                        "start": {
                                          "line": 16,
                                          "column": 34
                                        },
                                        "end": {
                                          "line": 16,
                                          "column": 35
                                        }
                                      },
                                      "name": "p"
                                    }
                                  },
                                  "children": [
                                    {
                                      "type": "JSXExpressionContainer",
                                      "start": 526,
                                      "end": 537,
                                      "loc": {
                                        "start": {
                                          "line": 16,
                                          "column": 21
                                        },
                                        "end": {
                                          "line": 16,
                                          "column": 32
                                        }
                                      },
                                      "expression": {
                                        "type": "MemberExpression",
                                        "start": 527,
                                        "end": 536,
                                        "loc": {
                                          "start": {
                                            "line": 16,
                                            "column": 22
                                          },
                                          "end": {
                                            "line": 16,
                                            "column": 31
                                          }
                                        },
                                        "object": {
                                          "type": "Identifier",
                                          "start": 527,
                                          "end": 531,
                                          "loc": {
                                            "start": {
                                              "line": 16,
                                              "column": 22
                                            },
                                            "end": {
                                              "line": 16,
                                              "column": 26
                                            }
                                          },
                                          "name": "item"
                                        },
                                        "property": {
                                          "type": "Identifier",
                                          "start": 532,
                                          "end": 536,
                                          "loc": {
                                            "start": {
                                              "line": 16,
                                              "column": 27
                                            },
                                            "end": {
                                              "line": 16,
                                              "column": 31
                                            }
                                          },
                                          "name": "desc"
                                        },
                                        "computed": false
                                      }
                                    }
                                  ]
                                },
                                {
                                  "type": "Literal",
                                  "start": 541,
                                  "end": 558,
                                  "loc": {
                                    "start": {
                                      "line": 16,
                                      "column": 36
                                    },
                                    "end": {
                                      "line": 17,
                                      "column": 16
                                    }
                                  },
                                  "value": "\n                ",
                                  "rawValue": null,
                                  "raw": "\n                "
                                }
                              ]
                            },
                            {
                              "type": "Literal",
                              "start": 564,
                              "end": 581,
                              "loc": {
                                "start": {
                                  "line": 17,
                                  "column": 22
                                },
                                "end": {
                                  "line": 18,
                                  "column": 16
                                }
                              },
                              "value": "\n                ",
                              "rawValue": null,
                              "raw": "\n                "
                            },
                            {
                              "type": "JSXElement",
                              "start": 581,
                              "end": 714,
                              "loc": {
                                "start": {
                                  "line": 18,
                                  "column": 16
                                },
                                "end": {
                                  "line": 20,
                                  "column": 22
                                }
                              },
                              "openingElement": {
                                "type": "JSXOpeningElement",
                                "start": 581,
                                "end": 610,
                                "loc": {
                                  "start": {
                                    "line": 18,
                                    "column": 16
                                  },
                                  "end": {
                                    "line": 18,
                                    "column": 45
                                  }
                                },
                                "attributes": [
                                  {
                                    "type": "JSXAttribute",
                                    "start": 586,
                                    "end": 609,
                                    "loc": {
                                      "start": {
                                        "line": 18,
                                        "column": 21
                                      },
                                      "end": {
                                        "line": 18,
                                        "column": 44
                                      }
                                    },
                                    "name": {
                                      "type": "JSXIdentifier",
                                      "start": 586,
                                      "end": 595,
                                      "loc": {
                                        "start": {
                                          "line": 18,
                                          "column": 21
                                        },
                                        "end": {
                                          "line": 18,
                                          "column": 30
                                        }
                                      },
                                      "name": "className"
                                    },
                                    "value": {
                                      "type": "Literal",
                                      "start": 596,
                                      "end": 609,
                                      "loc": {
                                        "start": {
                                          "line": 18,
                                          "column": 31
                                        },
                                        "end": {
                                          "line": 18,
                                          "column": 44
                                        }
                                      },
                                      "value": "footer-icon",
                                      "rawValue": null,
                                      "raw": "\"footer-icon\""
                                    }
                                  }
                                ],
                                "name": {
                                  "type": "JSXIdentifier",
                                  "start": 582,
                                  "end": 585,
                                  "loc": {
                                    "start": {
                                      "line": 18,
                                      "column": 17
                                    },
                                    "end": {
                                      "line": 18,
                                      "column": 20
                                    }
                                  },
                                  "name": "div"
                                },
                                "selfClosing": false
                              },
                              "closingElement": {
                                "type": "JSXClosingElement",
                                "start": 708,
                                "end": 714,
                                "loc": {
                                  "start": {
                                    "line": 20,
                                    "column": 16
                                  },
                                  "end": {
                                    "line": 20,
                                    "column": 22
                                  }
                                },
                                "name": {
                                  "type": "JSXIdentifier",
                                  "start": 710,
                                  "end": 713,
                                  "loc": {
                                    "start": {
                                      "line": 20,
                                      "column": 18
                                    },
                                    "end": {
                                      "line": 20,
                                      "column": 21
                                    }
                                  },
                                  "name": "div"
                                }
                              },
                              "children": [
                                {
                                  "type": "Literal",
                                  "start": 610,
                                  "end": 631,
                                  "loc": {
                                    "start": {
                                      "line": 18,
                                      "column": 45
                                    },
                                    "end": {
                                      "line": 19,
                                      "column": 20
                                    }
                                  },
                                  "value": "\n                    ",
                                  "rawValue": null,
                                  "raw": "\n                    "
                                },
                                {
                                  "type": "JSXElement",
                                  "start": 631,
                                  "end": 691,
                                  "loc": {
                                    "start": {
                                      "line": 19,
                                      "column": 20
                                    },
                                    "end": {
                                      "line": 19,
                                      "column": 80
                                    }
                                  },
                                  "openingElement": {
                                    "type": "JSXOpeningElement",
                                    "start": 631,
                                    "end": 687,
                                    "loc": {
                                      "start": {
                                        "line": 19,
                                        "column": 20
                                      },
                                      "end": {
                                        "line": 19,
                                        "column": 76
                                      }
                                    },
                                    "attributes": [
                                      {
                                        "type": "JSXAttribute",
                                        "start": 634,
                                        "end": 686,
                                        "loc": {
                                          "start": {
                                            "line": 19,
                                            "column": 23
                                          },
                                          "end": {
                                            "line": 19,
                                            "column": 75
                                          }
                                        },
                                        "name": {
                                          "type": "JSXIdentifier",
                                          "start": 634,
                                          "end": 643,
                                          "loc": {
                                            "start": {
                                              "line": 19,
                                              "column": 23
                                            },
                                            "end": {
                                              "line": 19,
                                              "column": 32
                                            }
                                          },
                                          "name": "className"
                                        },
                                        "value": {
                                          "type": "JSXExpressionContainer",
                                          "start": 645,
                                          "end": 686,
                                          "loc": {
                                            "start": {
                                              "line": 19,
                                              "column": 34
                                            },
                                            "end": {
                                              "line": 19,
                                              "column": 75
                                            }
                                          },
                                          "expression": {
                                            "type": "BinaryExpression",
                                            "start": 646,
                                            "end": 685,
                                            "loc": {
                                              "start": {
                                                "line": 19,
                                                "column": 35
                                              },
                                              "end": {
                                                "line": 19,
                                                "column": 74
                                              }
                                            },
                                            "left": {
                                              "type": "MemberExpression",
                                              "start": 646,
                                              "end": 655,
                                              "loc": {
                                                "start": {
                                                  "line": 19,
                                                  "column": 35
                                                },
                                                "end": {
                                                  "line": 19,
                                                  "column": 44
                                                }
                                              },
                                              "object": {
                                                "type": "Identifier",
                                                "start": 646,
                                                "end": 650,
                                                "loc": {
                                                  "start": {
                                                    "line": 19,
                                                    "column": 35
                                                  },
                                                  "end": {
                                                    "line": 19,
                                                    "column": 39
                                                  }
                                                },
                                                "name": "item"
                                              },
                                              "property": {
                                                "type": "Identifier",
                                                "start": 651,
                                                "end": 655,
                                                "loc": {
                                                  "start": {
                                                    "line": 19,
                                                    "column": 40
                                                  },
                                                  "end": {
                                                    "line": 19,
                                                    "column": 44
                                                  }
                                                },
                                                "name": "type"
                                              },
                                              "computed": false
                                            },
                                            "operator": "+",
                                            "right": {
                                              "type": "Literal",
                                              "start": 658,
                                              "end": 685,
                                              "loc": {
                                                "start": {
                                                  "line": 19,
                                                  "column": 47
                                                },
                                                "end": {
                                                  "line": 19,
                                                  "column": 74
                                                }
                                              },
                                              "value": " image icon-accessibility",
                                              "rawValue": " image icon-accessibility",
                                              "raw": "\" image icon-accessibility\""
                                            }
                                          }
                                        }
                                      }
                                    ],
                                    "name": {
                                      "type": "JSXIdentifier",
                                      "start": 632,
                                      "end": 633,
                                      "loc": {
                                        "start": {
                                          "line": 19,
                                          "column": 21
                                        },
                                        "end": {
                                          "line": 19,
                                          "column": 22
                                        }
                                      },
                                      "name": "i"
                                    },
                                    "selfClosing": false
                                  },
                                  "closingElement": {
                                    "type": "JSXClosingElement",
                                    "start": 687,
                                    "end": 691,
                                    "loc": {
                                      "start": {
                                        "line": 19,
                                        "column": 76
                                      },
                                      "end": {
                                        "line": 19,
                                        "column": 80
                                      }
                                    },
                                    "name": {
                                      "type": "JSXIdentifier",
                                      "start": 689,
                                      "end": 690,
                                      "loc": {
                                        "start": {
                                          "line": 19,
                                          "column": 78
                                        },
                                        "end": {
                                          "line": 19,
                                          "column": 79
                                        }
                                      },
                                      "name": "i"
                                    }
                                  },
                                  "children": []
                                },
                                {
                                  "type": "Literal",
                                  "start": 691,
                                  "end": 708,
                                  "loc": {
                                    "start": {
                                      "line": 19,
                                      "column": 80
                                    },
                                    "end": {
                                      "line": 20,
                                      "column": 16
                                    }
                                  },
                                  "value": "\n                ",
                                  "rawValue": null,
                                  "raw": "\n                "
                                }
                              ]
                            },
                            {
                              "type": "Literal",
                              "start": 714,
                              "end": 730,
                              "loc": {
                                "start": {
                                  "line": 20,
                                  "column": 22
                                },
                                "end": {
                                  "line": 21,
                                  "column": 15
                                }
                              },
                              "value": "\n               ",
                              "rawValue": null,
                              "raw": "\n               "
                            }
                          ]
                        },
                        {
                          "type": "Literal",
                          "start": 739,
                          "end": 750,
                          "loc": {
                            "start": {
                              "line": 21,
                              "column": 24
                            },
                            "end": {
                              "line": 22,
                              "column": 10
                            }
                          },
                          "value": "\n          ",
                          "rawValue": null,
                          "raw": "\n          "
                        }
                      ],
                      "parenthesizedExpression": true
                    }
                  }
                ]
              }
            }
          }
        ]
      }
    },
    {
      "type": "ExpressionStatement",
      "start": 771,
      "end": 795,
      "loc": {
        "start": {
          "line": 27,
          "column": 0
        },
        "end": {
          "line": 27,
          "column": 24
        }
      },
      "expression": {
        "type": "AssignmentExpression",
        "start": 771,
        "end": 794,
        "loc": {
          "start": {
            "line": 27,
            "column": 0
          },
          "end": {
            "line": 27,
            "column": 23
          }
        },
        "operator": "=",
        "left": {
          "type": "MemberExpression",
          "start": 771,
          "end": 785,
          "loc": {
            "start": {
              "line": 27,
              "column": 0
            },
            "end": {
              "line": 27,
              "column": 14
            }
          },
          "object": {
            "type": "Identifier",
            "start": 771,
            "end": 777,
            "loc": {
              "start": {
                "line": 27,
                "column": 0
              },
              "end": {
                "line": 27,
                "column": 6
              }
            },
            "name": "module"
          },
          "property": {
            "type": "Identifier",
            "start": 778,
            "end": 785,
            "loc": {
              "start": {
                "line": 27,
                "column": 7
              },
              "end": {
                "line": 27,
                "column": 14
              }
            },
            "name": "exports"
          },
          "computed": false
        },
        "right": {
          "type": "Identifier",
          "start": 788,
          "end": 794,
          "loc": {
            "start": {
              "line": 27,
              "column": 17
            },
            "end": {
              "line": 27,
              "column": 23
            }
          },
          "name": "assets"
        }
      }
    }
  ]
}